G04 #@! TF.GenerationSoftware,KiCad,Pcbnew,(5.1.5-0-10_14)*
G04 #@! TF.CreationDate,2020-09-03T12:45:04-04:00*
G04 #@! TF.ProjectId,ledspy,6c656473-7079-42e6-9b69-6361645f7063,rev?*
G04 #@! TF.SameCoordinates,Original*
G04 #@! TF.FileFunction,Paste,Bot*
G04 #@! TF.FilePolarity,Positive*
%FSLAX46Y46*%
G04 Gerber Fmt 4.6, Leading zero omitted, Abs format (unit mm)*
G04 Created by KiCad (PCBNEW (5.1.5-0-10_14)) date 2020-09-03 12:45:04*
%MOMM*%
%LPD*%
G04 APERTURE LIST*
%ADD10R,5.350000X2.000000*%
%ADD11C,0.100000*%
%ADD12R,0.900000X0.800000*%
G04 APERTURE END LIST*
D10*
X212837000Y1270000D03*
X220487000Y1270000D03*
D11*
G36*
X214921703Y-8612722D02*
G01*
X214936264Y-8614882D01*
X214950543Y-8618459D01*
X214964403Y-8623418D01*
X214977710Y-8629712D01*
X214990336Y-8637280D01*
X215002159Y-8646048D01*
X215013066Y-8655934D01*
X215022952Y-8666841D01*
X215031720Y-8678664D01*
X215039288Y-8691290D01*
X215045582Y-8704597D01*
X215050541Y-8718457D01*
X215054118Y-8732736D01*
X215056278Y-8747297D01*
X215057000Y-8762000D01*
X215057000Y-10412000D01*
X215056278Y-10426703D01*
X215054118Y-10441264D01*
X215050541Y-10455543D01*
X215045582Y-10469403D01*
X215039288Y-10482710D01*
X215031720Y-10495336D01*
X215022952Y-10507159D01*
X215013066Y-10518066D01*
X215002159Y-10527952D01*
X214990336Y-10536720D01*
X214977710Y-10544288D01*
X214964403Y-10550582D01*
X214950543Y-10555541D01*
X214936264Y-10559118D01*
X214921703Y-10561278D01*
X214907000Y-10562000D01*
X214607000Y-10562000D01*
X214592297Y-10561278D01*
X214577736Y-10559118D01*
X214563457Y-10555541D01*
X214549597Y-10550582D01*
X214536290Y-10544288D01*
X214523664Y-10536720D01*
X214511841Y-10527952D01*
X214500934Y-10518066D01*
X214491048Y-10507159D01*
X214482280Y-10495336D01*
X214474712Y-10482710D01*
X214468418Y-10469403D01*
X214463459Y-10455543D01*
X214459882Y-10441264D01*
X214457722Y-10426703D01*
X214457000Y-10412000D01*
X214457000Y-8762000D01*
X214457722Y-8747297D01*
X214459882Y-8732736D01*
X214463459Y-8718457D01*
X214468418Y-8704597D01*
X214474712Y-8691290D01*
X214482280Y-8678664D01*
X214491048Y-8666841D01*
X214500934Y-8655934D01*
X214511841Y-8646048D01*
X214523664Y-8637280D01*
X214536290Y-8629712D01*
X214549597Y-8623418D01*
X214563457Y-8618459D01*
X214577736Y-8614882D01*
X214592297Y-8612722D01*
X214607000Y-8612000D01*
X214907000Y-8612000D01*
X214921703Y-8612722D01*
G37*
G36*
X216191703Y-8612722D02*
G01*
X216206264Y-8614882D01*
X216220543Y-8618459D01*
X216234403Y-8623418D01*
X216247710Y-8629712D01*
X216260336Y-8637280D01*
X216272159Y-8646048D01*
X216283066Y-8655934D01*
X216292952Y-8666841D01*
X216301720Y-8678664D01*
X216309288Y-8691290D01*
X216315582Y-8704597D01*
X216320541Y-8718457D01*
X216324118Y-8732736D01*
X216326278Y-8747297D01*
X216327000Y-8762000D01*
X216327000Y-10412000D01*
X216326278Y-10426703D01*
X216324118Y-10441264D01*
X216320541Y-10455543D01*
X216315582Y-10469403D01*
X216309288Y-10482710D01*
X216301720Y-10495336D01*
X216292952Y-10507159D01*
X216283066Y-10518066D01*
X216272159Y-10527952D01*
X216260336Y-10536720D01*
X216247710Y-10544288D01*
X216234403Y-10550582D01*
X216220543Y-10555541D01*
X216206264Y-10559118D01*
X216191703Y-10561278D01*
X216177000Y-10562000D01*
X215877000Y-10562000D01*
X215862297Y-10561278D01*
X215847736Y-10559118D01*
X215833457Y-10555541D01*
X215819597Y-10550582D01*
X215806290Y-10544288D01*
X215793664Y-10536720D01*
X215781841Y-10527952D01*
X215770934Y-10518066D01*
X215761048Y-10507159D01*
X215752280Y-10495336D01*
X215744712Y-10482710D01*
X215738418Y-10469403D01*
X215733459Y-10455543D01*
X215729882Y-10441264D01*
X215727722Y-10426703D01*
X215727000Y-10412000D01*
X215727000Y-8762000D01*
X215727722Y-8747297D01*
X215729882Y-8732736D01*
X215733459Y-8718457D01*
X215738418Y-8704597D01*
X215744712Y-8691290D01*
X215752280Y-8678664D01*
X215761048Y-8666841D01*
X215770934Y-8655934D01*
X215781841Y-8646048D01*
X215793664Y-8637280D01*
X215806290Y-8629712D01*
X215819597Y-8623418D01*
X215833457Y-8618459D01*
X215847736Y-8614882D01*
X215862297Y-8612722D01*
X215877000Y-8612000D01*
X216177000Y-8612000D01*
X216191703Y-8612722D01*
G37*
G36*
X217461703Y-8612722D02*
G01*
X217476264Y-8614882D01*
X217490543Y-8618459D01*
X217504403Y-8623418D01*
X217517710Y-8629712D01*
X217530336Y-8637280D01*
X217542159Y-8646048D01*
X217553066Y-8655934D01*
X217562952Y-8666841D01*
X217571720Y-8678664D01*
X217579288Y-8691290D01*
X217585582Y-8704597D01*
X217590541Y-8718457D01*
X217594118Y-8732736D01*
X217596278Y-8747297D01*
X217597000Y-8762000D01*
X217597000Y-10412000D01*
X217596278Y-10426703D01*
X217594118Y-10441264D01*
X217590541Y-10455543D01*
X217585582Y-10469403D01*
X217579288Y-10482710D01*
X217571720Y-10495336D01*
X217562952Y-10507159D01*
X217553066Y-10518066D01*
X217542159Y-10527952D01*
X217530336Y-10536720D01*
X217517710Y-10544288D01*
X217504403Y-10550582D01*
X217490543Y-10555541D01*
X217476264Y-10559118D01*
X217461703Y-10561278D01*
X217447000Y-10562000D01*
X217147000Y-10562000D01*
X217132297Y-10561278D01*
X217117736Y-10559118D01*
X217103457Y-10555541D01*
X217089597Y-10550582D01*
X217076290Y-10544288D01*
X217063664Y-10536720D01*
X217051841Y-10527952D01*
X217040934Y-10518066D01*
X217031048Y-10507159D01*
X217022280Y-10495336D01*
X217014712Y-10482710D01*
X217008418Y-10469403D01*
X217003459Y-10455543D01*
X216999882Y-10441264D01*
X216997722Y-10426703D01*
X216997000Y-10412000D01*
X216997000Y-8762000D01*
X216997722Y-8747297D01*
X216999882Y-8732736D01*
X217003459Y-8718457D01*
X217008418Y-8704597D01*
X217014712Y-8691290D01*
X217022280Y-8678664D01*
X217031048Y-8666841D01*
X217040934Y-8655934D01*
X217051841Y-8646048D01*
X217063664Y-8637280D01*
X217076290Y-8629712D01*
X217089597Y-8623418D01*
X217103457Y-8618459D01*
X217117736Y-8614882D01*
X217132297Y-8612722D01*
X217147000Y-8612000D01*
X217447000Y-8612000D01*
X217461703Y-8612722D01*
G37*
G36*
X218731703Y-8612722D02*
G01*
X218746264Y-8614882D01*
X218760543Y-8618459D01*
X218774403Y-8623418D01*
X218787710Y-8629712D01*
X218800336Y-8637280D01*
X218812159Y-8646048D01*
X218823066Y-8655934D01*
X218832952Y-8666841D01*
X218841720Y-8678664D01*
X218849288Y-8691290D01*
X218855582Y-8704597D01*
X218860541Y-8718457D01*
X218864118Y-8732736D01*
X218866278Y-8747297D01*
X218867000Y-8762000D01*
X218867000Y-10412000D01*
X218866278Y-10426703D01*
X218864118Y-10441264D01*
X218860541Y-10455543D01*
X218855582Y-10469403D01*
X218849288Y-10482710D01*
X218841720Y-10495336D01*
X218832952Y-10507159D01*
X218823066Y-10518066D01*
X218812159Y-10527952D01*
X218800336Y-10536720D01*
X218787710Y-10544288D01*
X218774403Y-10550582D01*
X218760543Y-10555541D01*
X218746264Y-10559118D01*
X218731703Y-10561278D01*
X218717000Y-10562000D01*
X218417000Y-10562000D01*
X218402297Y-10561278D01*
X218387736Y-10559118D01*
X218373457Y-10555541D01*
X218359597Y-10550582D01*
X218346290Y-10544288D01*
X218333664Y-10536720D01*
X218321841Y-10527952D01*
X218310934Y-10518066D01*
X218301048Y-10507159D01*
X218292280Y-10495336D01*
X218284712Y-10482710D01*
X218278418Y-10469403D01*
X218273459Y-10455543D01*
X218269882Y-10441264D01*
X218267722Y-10426703D01*
X218267000Y-10412000D01*
X218267000Y-8762000D01*
X218267722Y-8747297D01*
X218269882Y-8732736D01*
X218273459Y-8718457D01*
X218278418Y-8704597D01*
X218284712Y-8691290D01*
X218292280Y-8678664D01*
X218301048Y-8666841D01*
X218310934Y-8655934D01*
X218321841Y-8646048D01*
X218333664Y-8637280D01*
X218346290Y-8629712D01*
X218359597Y-8623418D01*
X218373457Y-8618459D01*
X218387736Y-8614882D01*
X218402297Y-8612722D01*
X218417000Y-8612000D01*
X218717000Y-8612000D01*
X218731703Y-8612722D01*
G37*
G36*
X220001703Y-8612722D02*
G01*
X220016264Y-8614882D01*
X220030543Y-8618459D01*
X220044403Y-8623418D01*
X220057710Y-8629712D01*
X220070336Y-8637280D01*
X220082159Y-8646048D01*
X220093066Y-8655934D01*
X220102952Y-8666841D01*
X220111720Y-8678664D01*
X220119288Y-8691290D01*
X220125582Y-8704597D01*
X220130541Y-8718457D01*
X220134118Y-8732736D01*
X220136278Y-8747297D01*
X220137000Y-8762000D01*
X220137000Y-10412000D01*
X220136278Y-10426703D01*
X220134118Y-10441264D01*
X220130541Y-10455543D01*
X220125582Y-10469403D01*
X220119288Y-10482710D01*
X220111720Y-10495336D01*
X220102952Y-10507159D01*
X220093066Y-10518066D01*
X220082159Y-10527952D01*
X220070336Y-10536720D01*
X220057710Y-10544288D01*
X220044403Y-10550582D01*
X220030543Y-10555541D01*
X220016264Y-10559118D01*
X220001703Y-10561278D01*
X219987000Y-10562000D01*
X219687000Y-10562000D01*
X219672297Y-10561278D01*
X219657736Y-10559118D01*
X219643457Y-10555541D01*
X219629597Y-10550582D01*
X219616290Y-10544288D01*
X219603664Y-10536720D01*
X219591841Y-10527952D01*
X219580934Y-10518066D01*
X219571048Y-10507159D01*
X219562280Y-10495336D01*
X219554712Y-10482710D01*
X219548418Y-10469403D01*
X219543459Y-10455543D01*
X219539882Y-10441264D01*
X219537722Y-10426703D01*
X219537000Y-10412000D01*
X219537000Y-8762000D01*
X219537722Y-8747297D01*
X219539882Y-8732736D01*
X219543459Y-8718457D01*
X219548418Y-8704597D01*
X219554712Y-8691290D01*
X219562280Y-8678664D01*
X219571048Y-8666841D01*
X219580934Y-8655934D01*
X219591841Y-8646048D01*
X219603664Y-8637280D01*
X219616290Y-8629712D01*
X219629597Y-8623418D01*
X219643457Y-8618459D01*
X219657736Y-8614882D01*
X219672297Y-8612722D01*
X219687000Y-8612000D01*
X219987000Y-8612000D01*
X220001703Y-8612722D01*
G37*
G36*
X221271703Y-8612722D02*
G01*
X221286264Y-8614882D01*
X221300543Y-8618459D01*
X221314403Y-8623418D01*
X221327710Y-8629712D01*
X221340336Y-8637280D01*
X221352159Y-8646048D01*
X221363066Y-8655934D01*
X221372952Y-8666841D01*
X221381720Y-8678664D01*
X221389288Y-8691290D01*
X221395582Y-8704597D01*
X221400541Y-8718457D01*
X221404118Y-8732736D01*
X221406278Y-8747297D01*
X221407000Y-8762000D01*
X221407000Y-10412000D01*
X221406278Y-10426703D01*
X221404118Y-10441264D01*
X221400541Y-10455543D01*
X221395582Y-10469403D01*
X221389288Y-10482710D01*
X221381720Y-10495336D01*
X221372952Y-10507159D01*
X221363066Y-10518066D01*
X221352159Y-10527952D01*
X221340336Y-10536720D01*
X221327710Y-10544288D01*
X221314403Y-10550582D01*
X221300543Y-10555541D01*
X221286264Y-10559118D01*
X221271703Y-10561278D01*
X221257000Y-10562000D01*
X220957000Y-10562000D01*
X220942297Y-10561278D01*
X220927736Y-10559118D01*
X220913457Y-10555541D01*
X220899597Y-10550582D01*
X220886290Y-10544288D01*
X220873664Y-10536720D01*
X220861841Y-10527952D01*
X220850934Y-10518066D01*
X220841048Y-10507159D01*
X220832280Y-10495336D01*
X220824712Y-10482710D01*
X220818418Y-10469403D01*
X220813459Y-10455543D01*
X220809882Y-10441264D01*
X220807722Y-10426703D01*
X220807000Y-10412000D01*
X220807000Y-8762000D01*
X220807722Y-8747297D01*
X220809882Y-8732736D01*
X220813459Y-8718457D01*
X220818418Y-8704597D01*
X220824712Y-8691290D01*
X220832280Y-8678664D01*
X220841048Y-8666841D01*
X220850934Y-8655934D01*
X220861841Y-8646048D01*
X220873664Y-8637280D01*
X220886290Y-8629712D01*
X220899597Y-8623418D01*
X220913457Y-8618459D01*
X220927736Y-8614882D01*
X220942297Y-8612722D01*
X220957000Y-8612000D01*
X221257000Y-8612000D01*
X221271703Y-8612722D01*
G37*
G36*
X222541703Y-8612722D02*
G01*
X222556264Y-8614882D01*
X222570543Y-8618459D01*
X222584403Y-8623418D01*
X222597710Y-8629712D01*
X222610336Y-8637280D01*
X222622159Y-8646048D01*
X222633066Y-8655934D01*
X222642952Y-8666841D01*
X222651720Y-8678664D01*
X222659288Y-8691290D01*
X222665582Y-8704597D01*
X222670541Y-8718457D01*
X222674118Y-8732736D01*
X222676278Y-8747297D01*
X222677000Y-8762000D01*
X222677000Y-10412000D01*
X222676278Y-10426703D01*
X222674118Y-10441264D01*
X222670541Y-10455543D01*
X222665582Y-10469403D01*
X222659288Y-10482710D01*
X222651720Y-10495336D01*
X222642952Y-10507159D01*
X222633066Y-10518066D01*
X222622159Y-10527952D01*
X222610336Y-10536720D01*
X222597710Y-10544288D01*
X222584403Y-10550582D01*
X222570543Y-10555541D01*
X222556264Y-10559118D01*
X222541703Y-10561278D01*
X222527000Y-10562000D01*
X222227000Y-10562000D01*
X222212297Y-10561278D01*
X222197736Y-10559118D01*
X222183457Y-10555541D01*
X222169597Y-10550582D01*
X222156290Y-10544288D01*
X222143664Y-10536720D01*
X222131841Y-10527952D01*
X222120934Y-10518066D01*
X222111048Y-10507159D01*
X222102280Y-10495336D01*
X222094712Y-10482710D01*
X222088418Y-10469403D01*
X222083459Y-10455543D01*
X222079882Y-10441264D01*
X222077722Y-10426703D01*
X222077000Y-10412000D01*
X222077000Y-8762000D01*
X222077722Y-8747297D01*
X222079882Y-8732736D01*
X222083459Y-8718457D01*
X222088418Y-8704597D01*
X222094712Y-8691290D01*
X222102280Y-8678664D01*
X222111048Y-8666841D01*
X222120934Y-8655934D01*
X222131841Y-8646048D01*
X222143664Y-8637280D01*
X222156290Y-8629712D01*
X222169597Y-8623418D01*
X222183457Y-8618459D01*
X222197736Y-8614882D01*
X222212297Y-8612722D01*
X222227000Y-8612000D01*
X222527000Y-8612000D01*
X222541703Y-8612722D01*
G37*
G36*
X223811703Y-8612722D02*
G01*
X223826264Y-8614882D01*
X223840543Y-8618459D01*
X223854403Y-8623418D01*
X223867710Y-8629712D01*
X223880336Y-8637280D01*
X223892159Y-8646048D01*
X223903066Y-8655934D01*
X223912952Y-8666841D01*
X223921720Y-8678664D01*
X223929288Y-8691290D01*
X223935582Y-8704597D01*
X223940541Y-8718457D01*
X223944118Y-8732736D01*
X223946278Y-8747297D01*
X223947000Y-8762000D01*
X223947000Y-10412000D01*
X223946278Y-10426703D01*
X223944118Y-10441264D01*
X223940541Y-10455543D01*
X223935582Y-10469403D01*
X223929288Y-10482710D01*
X223921720Y-10495336D01*
X223912952Y-10507159D01*
X223903066Y-10518066D01*
X223892159Y-10527952D01*
X223880336Y-10536720D01*
X223867710Y-10544288D01*
X223854403Y-10550582D01*
X223840543Y-10555541D01*
X223826264Y-10559118D01*
X223811703Y-10561278D01*
X223797000Y-10562000D01*
X223497000Y-10562000D01*
X223482297Y-10561278D01*
X223467736Y-10559118D01*
X223453457Y-10555541D01*
X223439597Y-10550582D01*
X223426290Y-10544288D01*
X223413664Y-10536720D01*
X223401841Y-10527952D01*
X223390934Y-10518066D01*
X223381048Y-10507159D01*
X223372280Y-10495336D01*
X223364712Y-10482710D01*
X223358418Y-10469403D01*
X223353459Y-10455543D01*
X223349882Y-10441264D01*
X223347722Y-10426703D01*
X223347000Y-10412000D01*
X223347000Y-8762000D01*
X223347722Y-8747297D01*
X223349882Y-8732736D01*
X223353459Y-8718457D01*
X223358418Y-8704597D01*
X223364712Y-8691290D01*
X223372280Y-8678664D01*
X223381048Y-8666841D01*
X223390934Y-8655934D01*
X223401841Y-8646048D01*
X223413664Y-8637280D01*
X223426290Y-8629712D01*
X223439597Y-8623418D01*
X223453457Y-8618459D01*
X223467736Y-8614882D01*
X223482297Y-8612722D01*
X223497000Y-8612000D01*
X223797000Y-8612000D01*
X223811703Y-8612722D01*
G37*
G36*
X223811703Y-3662722D02*
G01*
X223826264Y-3664882D01*
X223840543Y-3668459D01*
X223854403Y-3673418D01*
X223867710Y-3679712D01*
X223880336Y-3687280D01*
X223892159Y-3696048D01*
X223903066Y-3705934D01*
X223912952Y-3716841D01*
X223921720Y-3728664D01*
X223929288Y-3741290D01*
X223935582Y-3754597D01*
X223940541Y-3768457D01*
X223944118Y-3782736D01*
X223946278Y-3797297D01*
X223947000Y-3812000D01*
X223947000Y-5462000D01*
X223946278Y-5476703D01*
X223944118Y-5491264D01*
X223940541Y-5505543D01*
X223935582Y-5519403D01*
X223929288Y-5532710D01*
X223921720Y-5545336D01*
X223912952Y-5557159D01*
X223903066Y-5568066D01*
X223892159Y-5577952D01*
X223880336Y-5586720D01*
X223867710Y-5594288D01*
X223854403Y-5600582D01*
X223840543Y-5605541D01*
X223826264Y-5609118D01*
X223811703Y-5611278D01*
X223797000Y-5612000D01*
X223497000Y-5612000D01*
X223482297Y-5611278D01*
X223467736Y-5609118D01*
X223453457Y-5605541D01*
X223439597Y-5600582D01*
X223426290Y-5594288D01*
X223413664Y-5586720D01*
X223401841Y-5577952D01*
X223390934Y-5568066D01*
X223381048Y-5557159D01*
X223372280Y-5545336D01*
X223364712Y-5532710D01*
X223358418Y-5519403D01*
X223353459Y-5505543D01*
X223349882Y-5491264D01*
X223347722Y-5476703D01*
X223347000Y-5462000D01*
X223347000Y-3812000D01*
X223347722Y-3797297D01*
X223349882Y-3782736D01*
X223353459Y-3768457D01*
X223358418Y-3754597D01*
X223364712Y-3741290D01*
X223372280Y-3728664D01*
X223381048Y-3716841D01*
X223390934Y-3705934D01*
X223401841Y-3696048D01*
X223413664Y-3687280D01*
X223426290Y-3679712D01*
X223439597Y-3673418D01*
X223453457Y-3668459D01*
X223467736Y-3664882D01*
X223482297Y-3662722D01*
X223497000Y-3662000D01*
X223797000Y-3662000D01*
X223811703Y-3662722D01*
G37*
G36*
X222541703Y-3662722D02*
G01*
X222556264Y-3664882D01*
X222570543Y-3668459D01*
X222584403Y-3673418D01*
X222597710Y-3679712D01*
X222610336Y-3687280D01*
X222622159Y-3696048D01*
X222633066Y-3705934D01*
X222642952Y-3716841D01*
X222651720Y-3728664D01*
X222659288Y-3741290D01*
X222665582Y-3754597D01*
X222670541Y-3768457D01*
X222674118Y-3782736D01*
X222676278Y-3797297D01*
X222677000Y-3812000D01*
X222677000Y-5462000D01*
X222676278Y-5476703D01*
X222674118Y-5491264D01*
X222670541Y-5505543D01*
X222665582Y-5519403D01*
X222659288Y-5532710D01*
X222651720Y-5545336D01*
X222642952Y-5557159D01*
X222633066Y-5568066D01*
X222622159Y-5577952D01*
X222610336Y-5586720D01*
X222597710Y-5594288D01*
X222584403Y-5600582D01*
X222570543Y-5605541D01*
X222556264Y-5609118D01*
X222541703Y-5611278D01*
X222527000Y-5612000D01*
X222227000Y-5612000D01*
X222212297Y-5611278D01*
X222197736Y-5609118D01*
X222183457Y-5605541D01*
X222169597Y-5600582D01*
X222156290Y-5594288D01*
X222143664Y-5586720D01*
X222131841Y-5577952D01*
X222120934Y-5568066D01*
X222111048Y-5557159D01*
X222102280Y-5545336D01*
X222094712Y-5532710D01*
X222088418Y-5519403D01*
X222083459Y-5505543D01*
X222079882Y-5491264D01*
X222077722Y-5476703D01*
X222077000Y-5462000D01*
X222077000Y-3812000D01*
X222077722Y-3797297D01*
X222079882Y-3782736D01*
X222083459Y-3768457D01*
X222088418Y-3754597D01*
X222094712Y-3741290D01*
X222102280Y-3728664D01*
X222111048Y-3716841D01*
X222120934Y-3705934D01*
X222131841Y-3696048D01*
X222143664Y-3687280D01*
X222156290Y-3679712D01*
X222169597Y-3673418D01*
X222183457Y-3668459D01*
X222197736Y-3664882D01*
X222212297Y-3662722D01*
X222227000Y-3662000D01*
X222527000Y-3662000D01*
X222541703Y-3662722D01*
G37*
G36*
X221271703Y-3662722D02*
G01*
X221286264Y-3664882D01*
X221300543Y-3668459D01*
X221314403Y-3673418D01*
X221327710Y-3679712D01*
X221340336Y-3687280D01*
X221352159Y-3696048D01*
X221363066Y-3705934D01*
X221372952Y-3716841D01*
X221381720Y-3728664D01*
X221389288Y-3741290D01*
X221395582Y-3754597D01*
X221400541Y-3768457D01*
X221404118Y-3782736D01*
X221406278Y-3797297D01*
X221407000Y-3812000D01*
X221407000Y-5462000D01*
X221406278Y-5476703D01*
X221404118Y-5491264D01*
X221400541Y-5505543D01*
X221395582Y-5519403D01*
X221389288Y-5532710D01*
X221381720Y-5545336D01*
X221372952Y-5557159D01*
X221363066Y-5568066D01*
X221352159Y-5577952D01*
X221340336Y-5586720D01*
X221327710Y-5594288D01*
X221314403Y-5600582D01*
X221300543Y-5605541D01*
X221286264Y-5609118D01*
X221271703Y-5611278D01*
X221257000Y-5612000D01*
X220957000Y-5612000D01*
X220942297Y-5611278D01*
X220927736Y-5609118D01*
X220913457Y-5605541D01*
X220899597Y-5600582D01*
X220886290Y-5594288D01*
X220873664Y-5586720D01*
X220861841Y-5577952D01*
X220850934Y-5568066D01*
X220841048Y-5557159D01*
X220832280Y-5545336D01*
X220824712Y-5532710D01*
X220818418Y-5519403D01*
X220813459Y-5505543D01*
X220809882Y-5491264D01*
X220807722Y-5476703D01*
X220807000Y-5462000D01*
X220807000Y-3812000D01*
X220807722Y-3797297D01*
X220809882Y-3782736D01*
X220813459Y-3768457D01*
X220818418Y-3754597D01*
X220824712Y-3741290D01*
X220832280Y-3728664D01*
X220841048Y-3716841D01*
X220850934Y-3705934D01*
X220861841Y-3696048D01*
X220873664Y-3687280D01*
X220886290Y-3679712D01*
X220899597Y-3673418D01*
X220913457Y-3668459D01*
X220927736Y-3664882D01*
X220942297Y-3662722D01*
X220957000Y-3662000D01*
X221257000Y-3662000D01*
X221271703Y-3662722D01*
G37*
G36*
X220001703Y-3662722D02*
G01*
X220016264Y-3664882D01*
X220030543Y-3668459D01*
X220044403Y-3673418D01*
X220057710Y-3679712D01*
X220070336Y-3687280D01*
X220082159Y-3696048D01*
X220093066Y-3705934D01*
X220102952Y-3716841D01*
X220111720Y-3728664D01*
X220119288Y-3741290D01*
X220125582Y-3754597D01*
X220130541Y-3768457D01*
X220134118Y-3782736D01*
X220136278Y-3797297D01*
X220137000Y-3812000D01*
X220137000Y-5462000D01*
X220136278Y-5476703D01*
X220134118Y-5491264D01*
X220130541Y-5505543D01*
X220125582Y-5519403D01*
X220119288Y-5532710D01*
X220111720Y-5545336D01*
X220102952Y-5557159D01*
X220093066Y-5568066D01*
X220082159Y-5577952D01*
X220070336Y-5586720D01*
X220057710Y-5594288D01*
X220044403Y-5600582D01*
X220030543Y-5605541D01*
X220016264Y-5609118D01*
X220001703Y-5611278D01*
X219987000Y-5612000D01*
X219687000Y-5612000D01*
X219672297Y-5611278D01*
X219657736Y-5609118D01*
X219643457Y-5605541D01*
X219629597Y-5600582D01*
X219616290Y-5594288D01*
X219603664Y-5586720D01*
X219591841Y-5577952D01*
X219580934Y-5568066D01*
X219571048Y-5557159D01*
X219562280Y-5545336D01*
X219554712Y-5532710D01*
X219548418Y-5519403D01*
X219543459Y-5505543D01*
X219539882Y-5491264D01*
X219537722Y-5476703D01*
X219537000Y-5462000D01*
X219537000Y-3812000D01*
X219537722Y-3797297D01*
X219539882Y-3782736D01*
X219543459Y-3768457D01*
X219548418Y-3754597D01*
X219554712Y-3741290D01*
X219562280Y-3728664D01*
X219571048Y-3716841D01*
X219580934Y-3705934D01*
X219591841Y-3696048D01*
X219603664Y-3687280D01*
X219616290Y-3679712D01*
X219629597Y-3673418D01*
X219643457Y-3668459D01*
X219657736Y-3664882D01*
X219672297Y-3662722D01*
X219687000Y-3662000D01*
X219987000Y-3662000D01*
X220001703Y-3662722D01*
G37*
G36*
X218731703Y-3662722D02*
G01*
X218746264Y-3664882D01*
X218760543Y-3668459D01*
X218774403Y-3673418D01*
X218787710Y-3679712D01*
X218800336Y-3687280D01*
X218812159Y-3696048D01*
X218823066Y-3705934D01*
X218832952Y-3716841D01*
X218841720Y-3728664D01*
X218849288Y-3741290D01*
X218855582Y-3754597D01*
X218860541Y-3768457D01*
X218864118Y-3782736D01*
X218866278Y-3797297D01*
X218867000Y-3812000D01*
X218867000Y-5462000D01*
X218866278Y-5476703D01*
X218864118Y-5491264D01*
X218860541Y-5505543D01*
X218855582Y-5519403D01*
X218849288Y-5532710D01*
X218841720Y-5545336D01*
X218832952Y-5557159D01*
X218823066Y-5568066D01*
X218812159Y-5577952D01*
X218800336Y-5586720D01*
X218787710Y-5594288D01*
X218774403Y-5600582D01*
X218760543Y-5605541D01*
X218746264Y-5609118D01*
X218731703Y-5611278D01*
X218717000Y-5612000D01*
X218417000Y-5612000D01*
X218402297Y-5611278D01*
X218387736Y-5609118D01*
X218373457Y-5605541D01*
X218359597Y-5600582D01*
X218346290Y-5594288D01*
X218333664Y-5586720D01*
X218321841Y-5577952D01*
X218310934Y-5568066D01*
X218301048Y-5557159D01*
X218292280Y-5545336D01*
X218284712Y-5532710D01*
X218278418Y-5519403D01*
X218273459Y-5505543D01*
X218269882Y-5491264D01*
X218267722Y-5476703D01*
X218267000Y-5462000D01*
X218267000Y-3812000D01*
X218267722Y-3797297D01*
X218269882Y-3782736D01*
X218273459Y-3768457D01*
X218278418Y-3754597D01*
X218284712Y-3741290D01*
X218292280Y-3728664D01*
X218301048Y-3716841D01*
X218310934Y-3705934D01*
X218321841Y-3696048D01*
X218333664Y-3687280D01*
X218346290Y-3679712D01*
X218359597Y-3673418D01*
X218373457Y-3668459D01*
X218387736Y-3664882D01*
X218402297Y-3662722D01*
X218417000Y-3662000D01*
X218717000Y-3662000D01*
X218731703Y-3662722D01*
G37*
G36*
X217461703Y-3662722D02*
G01*
X217476264Y-3664882D01*
X217490543Y-3668459D01*
X217504403Y-3673418D01*
X217517710Y-3679712D01*
X217530336Y-3687280D01*
X217542159Y-3696048D01*
X217553066Y-3705934D01*
X217562952Y-3716841D01*
X217571720Y-3728664D01*
X217579288Y-3741290D01*
X217585582Y-3754597D01*
X217590541Y-3768457D01*
X217594118Y-3782736D01*
X217596278Y-3797297D01*
X217597000Y-3812000D01*
X217597000Y-5462000D01*
X217596278Y-5476703D01*
X217594118Y-5491264D01*
X217590541Y-5505543D01*
X217585582Y-5519403D01*
X217579288Y-5532710D01*
X217571720Y-5545336D01*
X217562952Y-5557159D01*
X217553066Y-5568066D01*
X217542159Y-5577952D01*
X217530336Y-5586720D01*
X217517710Y-5594288D01*
X217504403Y-5600582D01*
X217490543Y-5605541D01*
X217476264Y-5609118D01*
X217461703Y-5611278D01*
X217447000Y-5612000D01*
X217147000Y-5612000D01*
X217132297Y-5611278D01*
X217117736Y-5609118D01*
X217103457Y-5605541D01*
X217089597Y-5600582D01*
X217076290Y-5594288D01*
X217063664Y-5586720D01*
X217051841Y-5577952D01*
X217040934Y-5568066D01*
X217031048Y-5557159D01*
X217022280Y-5545336D01*
X217014712Y-5532710D01*
X217008418Y-5519403D01*
X217003459Y-5505543D01*
X216999882Y-5491264D01*
X216997722Y-5476703D01*
X216997000Y-5462000D01*
X216997000Y-3812000D01*
X216997722Y-3797297D01*
X216999882Y-3782736D01*
X217003459Y-3768457D01*
X217008418Y-3754597D01*
X217014712Y-3741290D01*
X217022280Y-3728664D01*
X217031048Y-3716841D01*
X217040934Y-3705934D01*
X217051841Y-3696048D01*
X217063664Y-3687280D01*
X217076290Y-3679712D01*
X217089597Y-3673418D01*
X217103457Y-3668459D01*
X217117736Y-3664882D01*
X217132297Y-3662722D01*
X217147000Y-3662000D01*
X217447000Y-3662000D01*
X217461703Y-3662722D01*
G37*
G36*
X216191703Y-3662722D02*
G01*
X216206264Y-3664882D01*
X216220543Y-3668459D01*
X216234403Y-3673418D01*
X216247710Y-3679712D01*
X216260336Y-3687280D01*
X216272159Y-3696048D01*
X216283066Y-3705934D01*
X216292952Y-3716841D01*
X216301720Y-3728664D01*
X216309288Y-3741290D01*
X216315582Y-3754597D01*
X216320541Y-3768457D01*
X216324118Y-3782736D01*
X216326278Y-3797297D01*
X216327000Y-3812000D01*
X216327000Y-5462000D01*
X216326278Y-5476703D01*
X216324118Y-5491264D01*
X216320541Y-5505543D01*
X216315582Y-5519403D01*
X216309288Y-5532710D01*
X216301720Y-5545336D01*
X216292952Y-5557159D01*
X216283066Y-5568066D01*
X216272159Y-5577952D01*
X216260336Y-5586720D01*
X216247710Y-5594288D01*
X216234403Y-5600582D01*
X216220543Y-5605541D01*
X216206264Y-5609118D01*
X216191703Y-5611278D01*
X216177000Y-5612000D01*
X215877000Y-5612000D01*
X215862297Y-5611278D01*
X215847736Y-5609118D01*
X215833457Y-5605541D01*
X215819597Y-5600582D01*
X215806290Y-5594288D01*
X215793664Y-5586720D01*
X215781841Y-5577952D01*
X215770934Y-5568066D01*
X215761048Y-5557159D01*
X215752280Y-5545336D01*
X215744712Y-5532710D01*
X215738418Y-5519403D01*
X215733459Y-5505543D01*
X215729882Y-5491264D01*
X215727722Y-5476703D01*
X215727000Y-5462000D01*
X215727000Y-3812000D01*
X215727722Y-3797297D01*
X215729882Y-3782736D01*
X215733459Y-3768457D01*
X215738418Y-3754597D01*
X215744712Y-3741290D01*
X215752280Y-3728664D01*
X215761048Y-3716841D01*
X215770934Y-3705934D01*
X215781841Y-3696048D01*
X215793664Y-3687280D01*
X215806290Y-3679712D01*
X215819597Y-3673418D01*
X215833457Y-3668459D01*
X215847736Y-3664882D01*
X215862297Y-3662722D01*
X215877000Y-3662000D01*
X216177000Y-3662000D01*
X216191703Y-3662722D01*
G37*
G36*
X214921703Y-3662722D02*
G01*
X214936264Y-3664882D01*
X214950543Y-3668459D01*
X214964403Y-3673418D01*
X214977710Y-3679712D01*
X214990336Y-3687280D01*
X215002159Y-3696048D01*
X215013066Y-3705934D01*
X215022952Y-3716841D01*
X215031720Y-3728664D01*
X215039288Y-3741290D01*
X215045582Y-3754597D01*
X215050541Y-3768457D01*
X215054118Y-3782736D01*
X215056278Y-3797297D01*
X215057000Y-3812000D01*
X215057000Y-5462000D01*
X215056278Y-5476703D01*
X215054118Y-5491264D01*
X215050541Y-5505543D01*
X215045582Y-5519403D01*
X215039288Y-5532710D01*
X215031720Y-5545336D01*
X215022952Y-5557159D01*
X215013066Y-5568066D01*
X215002159Y-5577952D01*
X214990336Y-5586720D01*
X214977710Y-5594288D01*
X214964403Y-5600582D01*
X214950543Y-5605541D01*
X214936264Y-5609118D01*
X214921703Y-5611278D01*
X214907000Y-5612000D01*
X214607000Y-5612000D01*
X214592297Y-5611278D01*
X214577736Y-5609118D01*
X214563457Y-5605541D01*
X214549597Y-5600582D01*
X214536290Y-5594288D01*
X214523664Y-5586720D01*
X214511841Y-5577952D01*
X214500934Y-5568066D01*
X214491048Y-5557159D01*
X214482280Y-5545336D01*
X214474712Y-5532710D01*
X214468418Y-5519403D01*
X214463459Y-5505543D01*
X214459882Y-5491264D01*
X214457722Y-5476703D01*
X214457000Y-5462000D01*
X214457000Y-3812000D01*
X214457722Y-3797297D01*
X214459882Y-3782736D01*
X214463459Y-3768457D01*
X214468418Y-3754597D01*
X214474712Y-3741290D01*
X214482280Y-3728664D01*
X214491048Y-3716841D01*
X214500934Y-3705934D01*
X214511841Y-3696048D01*
X214523664Y-3687280D01*
X214536290Y-3679712D01*
X214549597Y-3673418D01*
X214563457Y-3668459D01*
X214577736Y-3664882D01*
X214592297Y-3662722D01*
X214607000Y-3662000D01*
X214907000Y-3662000D01*
X214921703Y-3662722D01*
G37*
G36*
X173679505Y-21111204D02*
G01*
X173703773Y-21114804D01*
X173727572Y-21120765D01*
X173750671Y-21129030D01*
X173772850Y-21139520D01*
X173793893Y-21152132D01*
X173813599Y-21166747D01*
X173831777Y-21183223D01*
X173848253Y-21201401D01*
X173862868Y-21221107D01*
X173875480Y-21242150D01*
X173885970Y-21264329D01*
X173894235Y-21287428D01*
X173900196Y-21311227D01*
X173903796Y-21335495D01*
X173905000Y-21359999D01*
X173905000Y-22260001D01*
X173903796Y-22284505D01*
X173900196Y-22308773D01*
X173894235Y-22332572D01*
X173885970Y-22355671D01*
X173875480Y-22377850D01*
X173862868Y-22398893D01*
X173848253Y-22418599D01*
X173831777Y-22436777D01*
X173813599Y-22453253D01*
X173793893Y-22467868D01*
X173772850Y-22480480D01*
X173750671Y-22490970D01*
X173727572Y-22499235D01*
X173703773Y-22505196D01*
X173679505Y-22508796D01*
X173655001Y-22510000D01*
X173004999Y-22510000D01*
X172980495Y-22508796D01*
X172956227Y-22505196D01*
X172932428Y-22499235D01*
X172909329Y-22490970D01*
X172887150Y-22480480D01*
X172866107Y-22467868D01*
X172846401Y-22453253D01*
X172828223Y-22436777D01*
X172811747Y-22418599D01*
X172797132Y-22398893D01*
X172784520Y-22377850D01*
X172774030Y-22355671D01*
X172765765Y-22332572D01*
X172759804Y-22308773D01*
X172756204Y-22284505D01*
X172755000Y-22260001D01*
X172755000Y-21359999D01*
X172756204Y-21335495D01*
X172759804Y-21311227D01*
X172765765Y-21287428D01*
X172774030Y-21264329D01*
X172784520Y-21242150D01*
X172797132Y-21221107D01*
X172811747Y-21201401D01*
X172828223Y-21183223D01*
X172846401Y-21166747D01*
X172866107Y-21152132D01*
X172887150Y-21139520D01*
X172909329Y-21129030D01*
X172932428Y-21120765D01*
X172956227Y-21114804D01*
X172980495Y-21111204D01*
X173004999Y-21110000D01*
X173655001Y-21110000D01*
X173679505Y-21111204D01*
G37*
G36*
X175729505Y-21111204D02*
G01*
X175753773Y-21114804D01*
X175777572Y-21120765D01*
X175800671Y-21129030D01*
X175822850Y-21139520D01*
X175843893Y-21152132D01*
X175863599Y-21166747D01*
X175881777Y-21183223D01*
X175898253Y-21201401D01*
X175912868Y-21221107D01*
X175925480Y-21242150D01*
X175935970Y-21264329D01*
X175944235Y-21287428D01*
X175950196Y-21311227D01*
X175953796Y-21335495D01*
X175955000Y-21359999D01*
X175955000Y-22260001D01*
X175953796Y-22284505D01*
X175950196Y-22308773D01*
X175944235Y-22332572D01*
X175935970Y-22355671D01*
X175925480Y-22377850D01*
X175912868Y-22398893D01*
X175898253Y-22418599D01*
X175881777Y-22436777D01*
X175863599Y-22453253D01*
X175843893Y-22467868D01*
X175822850Y-22480480D01*
X175800671Y-22490970D01*
X175777572Y-22499235D01*
X175753773Y-22505196D01*
X175729505Y-22508796D01*
X175705001Y-22510000D01*
X175054999Y-22510000D01*
X175030495Y-22508796D01*
X175006227Y-22505196D01*
X174982428Y-22499235D01*
X174959329Y-22490970D01*
X174937150Y-22480480D01*
X174916107Y-22467868D01*
X174896401Y-22453253D01*
X174878223Y-22436777D01*
X174861747Y-22418599D01*
X174847132Y-22398893D01*
X174834520Y-22377850D01*
X174824030Y-22355671D01*
X174815765Y-22332572D01*
X174809804Y-22308773D01*
X174806204Y-22284505D01*
X174805000Y-22260001D01*
X174805000Y-21359999D01*
X174806204Y-21335495D01*
X174809804Y-21311227D01*
X174815765Y-21287428D01*
X174824030Y-21264329D01*
X174834520Y-21242150D01*
X174847132Y-21221107D01*
X174861747Y-21201401D01*
X174878223Y-21183223D01*
X174896401Y-21166747D01*
X174916107Y-21152132D01*
X174937150Y-21139520D01*
X174959329Y-21129030D01*
X174982428Y-21120765D01*
X175006227Y-21114804D01*
X175030495Y-21111204D01*
X175054999Y-21110000D01*
X175705001Y-21110000D01*
X175729505Y-21111204D01*
G37*
G36*
X225393505Y-31051204D02*
G01*
X225417773Y-31054804D01*
X225441572Y-31060765D01*
X225464671Y-31069030D01*
X225486850Y-31079520D01*
X225507893Y-31092132D01*
X225527599Y-31106747D01*
X225545777Y-31123223D01*
X225562253Y-31141401D01*
X225576868Y-31161107D01*
X225589480Y-31182150D01*
X225599970Y-31204329D01*
X225608235Y-31227428D01*
X225614196Y-31251227D01*
X225617796Y-31275495D01*
X225619000Y-31299999D01*
X225619000Y-32200001D01*
X225617796Y-32224505D01*
X225614196Y-32248773D01*
X225608235Y-32272572D01*
X225599970Y-32295671D01*
X225589480Y-32317850D01*
X225576868Y-32338893D01*
X225562253Y-32358599D01*
X225545777Y-32376777D01*
X225527599Y-32393253D01*
X225507893Y-32407868D01*
X225486850Y-32420480D01*
X225464671Y-32430970D01*
X225441572Y-32439235D01*
X225417773Y-32445196D01*
X225393505Y-32448796D01*
X225369001Y-32450000D01*
X224718999Y-32450000D01*
X224694495Y-32448796D01*
X224670227Y-32445196D01*
X224646428Y-32439235D01*
X224623329Y-32430970D01*
X224601150Y-32420480D01*
X224580107Y-32407868D01*
X224560401Y-32393253D01*
X224542223Y-32376777D01*
X224525747Y-32358599D01*
X224511132Y-32338893D01*
X224498520Y-32317850D01*
X224488030Y-32295671D01*
X224479765Y-32272572D01*
X224473804Y-32248773D01*
X224470204Y-32224505D01*
X224469000Y-32200001D01*
X224469000Y-31299999D01*
X224470204Y-31275495D01*
X224473804Y-31251227D01*
X224479765Y-31227428D01*
X224488030Y-31204329D01*
X224498520Y-31182150D01*
X224511132Y-31161107D01*
X224525747Y-31141401D01*
X224542223Y-31123223D01*
X224560401Y-31106747D01*
X224580107Y-31092132D01*
X224601150Y-31079520D01*
X224623329Y-31069030D01*
X224646428Y-31060765D01*
X224670227Y-31054804D01*
X224694495Y-31051204D01*
X224718999Y-31050000D01*
X225369001Y-31050000D01*
X225393505Y-31051204D01*
G37*
G36*
X223343505Y-31051204D02*
G01*
X223367773Y-31054804D01*
X223391572Y-31060765D01*
X223414671Y-31069030D01*
X223436850Y-31079520D01*
X223457893Y-31092132D01*
X223477599Y-31106747D01*
X223495777Y-31123223D01*
X223512253Y-31141401D01*
X223526868Y-31161107D01*
X223539480Y-31182150D01*
X223549970Y-31204329D01*
X223558235Y-31227428D01*
X223564196Y-31251227D01*
X223567796Y-31275495D01*
X223569000Y-31299999D01*
X223569000Y-32200001D01*
X223567796Y-32224505D01*
X223564196Y-32248773D01*
X223558235Y-32272572D01*
X223549970Y-32295671D01*
X223539480Y-32317850D01*
X223526868Y-32338893D01*
X223512253Y-32358599D01*
X223495777Y-32376777D01*
X223477599Y-32393253D01*
X223457893Y-32407868D01*
X223436850Y-32420480D01*
X223414671Y-32430970D01*
X223391572Y-32439235D01*
X223367773Y-32445196D01*
X223343505Y-32448796D01*
X223319001Y-32450000D01*
X222668999Y-32450000D01*
X222644495Y-32448796D01*
X222620227Y-32445196D01*
X222596428Y-32439235D01*
X222573329Y-32430970D01*
X222551150Y-32420480D01*
X222530107Y-32407868D01*
X222510401Y-32393253D01*
X222492223Y-32376777D01*
X222475747Y-32358599D01*
X222461132Y-32338893D01*
X222448520Y-32317850D01*
X222438030Y-32295671D01*
X222429765Y-32272572D01*
X222423804Y-32248773D01*
X222420204Y-32224505D01*
X222419000Y-32200001D01*
X222419000Y-31299999D01*
X222420204Y-31275495D01*
X222423804Y-31251227D01*
X222429765Y-31227428D01*
X222438030Y-31204329D01*
X222448520Y-31182150D01*
X222461132Y-31161107D01*
X222475747Y-31141401D01*
X222492223Y-31123223D01*
X222510401Y-31106747D01*
X222530107Y-31092132D01*
X222551150Y-31079520D01*
X222573329Y-31069030D01*
X222596428Y-31060765D01*
X222620227Y-31054804D01*
X222644495Y-31051204D01*
X222668999Y-31050000D01*
X223319001Y-31050000D01*
X223343505Y-31051204D01*
G37*
G36*
X177415779Y-21286144D02*
G01*
X177438834Y-21289563D01*
X177461443Y-21295227D01*
X177483387Y-21303079D01*
X177504457Y-21313044D01*
X177524448Y-21325026D01*
X177543168Y-21338910D01*
X177560438Y-21354562D01*
X177576090Y-21371832D01*
X177589974Y-21390552D01*
X177601956Y-21410543D01*
X177611921Y-21431613D01*
X177619773Y-21453557D01*
X177625437Y-21476166D01*
X177628856Y-21499221D01*
X177630000Y-21522500D01*
X177630000Y-21997500D01*
X177628856Y-22020779D01*
X177625437Y-22043834D01*
X177619773Y-22066443D01*
X177611921Y-22088387D01*
X177601956Y-22109457D01*
X177589974Y-22129448D01*
X177576090Y-22148168D01*
X177560438Y-22165438D01*
X177543168Y-22181090D01*
X177524448Y-22194974D01*
X177504457Y-22206956D01*
X177483387Y-22216921D01*
X177461443Y-22224773D01*
X177438834Y-22230437D01*
X177415779Y-22233856D01*
X177392500Y-22235000D01*
X176817500Y-22235000D01*
X176794221Y-22233856D01*
X176771166Y-22230437D01*
X176748557Y-22224773D01*
X176726613Y-22216921D01*
X176705543Y-22206956D01*
X176685552Y-22194974D01*
X176666832Y-22181090D01*
X176649562Y-22165438D01*
X176633910Y-22148168D01*
X176620026Y-22129448D01*
X176608044Y-22109457D01*
X176598079Y-22088387D01*
X176590227Y-22066443D01*
X176584563Y-22043834D01*
X176581144Y-22020779D01*
X176580000Y-21997500D01*
X176580000Y-21522500D01*
X176581144Y-21499221D01*
X176584563Y-21476166D01*
X176590227Y-21453557D01*
X176598079Y-21431613D01*
X176608044Y-21410543D01*
X176620026Y-21390552D01*
X176633910Y-21371832D01*
X176649562Y-21354562D01*
X176666832Y-21338910D01*
X176685552Y-21325026D01*
X176705543Y-21313044D01*
X176726613Y-21303079D01*
X176748557Y-21295227D01*
X176771166Y-21289563D01*
X176794221Y-21286144D01*
X176817500Y-21285000D01*
X177392500Y-21285000D01*
X177415779Y-21286144D01*
G37*
G36*
X179165779Y-21286144D02*
G01*
X179188834Y-21289563D01*
X179211443Y-21295227D01*
X179233387Y-21303079D01*
X179254457Y-21313044D01*
X179274448Y-21325026D01*
X179293168Y-21338910D01*
X179310438Y-21354562D01*
X179326090Y-21371832D01*
X179339974Y-21390552D01*
X179351956Y-21410543D01*
X179361921Y-21431613D01*
X179369773Y-21453557D01*
X179375437Y-21476166D01*
X179378856Y-21499221D01*
X179380000Y-21522500D01*
X179380000Y-21997500D01*
X179378856Y-22020779D01*
X179375437Y-22043834D01*
X179369773Y-22066443D01*
X179361921Y-22088387D01*
X179351956Y-22109457D01*
X179339974Y-22129448D01*
X179326090Y-22148168D01*
X179310438Y-22165438D01*
X179293168Y-22181090D01*
X179274448Y-22194974D01*
X179254457Y-22206956D01*
X179233387Y-22216921D01*
X179211443Y-22224773D01*
X179188834Y-22230437D01*
X179165779Y-22233856D01*
X179142500Y-22235000D01*
X178567500Y-22235000D01*
X178544221Y-22233856D01*
X178521166Y-22230437D01*
X178498557Y-22224773D01*
X178476613Y-22216921D01*
X178455543Y-22206956D01*
X178435552Y-22194974D01*
X178416832Y-22181090D01*
X178399562Y-22165438D01*
X178383910Y-22148168D01*
X178370026Y-22129448D01*
X178358044Y-22109457D01*
X178348079Y-22088387D01*
X178340227Y-22066443D01*
X178334563Y-22043834D01*
X178331144Y-22020779D01*
X178330000Y-21997500D01*
X178330000Y-21522500D01*
X178331144Y-21499221D01*
X178334563Y-21476166D01*
X178340227Y-21453557D01*
X178348079Y-21431613D01*
X178358044Y-21410543D01*
X178370026Y-21390552D01*
X178383910Y-21371832D01*
X178399562Y-21354562D01*
X178416832Y-21338910D01*
X178435552Y-21325026D01*
X178455543Y-21313044D01*
X178476613Y-21303079D01*
X178498557Y-21295227D01*
X178521166Y-21289563D01*
X178544221Y-21286144D01*
X178567500Y-21285000D01*
X179142500Y-21285000D01*
X179165779Y-21286144D01*
G37*
G36*
X175410779Y-18286144D02*
G01*
X175433834Y-18289563D01*
X175456443Y-18295227D01*
X175478387Y-18303079D01*
X175499457Y-18313044D01*
X175519448Y-18325026D01*
X175538168Y-18338910D01*
X175555438Y-18354562D01*
X175571090Y-18371832D01*
X175584974Y-18390552D01*
X175596956Y-18410543D01*
X175606921Y-18431613D01*
X175614773Y-18453557D01*
X175620437Y-18476166D01*
X175623856Y-18499221D01*
X175625000Y-18522500D01*
X175625000Y-18997500D01*
X175623856Y-19020779D01*
X175620437Y-19043834D01*
X175614773Y-19066443D01*
X175606921Y-19088387D01*
X175596956Y-19109457D01*
X175584974Y-19129448D01*
X175571090Y-19148168D01*
X175555438Y-19165438D01*
X175538168Y-19181090D01*
X175519448Y-19194974D01*
X175499457Y-19206956D01*
X175478387Y-19216921D01*
X175456443Y-19224773D01*
X175433834Y-19230437D01*
X175410779Y-19233856D01*
X175387500Y-19235000D01*
X174812500Y-19235000D01*
X174789221Y-19233856D01*
X174766166Y-19230437D01*
X174743557Y-19224773D01*
X174721613Y-19216921D01*
X174700543Y-19206956D01*
X174680552Y-19194974D01*
X174661832Y-19181090D01*
X174644562Y-19165438D01*
X174628910Y-19148168D01*
X174615026Y-19129448D01*
X174603044Y-19109457D01*
X174593079Y-19088387D01*
X174585227Y-19066443D01*
X174579563Y-19043834D01*
X174576144Y-19020779D01*
X174575000Y-18997500D01*
X174575000Y-18522500D01*
X174576144Y-18499221D01*
X174579563Y-18476166D01*
X174585227Y-18453557D01*
X174593079Y-18431613D01*
X174603044Y-18410543D01*
X174615026Y-18390552D01*
X174628910Y-18371832D01*
X174644562Y-18354562D01*
X174661832Y-18338910D01*
X174680552Y-18325026D01*
X174700543Y-18313044D01*
X174721613Y-18303079D01*
X174743557Y-18295227D01*
X174766166Y-18289563D01*
X174789221Y-18286144D01*
X174812500Y-18285000D01*
X175387500Y-18285000D01*
X175410779Y-18286144D01*
G37*
G36*
X177160779Y-18286144D02*
G01*
X177183834Y-18289563D01*
X177206443Y-18295227D01*
X177228387Y-18303079D01*
X177249457Y-18313044D01*
X177269448Y-18325026D01*
X177288168Y-18338910D01*
X177305438Y-18354562D01*
X177321090Y-18371832D01*
X177334974Y-18390552D01*
X177346956Y-18410543D01*
X177356921Y-18431613D01*
X177364773Y-18453557D01*
X177370437Y-18476166D01*
X177373856Y-18499221D01*
X177375000Y-18522500D01*
X177375000Y-18997500D01*
X177373856Y-19020779D01*
X177370437Y-19043834D01*
X177364773Y-19066443D01*
X177356921Y-19088387D01*
X177346956Y-19109457D01*
X177334974Y-19129448D01*
X177321090Y-19148168D01*
X177305438Y-19165438D01*
X177288168Y-19181090D01*
X177269448Y-19194974D01*
X177249457Y-19206956D01*
X177228387Y-19216921D01*
X177206443Y-19224773D01*
X177183834Y-19230437D01*
X177160779Y-19233856D01*
X177137500Y-19235000D01*
X176562500Y-19235000D01*
X176539221Y-19233856D01*
X176516166Y-19230437D01*
X176493557Y-19224773D01*
X176471613Y-19216921D01*
X176450543Y-19206956D01*
X176430552Y-19194974D01*
X176411832Y-19181090D01*
X176394562Y-19165438D01*
X176378910Y-19148168D01*
X176365026Y-19129448D01*
X176353044Y-19109457D01*
X176343079Y-19088387D01*
X176335227Y-19066443D01*
X176329563Y-19043834D01*
X176326144Y-19020779D01*
X176325000Y-18997500D01*
X176325000Y-18522500D01*
X176326144Y-18499221D01*
X176329563Y-18476166D01*
X176335227Y-18453557D01*
X176343079Y-18431613D01*
X176353044Y-18410543D01*
X176365026Y-18390552D01*
X176378910Y-18371832D01*
X176394562Y-18354562D01*
X176411832Y-18338910D01*
X176430552Y-18325026D01*
X176450543Y-18313044D01*
X176471613Y-18303079D01*
X176493557Y-18295227D01*
X176516166Y-18289563D01*
X176539221Y-18286144D01*
X176562500Y-18285000D01*
X177137500Y-18285000D01*
X177160779Y-18286144D01*
G37*
G36*
X180876779Y-23148144D02*
G01*
X180899834Y-23151563D01*
X180922443Y-23157227D01*
X180944387Y-23165079D01*
X180965457Y-23175044D01*
X180985448Y-23187026D01*
X181004168Y-23200910D01*
X181021438Y-23216562D01*
X181037090Y-23233832D01*
X181050974Y-23252552D01*
X181062956Y-23272543D01*
X181072921Y-23293613D01*
X181080773Y-23315557D01*
X181086437Y-23338166D01*
X181089856Y-23361221D01*
X181091000Y-23384500D01*
X181091000Y-23859500D01*
X181089856Y-23882779D01*
X181086437Y-23905834D01*
X181080773Y-23928443D01*
X181072921Y-23950387D01*
X181062956Y-23971457D01*
X181050974Y-23991448D01*
X181037090Y-24010168D01*
X181021438Y-24027438D01*
X181004168Y-24043090D01*
X180985448Y-24056974D01*
X180965457Y-24068956D01*
X180944387Y-24078921D01*
X180922443Y-24086773D01*
X180899834Y-24092437D01*
X180876779Y-24095856D01*
X180853500Y-24097000D01*
X180278500Y-24097000D01*
X180255221Y-24095856D01*
X180232166Y-24092437D01*
X180209557Y-24086773D01*
X180187613Y-24078921D01*
X180166543Y-24068956D01*
X180146552Y-24056974D01*
X180127832Y-24043090D01*
X180110562Y-24027438D01*
X180094910Y-24010168D01*
X180081026Y-23991448D01*
X180069044Y-23971457D01*
X180059079Y-23950387D01*
X180051227Y-23928443D01*
X180045563Y-23905834D01*
X180042144Y-23882779D01*
X180041000Y-23859500D01*
X180041000Y-23384500D01*
X180042144Y-23361221D01*
X180045563Y-23338166D01*
X180051227Y-23315557D01*
X180059079Y-23293613D01*
X180069044Y-23272543D01*
X180081026Y-23252552D01*
X180094910Y-23233832D01*
X180110562Y-23216562D01*
X180127832Y-23200910D01*
X180146552Y-23187026D01*
X180166543Y-23175044D01*
X180187613Y-23165079D01*
X180209557Y-23157227D01*
X180232166Y-23151563D01*
X180255221Y-23148144D01*
X180278500Y-23147000D01*
X180853500Y-23147000D01*
X180876779Y-23148144D01*
G37*
G36*
X179126779Y-23148144D02*
G01*
X179149834Y-23151563D01*
X179172443Y-23157227D01*
X179194387Y-23165079D01*
X179215457Y-23175044D01*
X179235448Y-23187026D01*
X179254168Y-23200910D01*
X179271438Y-23216562D01*
X179287090Y-23233832D01*
X179300974Y-23252552D01*
X179312956Y-23272543D01*
X179322921Y-23293613D01*
X179330773Y-23315557D01*
X179336437Y-23338166D01*
X179339856Y-23361221D01*
X179341000Y-23384500D01*
X179341000Y-23859500D01*
X179339856Y-23882779D01*
X179336437Y-23905834D01*
X179330773Y-23928443D01*
X179322921Y-23950387D01*
X179312956Y-23971457D01*
X179300974Y-23991448D01*
X179287090Y-24010168D01*
X179271438Y-24027438D01*
X179254168Y-24043090D01*
X179235448Y-24056974D01*
X179215457Y-24068956D01*
X179194387Y-24078921D01*
X179172443Y-24086773D01*
X179149834Y-24092437D01*
X179126779Y-24095856D01*
X179103500Y-24097000D01*
X178528500Y-24097000D01*
X178505221Y-24095856D01*
X178482166Y-24092437D01*
X178459557Y-24086773D01*
X178437613Y-24078921D01*
X178416543Y-24068956D01*
X178396552Y-24056974D01*
X178377832Y-24043090D01*
X178360562Y-24027438D01*
X178344910Y-24010168D01*
X178331026Y-23991448D01*
X178319044Y-23971457D01*
X178309079Y-23950387D01*
X178301227Y-23928443D01*
X178295563Y-23905834D01*
X178292144Y-23882779D01*
X178291000Y-23859500D01*
X178291000Y-23384500D01*
X178292144Y-23361221D01*
X178295563Y-23338166D01*
X178301227Y-23315557D01*
X178309079Y-23293613D01*
X178319044Y-23272543D01*
X178331026Y-23252552D01*
X178344910Y-23233832D01*
X178360562Y-23216562D01*
X178377832Y-23200910D01*
X178396552Y-23187026D01*
X178416543Y-23175044D01*
X178437613Y-23165079D01*
X178459557Y-23157227D01*
X178482166Y-23151563D01*
X178505221Y-23148144D01*
X178528500Y-23147000D01*
X179103500Y-23147000D01*
X179126779Y-23148144D01*
G37*
G36*
X219004779Y-11210144D02*
G01*
X219027834Y-11213563D01*
X219050443Y-11219227D01*
X219072387Y-11227079D01*
X219093457Y-11237044D01*
X219113448Y-11249026D01*
X219132168Y-11262910D01*
X219149438Y-11278562D01*
X219165090Y-11295832D01*
X219178974Y-11314552D01*
X219190956Y-11334543D01*
X219200921Y-11355613D01*
X219208773Y-11377557D01*
X219214437Y-11400166D01*
X219217856Y-11423221D01*
X219219000Y-11446500D01*
X219219000Y-11921500D01*
X219217856Y-11944779D01*
X219214437Y-11967834D01*
X219208773Y-11990443D01*
X219200921Y-12012387D01*
X219190956Y-12033457D01*
X219178974Y-12053448D01*
X219165090Y-12072168D01*
X219149438Y-12089438D01*
X219132168Y-12105090D01*
X219113448Y-12118974D01*
X219093457Y-12130956D01*
X219072387Y-12140921D01*
X219050443Y-12148773D01*
X219027834Y-12154437D01*
X219004779Y-12157856D01*
X218981500Y-12159000D01*
X218406500Y-12159000D01*
X218383221Y-12157856D01*
X218360166Y-12154437D01*
X218337557Y-12148773D01*
X218315613Y-12140921D01*
X218294543Y-12130956D01*
X218274552Y-12118974D01*
X218255832Y-12105090D01*
X218238562Y-12089438D01*
X218222910Y-12072168D01*
X218209026Y-12053448D01*
X218197044Y-12033457D01*
X218187079Y-12012387D01*
X218179227Y-11990443D01*
X218173563Y-11967834D01*
X218170144Y-11944779D01*
X218169000Y-11921500D01*
X218169000Y-11446500D01*
X218170144Y-11423221D01*
X218173563Y-11400166D01*
X218179227Y-11377557D01*
X218187079Y-11355613D01*
X218197044Y-11334543D01*
X218209026Y-11314552D01*
X218222910Y-11295832D01*
X218238562Y-11278562D01*
X218255832Y-11262910D01*
X218274552Y-11249026D01*
X218294543Y-11237044D01*
X218315613Y-11227079D01*
X218337557Y-11219227D01*
X218360166Y-11213563D01*
X218383221Y-11210144D01*
X218406500Y-11209000D01*
X218981500Y-11209000D01*
X219004779Y-11210144D01*
G37*
G36*
X217254779Y-11210144D02*
G01*
X217277834Y-11213563D01*
X217300443Y-11219227D01*
X217322387Y-11227079D01*
X217343457Y-11237044D01*
X217363448Y-11249026D01*
X217382168Y-11262910D01*
X217399438Y-11278562D01*
X217415090Y-11295832D01*
X217428974Y-11314552D01*
X217440956Y-11334543D01*
X217450921Y-11355613D01*
X217458773Y-11377557D01*
X217464437Y-11400166D01*
X217467856Y-11423221D01*
X217469000Y-11446500D01*
X217469000Y-11921500D01*
X217467856Y-11944779D01*
X217464437Y-11967834D01*
X217458773Y-11990443D01*
X217450921Y-12012387D01*
X217440956Y-12033457D01*
X217428974Y-12053448D01*
X217415090Y-12072168D01*
X217399438Y-12089438D01*
X217382168Y-12105090D01*
X217363448Y-12118974D01*
X217343457Y-12130956D01*
X217322387Y-12140921D01*
X217300443Y-12148773D01*
X217277834Y-12154437D01*
X217254779Y-12157856D01*
X217231500Y-12159000D01*
X216656500Y-12159000D01*
X216633221Y-12157856D01*
X216610166Y-12154437D01*
X216587557Y-12148773D01*
X216565613Y-12140921D01*
X216544543Y-12130956D01*
X216524552Y-12118974D01*
X216505832Y-12105090D01*
X216488562Y-12089438D01*
X216472910Y-12072168D01*
X216459026Y-12053448D01*
X216447044Y-12033457D01*
X216437079Y-12012387D01*
X216429227Y-11990443D01*
X216423563Y-11967834D01*
X216420144Y-11944779D01*
X216419000Y-11921500D01*
X216419000Y-11446500D01*
X216420144Y-11423221D01*
X216423563Y-11400166D01*
X216429227Y-11377557D01*
X216437079Y-11355613D01*
X216447044Y-11334543D01*
X216459026Y-11314552D01*
X216472910Y-11295832D01*
X216488562Y-11278562D01*
X216505832Y-11262910D01*
X216524552Y-11249026D01*
X216544543Y-11237044D01*
X216565613Y-11227079D01*
X216587557Y-11219227D01*
X216610166Y-11213563D01*
X216633221Y-11210144D01*
X216656500Y-11209000D01*
X217231500Y-11209000D01*
X217254779Y-11210144D01*
G37*
G36*
X224620779Y-34144D02*
G01*
X224643834Y-37563D01*
X224666443Y-43227D01*
X224688387Y-51079D01*
X224709457Y-61044D01*
X224729448Y-73026D01*
X224748168Y-86910D01*
X224765438Y-102562D01*
X224781090Y-119832D01*
X224794974Y-138552D01*
X224806956Y-158543D01*
X224816921Y-179613D01*
X224824773Y-201557D01*
X224830437Y-224166D01*
X224833856Y-247221D01*
X224835000Y-270500D01*
X224835000Y-745500D01*
X224833856Y-768779D01*
X224830437Y-791834D01*
X224824773Y-814443D01*
X224816921Y-836387D01*
X224806956Y-857457D01*
X224794974Y-877448D01*
X224781090Y-896168D01*
X224765438Y-913438D01*
X224748168Y-929090D01*
X224729448Y-942974D01*
X224709457Y-954956D01*
X224688387Y-964921D01*
X224666443Y-972773D01*
X224643834Y-978437D01*
X224620779Y-981856D01*
X224597500Y-983000D01*
X224022500Y-983000D01*
X223999221Y-981856D01*
X223976166Y-978437D01*
X223953557Y-972773D01*
X223931613Y-964921D01*
X223910543Y-954956D01*
X223890552Y-942974D01*
X223871832Y-929090D01*
X223854562Y-913438D01*
X223838910Y-896168D01*
X223825026Y-877448D01*
X223813044Y-857457D01*
X223803079Y-836387D01*
X223795227Y-814443D01*
X223789563Y-791834D01*
X223786144Y-768779D01*
X223785000Y-745500D01*
X223785000Y-270500D01*
X223786144Y-247221D01*
X223789563Y-224166D01*
X223795227Y-201557D01*
X223803079Y-179613D01*
X223813044Y-158543D01*
X223825026Y-138552D01*
X223838910Y-119832D01*
X223854562Y-102562D01*
X223871832Y-86910D01*
X223890552Y-73026D01*
X223910543Y-61044D01*
X223931613Y-51079D01*
X223953557Y-43227D01*
X223976166Y-37563D01*
X223999221Y-34144D01*
X224022500Y-33000D01*
X224597500Y-33000D01*
X224620779Y-34144D01*
G37*
G36*
X226370779Y-34144D02*
G01*
X226393834Y-37563D01*
X226416443Y-43227D01*
X226438387Y-51079D01*
X226459457Y-61044D01*
X226479448Y-73026D01*
X226498168Y-86910D01*
X226515438Y-102562D01*
X226531090Y-119832D01*
X226544974Y-138552D01*
X226556956Y-158543D01*
X226566921Y-179613D01*
X226574773Y-201557D01*
X226580437Y-224166D01*
X226583856Y-247221D01*
X226585000Y-270500D01*
X226585000Y-745500D01*
X226583856Y-768779D01*
X226580437Y-791834D01*
X226574773Y-814443D01*
X226566921Y-836387D01*
X226556956Y-857457D01*
X226544974Y-877448D01*
X226531090Y-896168D01*
X226515438Y-913438D01*
X226498168Y-929090D01*
X226479448Y-942974D01*
X226459457Y-954956D01*
X226438387Y-964921D01*
X226416443Y-972773D01*
X226393834Y-978437D01*
X226370779Y-981856D01*
X226347500Y-983000D01*
X225772500Y-983000D01*
X225749221Y-981856D01*
X225726166Y-978437D01*
X225703557Y-972773D01*
X225681613Y-964921D01*
X225660543Y-954956D01*
X225640552Y-942974D01*
X225621832Y-929090D01*
X225604562Y-913438D01*
X225588910Y-896168D01*
X225575026Y-877448D01*
X225563044Y-857457D01*
X225553079Y-836387D01*
X225545227Y-814443D01*
X225539563Y-791834D01*
X225536144Y-768779D01*
X225535000Y-745500D01*
X225535000Y-270500D01*
X225536144Y-247221D01*
X225539563Y-224166D01*
X225545227Y-201557D01*
X225553079Y-179613D01*
X225563044Y-158543D01*
X225575026Y-138552D01*
X225588910Y-119832D01*
X225604562Y-102562D01*
X225621832Y-86910D01*
X225640552Y-73026D01*
X225660543Y-61044D01*
X225681613Y-51079D01*
X225703557Y-43227D01*
X225726166Y-37563D01*
X225749221Y-34144D01*
X225772500Y-33000D01*
X226347500Y-33000D01*
X226370779Y-34144D01*
G37*
G36*
X211842779Y-3653144D02*
G01*
X211865834Y-3656563D01*
X211888443Y-3662227D01*
X211910387Y-3670079D01*
X211931457Y-3680044D01*
X211951448Y-3692026D01*
X211970168Y-3705910D01*
X211987438Y-3721562D01*
X212003090Y-3738832D01*
X212016974Y-3757552D01*
X212028956Y-3777543D01*
X212038921Y-3798613D01*
X212046773Y-3820557D01*
X212052437Y-3843166D01*
X212055856Y-3866221D01*
X212057000Y-3889500D01*
X212057000Y-4464500D01*
X212055856Y-4487779D01*
X212052437Y-4510834D01*
X212046773Y-4533443D01*
X212038921Y-4555387D01*
X212028956Y-4576457D01*
X212016974Y-4596448D01*
X212003090Y-4615168D01*
X211987438Y-4632438D01*
X211970168Y-4648090D01*
X211951448Y-4661974D01*
X211931457Y-4673956D01*
X211910387Y-4683921D01*
X211888443Y-4691773D01*
X211865834Y-4697437D01*
X211842779Y-4700856D01*
X211819500Y-4702000D01*
X211344500Y-4702000D01*
X211321221Y-4700856D01*
X211298166Y-4697437D01*
X211275557Y-4691773D01*
X211253613Y-4683921D01*
X211232543Y-4673956D01*
X211212552Y-4661974D01*
X211193832Y-4648090D01*
X211176562Y-4632438D01*
X211160910Y-4615168D01*
X211147026Y-4596448D01*
X211135044Y-4576457D01*
X211125079Y-4555387D01*
X211117227Y-4533443D01*
X211111563Y-4510834D01*
X211108144Y-4487779D01*
X211107000Y-4464500D01*
X211107000Y-3889500D01*
X211108144Y-3866221D01*
X211111563Y-3843166D01*
X211117227Y-3820557D01*
X211125079Y-3798613D01*
X211135044Y-3777543D01*
X211147026Y-3757552D01*
X211160910Y-3738832D01*
X211176562Y-3721562D01*
X211193832Y-3705910D01*
X211212552Y-3692026D01*
X211232543Y-3680044D01*
X211253613Y-3670079D01*
X211275557Y-3662227D01*
X211298166Y-3656563D01*
X211321221Y-3653144D01*
X211344500Y-3652000D01*
X211819500Y-3652000D01*
X211842779Y-3653144D01*
G37*
G36*
X211842779Y-1903144D02*
G01*
X211865834Y-1906563D01*
X211888443Y-1912227D01*
X211910387Y-1920079D01*
X211931457Y-1930044D01*
X211951448Y-1942026D01*
X211970168Y-1955910D01*
X211987438Y-1971562D01*
X212003090Y-1988832D01*
X212016974Y-2007552D01*
X212028956Y-2027543D01*
X212038921Y-2048613D01*
X212046773Y-2070557D01*
X212052437Y-2093166D01*
X212055856Y-2116221D01*
X212057000Y-2139500D01*
X212057000Y-2714500D01*
X212055856Y-2737779D01*
X212052437Y-2760834D01*
X212046773Y-2783443D01*
X212038921Y-2805387D01*
X212028956Y-2826457D01*
X212016974Y-2846448D01*
X212003090Y-2865168D01*
X211987438Y-2882438D01*
X211970168Y-2898090D01*
X211951448Y-2911974D01*
X211931457Y-2923956D01*
X211910387Y-2933921D01*
X211888443Y-2941773D01*
X211865834Y-2947437D01*
X211842779Y-2950856D01*
X211819500Y-2952000D01*
X211344500Y-2952000D01*
X211321221Y-2950856D01*
X211298166Y-2947437D01*
X211275557Y-2941773D01*
X211253613Y-2933921D01*
X211232543Y-2923956D01*
X211212552Y-2911974D01*
X211193832Y-2898090D01*
X211176562Y-2882438D01*
X211160910Y-2865168D01*
X211147026Y-2846448D01*
X211135044Y-2826457D01*
X211125079Y-2805387D01*
X211117227Y-2783443D01*
X211111563Y-2760834D01*
X211108144Y-2737779D01*
X211107000Y-2714500D01*
X211107000Y-2139500D01*
X211108144Y-2116221D01*
X211111563Y-2093166D01*
X211117227Y-2070557D01*
X211125079Y-2048613D01*
X211135044Y-2027543D01*
X211147026Y-2007552D01*
X211160910Y-1988832D01*
X211176562Y-1971562D01*
X211193832Y-1955910D01*
X211212552Y-1942026D01*
X211232543Y-1930044D01*
X211253613Y-1920079D01*
X211275557Y-1912227D01*
X211298166Y-1906563D01*
X211321221Y-1903144D01*
X211344500Y-1902000D01*
X211819500Y-1902000D01*
X211842779Y-1903144D01*
G37*
G36*
X218722779Y-2066144D02*
G01*
X218745834Y-2069563D01*
X218768443Y-2075227D01*
X218790387Y-2083079D01*
X218811457Y-2093044D01*
X218831448Y-2105026D01*
X218850168Y-2118910D01*
X218867438Y-2134562D01*
X218883090Y-2151832D01*
X218896974Y-2170552D01*
X218908956Y-2190543D01*
X218918921Y-2211613D01*
X218926773Y-2233557D01*
X218932437Y-2256166D01*
X218935856Y-2279221D01*
X218937000Y-2302500D01*
X218937000Y-2777500D01*
X218935856Y-2800779D01*
X218932437Y-2823834D01*
X218926773Y-2846443D01*
X218918921Y-2868387D01*
X218908956Y-2889457D01*
X218896974Y-2909448D01*
X218883090Y-2928168D01*
X218867438Y-2945438D01*
X218850168Y-2961090D01*
X218831448Y-2974974D01*
X218811457Y-2986956D01*
X218790387Y-2996921D01*
X218768443Y-3004773D01*
X218745834Y-3010437D01*
X218722779Y-3013856D01*
X218699500Y-3015000D01*
X218124500Y-3015000D01*
X218101221Y-3013856D01*
X218078166Y-3010437D01*
X218055557Y-3004773D01*
X218033613Y-2996921D01*
X218012543Y-2986956D01*
X217992552Y-2974974D01*
X217973832Y-2961090D01*
X217956562Y-2945438D01*
X217940910Y-2928168D01*
X217927026Y-2909448D01*
X217915044Y-2889457D01*
X217905079Y-2868387D01*
X217897227Y-2846443D01*
X217891563Y-2823834D01*
X217888144Y-2800779D01*
X217887000Y-2777500D01*
X217887000Y-2302500D01*
X217888144Y-2279221D01*
X217891563Y-2256166D01*
X217897227Y-2233557D01*
X217905079Y-2211613D01*
X217915044Y-2190543D01*
X217927026Y-2170552D01*
X217940910Y-2151832D01*
X217956562Y-2134562D01*
X217973832Y-2118910D01*
X217992552Y-2105026D01*
X218012543Y-2093044D01*
X218033613Y-2083079D01*
X218055557Y-2075227D01*
X218078166Y-2069563D01*
X218101221Y-2066144D01*
X218124500Y-2065000D01*
X218699500Y-2065000D01*
X218722779Y-2066144D01*
G37*
G36*
X216972779Y-2066144D02*
G01*
X216995834Y-2069563D01*
X217018443Y-2075227D01*
X217040387Y-2083079D01*
X217061457Y-2093044D01*
X217081448Y-2105026D01*
X217100168Y-2118910D01*
X217117438Y-2134562D01*
X217133090Y-2151832D01*
X217146974Y-2170552D01*
X217158956Y-2190543D01*
X217168921Y-2211613D01*
X217176773Y-2233557D01*
X217182437Y-2256166D01*
X217185856Y-2279221D01*
X217187000Y-2302500D01*
X217187000Y-2777500D01*
X217185856Y-2800779D01*
X217182437Y-2823834D01*
X217176773Y-2846443D01*
X217168921Y-2868387D01*
X217158956Y-2889457D01*
X217146974Y-2909448D01*
X217133090Y-2928168D01*
X217117438Y-2945438D01*
X217100168Y-2961090D01*
X217081448Y-2974974D01*
X217061457Y-2986956D01*
X217040387Y-2996921D01*
X217018443Y-3004773D01*
X216995834Y-3010437D01*
X216972779Y-3013856D01*
X216949500Y-3015000D01*
X216374500Y-3015000D01*
X216351221Y-3013856D01*
X216328166Y-3010437D01*
X216305557Y-3004773D01*
X216283613Y-2996921D01*
X216262543Y-2986956D01*
X216242552Y-2974974D01*
X216223832Y-2961090D01*
X216206562Y-2945438D01*
X216190910Y-2928168D01*
X216177026Y-2909448D01*
X216165044Y-2889457D01*
X216155079Y-2868387D01*
X216147227Y-2846443D01*
X216141563Y-2823834D01*
X216138144Y-2800779D01*
X216137000Y-2777500D01*
X216137000Y-2302500D01*
X216138144Y-2279221D01*
X216141563Y-2256166D01*
X216147227Y-2233557D01*
X216155079Y-2211613D01*
X216165044Y-2190543D01*
X216177026Y-2170552D01*
X216190910Y-2151832D01*
X216206562Y-2134562D01*
X216223832Y-2118910D01*
X216242552Y-2105026D01*
X216262543Y-2093044D01*
X216283613Y-2083079D01*
X216305557Y-2075227D01*
X216328166Y-2069563D01*
X216351221Y-2066144D01*
X216374500Y-2065000D01*
X216949500Y-2065000D01*
X216972779Y-2066144D01*
G37*
G36*
X226574779Y-4951144D02*
G01*
X226597834Y-4954563D01*
X226620443Y-4960227D01*
X226642387Y-4968079D01*
X226663457Y-4978044D01*
X226683448Y-4990026D01*
X226702168Y-5003910D01*
X226719438Y-5019562D01*
X226735090Y-5036832D01*
X226748974Y-5055552D01*
X226760956Y-5075543D01*
X226770921Y-5096613D01*
X226778773Y-5118557D01*
X226784437Y-5141166D01*
X226787856Y-5164221D01*
X226789000Y-5187500D01*
X226789000Y-5762500D01*
X226787856Y-5785779D01*
X226784437Y-5808834D01*
X226778773Y-5831443D01*
X226770921Y-5853387D01*
X226760956Y-5874457D01*
X226748974Y-5894448D01*
X226735090Y-5913168D01*
X226719438Y-5930438D01*
X226702168Y-5946090D01*
X226683448Y-5959974D01*
X226663457Y-5971956D01*
X226642387Y-5981921D01*
X226620443Y-5989773D01*
X226597834Y-5995437D01*
X226574779Y-5998856D01*
X226551500Y-6000000D01*
X226076500Y-6000000D01*
X226053221Y-5998856D01*
X226030166Y-5995437D01*
X226007557Y-5989773D01*
X225985613Y-5981921D01*
X225964543Y-5971956D01*
X225944552Y-5959974D01*
X225925832Y-5946090D01*
X225908562Y-5930438D01*
X225892910Y-5913168D01*
X225879026Y-5894448D01*
X225867044Y-5874457D01*
X225857079Y-5853387D01*
X225849227Y-5831443D01*
X225843563Y-5808834D01*
X225840144Y-5785779D01*
X225839000Y-5762500D01*
X225839000Y-5187500D01*
X225840144Y-5164221D01*
X225843563Y-5141166D01*
X225849227Y-5118557D01*
X225857079Y-5096613D01*
X225867044Y-5075543D01*
X225879026Y-5055552D01*
X225892910Y-5036832D01*
X225908562Y-5019562D01*
X225925832Y-5003910D01*
X225944552Y-4990026D01*
X225964543Y-4978044D01*
X225985613Y-4968079D01*
X226007557Y-4960227D01*
X226030166Y-4954563D01*
X226053221Y-4951144D01*
X226076500Y-4950000D01*
X226551500Y-4950000D01*
X226574779Y-4951144D01*
G37*
G36*
X226574779Y-6701144D02*
G01*
X226597834Y-6704563D01*
X226620443Y-6710227D01*
X226642387Y-6718079D01*
X226663457Y-6728044D01*
X226683448Y-6740026D01*
X226702168Y-6753910D01*
X226719438Y-6769562D01*
X226735090Y-6786832D01*
X226748974Y-6805552D01*
X226760956Y-6825543D01*
X226770921Y-6846613D01*
X226778773Y-6868557D01*
X226784437Y-6891166D01*
X226787856Y-6914221D01*
X226789000Y-6937500D01*
X226789000Y-7512500D01*
X226787856Y-7535779D01*
X226784437Y-7558834D01*
X226778773Y-7581443D01*
X226770921Y-7603387D01*
X226760956Y-7624457D01*
X226748974Y-7644448D01*
X226735090Y-7663168D01*
X226719438Y-7680438D01*
X226702168Y-7696090D01*
X226683448Y-7709974D01*
X226663457Y-7721956D01*
X226642387Y-7731921D01*
X226620443Y-7739773D01*
X226597834Y-7745437D01*
X226574779Y-7748856D01*
X226551500Y-7750000D01*
X226076500Y-7750000D01*
X226053221Y-7748856D01*
X226030166Y-7745437D01*
X226007557Y-7739773D01*
X225985613Y-7731921D01*
X225964543Y-7721956D01*
X225944552Y-7709974D01*
X225925832Y-7696090D01*
X225908562Y-7680438D01*
X225892910Y-7663168D01*
X225879026Y-7644448D01*
X225867044Y-7624457D01*
X225857079Y-7603387D01*
X225849227Y-7581443D01*
X225843563Y-7558834D01*
X225840144Y-7535779D01*
X225839000Y-7512500D01*
X225839000Y-6937500D01*
X225840144Y-6914221D01*
X225843563Y-6891166D01*
X225849227Y-6868557D01*
X225857079Y-6846613D01*
X225867044Y-6825543D01*
X225879026Y-6805552D01*
X225892910Y-6786832D01*
X225908562Y-6769562D01*
X225925832Y-6753910D01*
X225944552Y-6740026D01*
X225964543Y-6728044D01*
X225985613Y-6718079D01*
X226007557Y-6710227D01*
X226030166Y-6704563D01*
X226053221Y-6701144D01*
X226076500Y-6700000D01*
X226551500Y-6700000D01*
X226574779Y-6701144D01*
G37*
G36*
X181708642Y-15505131D02*
G01*
X181731697Y-15508550D01*
X181754306Y-15514214D01*
X181776250Y-15522066D01*
X181797320Y-15532031D01*
X181817311Y-15544013D01*
X181836031Y-15557897D01*
X181853301Y-15573549D01*
X182259887Y-15980135D01*
X182275539Y-15997405D01*
X182289423Y-16016125D01*
X182301405Y-16036116D01*
X182311370Y-16057186D01*
X182319222Y-16079130D01*
X182324886Y-16101739D01*
X182328305Y-16124794D01*
X182329449Y-16148073D01*
X182328305Y-16171352D01*
X182324886Y-16194407D01*
X182319222Y-16217016D01*
X182311370Y-16238960D01*
X182301405Y-16260030D01*
X182289423Y-16280021D01*
X182275539Y-16298741D01*
X182259887Y-16316011D01*
X181924011Y-16651887D01*
X181906741Y-16667539D01*
X181888021Y-16681423D01*
X181868030Y-16693405D01*
X181846960Y-16703370D01*
X181825016Y-16711222D01*
X181802407Y-16716886D01*
X181779352Y-16720305D01*
X181756073Y-16721449D01*
X181732794Y-16720305D01*
X181709739Y-16716886D01*
X181687130Y-16711222D01*
X181665186Y-16703370D01*
X181644116Y-16693405D01*
X181624125Y-16681423D01*
X181605405Y-16667539D01*
X181588135Y-16651887D01*
X181181549Y-16245301D01*
X181165897Y-16228031D01*
X181152013Y-16209311D01*
X181140031Y-16189320D01*
X181130066Y-16168250D01*
X181122214Y-16146306D01*
X181116550Y-16123697D01*
X181113131Y-16100642D01*
X181111987Y-16077363D01*
X181113131Y-16054084D01*
X181116550Y-16031029D01*
X181122214Y-16008420D01*
X181130066Y-15986476D01*
X181140031Y-15965406D01*
X181152013Y-15945415D01*
X181165897Y-15926695D01*
X181181549Y-15909425D01*
X181517425Y-15573549D01*
X181534695Y-15557897D01*
X181553415Y-15544013D01*
X181573406Y-15532031D01*
X181594476Y-15522066D01*
X181616420Y-15514214D01*
X181639029Y-15508550D01*
X181662084Y-15505131D01*
X181685363Y-15503987D01*
X181708642Y-15505131D01*
G37*
G36*
X180471206Y-14267695D02*
G01*
X180494261Y-14271114D01*
X180516870Y-14276778D01*
X180538814Y-14284630D01*
X180559884Y-14294595D01*
X180579875Y-14306577D01*
X180598595Y-14320461D01*
X180615865Y-14336113D01*
X181022451Y-14742699D01*
X181038103Y-14759969D01*
X181051987Y-14778689D01*
X181063969Y-14798680D01*
X181073934Y-14819750D01*
X181081786Y-14841694D01*
X181087450Y-14864303D01*
X181090869Y-14887358D01*
X181092013Y-14910637D01*
X181090869Y-14933916D01*
X181087450Y-14956971D01*
X181081786Y-14979580D01*
X181073934Y-15001524D01*
X181063969Y-15022594D01*
X181051987Y-15042585D01*
X181038103Y-15061305D01*
X181022451Y-15078575D01*
X180686575Y-15414451D01*
X180669305Y-15430103D01*
X180650585Y-15443987D01*
X180630594Y-15455969D01*
X180609524Y-15465934D01*
X180587580Y-15473786D01*
X180564971Y-15479450D01*
X180541916Y-15482869D01*
X180518637Y-15484013D01*
X180495358Y-15482869D01*
X180472303Y-15479450D01*
X180449694Y-15473786D01*
X180427750Y-15465934D01*
X180406680Y-15455969D01*
X180386689Y-15443987D01*
X180367969Y-15430103D01*
X180350699Y-15414451D01*
X179944113Y-15007865D01*
X179928461Y-14990595D01*
X179914577Y-14971875D01*
X179902595Y-14951884D01*
X179892630Y-14930814D01*
X179884778Y-14908870D01*
X179879114Y-14886261D01*
X179875695Y-14863206D01*
X179874551Y-14839927D01*
X179875695Y-14816648D01*
X179879114Y-14793593D01*
X179884778Y-14770984D01*
X179892630Y-14749040D01*
X179902595Y-14727970D01*
X179914577Y-14707979D01*
X179928461Y-14689259D01*
X179944113Y-14671989D01*
X180279989Y-14336113D01*
X180297259Y-14320461D01*
X180315979Y-14306577D01*
X180335970Y-14294595D01*
X180357040Y-14284630D01*
X180378984Y-14276778D01*
X180401593Y-14271114D01*
X180424648Y-14267695D01*
X180447927Y-14266551D01*
X180471206Y-14267695D01*
G37*
D12*
X213106000Y-23876000D03*
X211106000Y-22926000D03*
X211106000Y-24826000D03*
D11*
G36*
X207595505Y-23939204D02*
G01*
X207619773Y-23942804D01*
X207643572Y-23948765D01*
X207666671Y-23957030D01*
X207688850Y-23967520D01*
X207709893Y-23980132D01*
X207729599Y-23994747D01*
X207747777Y-24011223D01*
X207764253Y-24029401D01*
X207778868Y-24049107D01*
X207791480Y-24070150D01*
X207801970Y-24092329D01*
X207810235Y-24115428D01*
X207816196Y-24139227D01*
X207819796Y-24163495D01*
X207821000Y-24187999D01*
X207821000Y-25088001D01*
X207819796Y-25112505D01*
X207816196Y-25136773D01*
X207810235Y-25160572D01*
X207801970Y-25183671D01*
X207791480Y-25205850D01*
X207778868Y-25226893D01*
X207764253Y-25246599D01*
X207747777Y-25264777D01*
X207729599Y-25281253D01*
X207709893Y-25295868D01*
X207688850Y-25308480D01*
X207666671Y-25318970D01*
X207643572Y-25327235D01*
X207619773Y-25333196D01*
X207595505Y-25336796D01*
X207571001Y-25338000D01*
X206920999Y-25338000D01*
X206896495Y-25336796D01*
X206872227Y-25333196D01*
X206848428Y-25327235D01*
X206825329Y-25318970D01*
X206803150Y-25308480D01*
X206782107Y-25295868D01*
X206762401Y-25281253D01*
X206744223Y-25264777D01*
X206727747Y-25246599D01*
X206713132Y-25226893D01*
X206700520Y-25205850D01*
X206690030Y-25183671D01*
X206681765Y-25160572D01*
X206675804Y-25136773D01*
X206672204Y-25112505D01*
X206671000Y-25088001D01*
X206671000Y-24187999D01*
X206672204Y-24163495D01*
X206675804Y-24139227D01*
X206681765Y-24115428D01*
X206690030Y-24092329D01*
X206700520Y-24070150D01*
X206713132Y-24049107D01*
X206727747Y-24029401D01*
X206744223Y-24011223D01*
X206762401Y-23994747D01*
X206782107Y-23980132D01*
X206803150Y-23967520D01*
X206825329Y-23957030D01*
X206848428Y-23948765D01*
X206872227Y-23942804D01*
X206896495Y-23939204D01*
X206920999Y-23938000D01*
X207571001Y-23938000D01*
X207595505Y-23939204D01*
G37*
G36*
X209645505Y-23939204D02*
G01*
X209669773Y-23942804D01*
X209693572Y-23948765D01*
X209716671Y-23957030D01*
X209738850Y-23967520D01*
X209759893Y-23980132D01*
X209779599Y-23994747D01*
X209797777Y-24011223D01*
X209814253Y-24029401D01*
X209828868Y-24049107D01*
X209841480Y-24070150D01*
X209851970Y-24092329D01*
X209860235Y-24115428D01*
X209866196Y-24139227D01*
X209869796Y-24163495D01*
X209871000Y-24187999D01*
X209871000Y-25088001D01*
X209869796Y-25112505D01*
X209866196Y-25136773D01*
X209860235Y-25160572D01*
X209851970Y-25183671D01*
X209841480Y-25205850D01*
X209828868Y-25226893D01*
X209814253Y-25246599D01*
X209797777Y-25264777D01*
X209779599Y-25281253D01*
X209759893Y-25295868D01*
X209738850Y-25308480D01*
X209716671Y-25318970D01*
X209693572Y-25327235D01*
X209669773Y-25333196D01*
X209645505Y-25336796D01*
X209621001Y-25338000D01*
X208970999Y-25338000D01*
X208946495Y-25336796D01*
X208922227Y-25333196D01*
X208898428Y-25327235D01*
X208875329Y-25318970D01*
X208853150Y-25308480D01*
X208832107Y-25295868D01*
X208812401Y-25281253D01*
X208794223Y-25264777D01*
X208777747Y-25246599D01*
X208763132Y-25226893D01*
X208750520Y-25205850D01*
X208740030Y-25183671D01*
X208731765Y-25160572D01*
X208725804Y-25136773D01*
X208722204Y-25112505D01*
X208721000Y-25088001D01*
X208721000Y-24187999D01*
X208722204Y-24163495D01*
X208725804Y-24139227D01*
X208731765Y-24115428D01*
X208740030Y-24092329D01*
X208750520Y-24070150D01*
X208763132Y-24049107D01*
X208777747Y-24029401D01*
X208794223Y-24011223D01*
X208812401Y-23994747D01*
X208832107Y-23980132D01*
X208853150Y-23967520D01*
X208875329Y-23957030D01*
X208898428Y-23948765D01*
X208922227Y-23942804D01*
X208946495Y-23939204D01*
X208970999Y-23938000D01*
X209621001Y-23938000D01*
X209645505Y-23939204D01*
G37*
G36*
X212421505Y-15557204D02*
G01*
X212445773Y-15560804D01*
X212469572Y-15566765D01*
X212492671Y-15575030D01*
X212514850Y-15585520D01*
X212535893Y-15598132D01*
X212555599Y-15612747D01*
X212573777Y-15629223D01*
X212590253Y-15647401D01*
X212604868Y-15667107D01*
X212617480Y-15688150D01*
X212627970Y-15710329D01*
X212636235Y-15733428D01*
X212642196Y-15757227D01*
X212645796Y-15781495D01*
X212647000Y-15805999D01*
X212647000Y-16706001D01*
X212645796Y-16730505D01*
X212642196Y-16754773D01*
X212636235Y-16778572D01*
X212627970Y-16801671D01*
X212617480Y-16823850D01*
X212604868Y-16844893D01*
X212590253Y-16864599D01*
X212573777Y-16882777D01*
X212555599Y-16899253D01*
X212535893Y-16913868D01*
X212514850Y-16926480D01*
X212492671Y-16936970D01*
X212469572Y-16945235D01*
X212445773Y-16951196D01*
X212421505Y-16954796D01*
X212397001Y-16956000D01*
X211746999Y-16956000D01*
X211722495Y-16954796D01*
X211698227Y-16951196D01*
X211674428Y-16945235D01*
X211651329Y-16936970D01*
X211629150Y-16926480D01*
X211608107Y-16913868D01*
X211588401Y-16899253D01*
X211570223Y-16882777D01*
X211553747Y-16864599D01*
X211539132Y-16844893D01*
X211526520Y-16823850D01*
X211516030Y-16801671D01*
X211507765Y-16778572D01*
X211501804Y-16754773D01*
X211498204Y-16730505D01*
X211497000Y-16706001D01*
X211497000Y-15805999D01*
X211498204Y-15781495D01*
X211501804Y-15757227D01*
X211507765Y-15733428D01*
X211516030Y-15710329D01*
X211526520Y-15688150D01*
X211539132Y-15667107D01*
X211553747Y-15647401D01*
X211570223Y-15629223D01*
X211588401Y-15612747D01*
X211608107Y-15598132D01*
X211629150Y-15585520D01*
X211651329Y-15575030D01*
X211674428Y-15566765D01*
X211698227Y-15560804D01*
X211722495Y-15557204D01*
X211746999Y-15556000D01*
X212397001Y-15556000D01*
X212421505Y-15557204D01*
G37*
G36*
X214471505Y-15557204D02*
G01*
X214495773Y-15560804D01*
X214519572Y-15566765D01*
X214542671Y-15575030D01*
X214564850Y-15585520D01*
X214585893Y-15598132D01*
X214605599Y-15612747D01*
X214623777Y-15629223D01*
X214640253Y-15647401D01*
X214654868Y-15667107D01*
X214667480Y-15688150D01*
X214677970Y-15710329D01*
X214686235Y-15733428D01*
X214692196Y-15757227D01*
X214695796Y-15781495D01*
X214697000Y-15805999D01*
X214697000Y-16706001D01*
X214695796Y-16730505D01*
X214692196Y-16754773D01*
X214686235Y-16778572D01*
X214677970Y-16801671D01*
X214667480Y-16823850D01*
X214654868Y-16844893D01*
X214640253Y-16864599D01*
X214623777Y-16882777D01*
X214605599Y-16899253D01*
X214585893Y-16913868D01*
X214564850Y-16926480D01*
X214542671Y-16936970D01*
X214519572Y-16945235D01*
X214495773Y-16951196D01*
X214471505Y-16954796D01*
X214447001Y-16956000D01*
X213796999Y-16956000D01*
X213772495Y-16954796D01*
X213748227Y-16951196D01*
X213724428Y-16945235D01*
X213701329Y-16936970D01*
X213679150Y-16926480D01*
X213658107Y-16913868D01*
X213638401Y-16899253D01*
X213620223Y-16882777D01*
X213603747Y-16864599D01*
X213589132Y-16844893D01*
X213576520Y-16823850D01*
X213566030Y-16801671D01*
X213557765Y-16778572D01*
X213551804Y-16754773D01*
X213548204Y-16730505D01*
X213547000Y-16706001D01*
X213547000Y-15805999D01*
X213548204Y-15781495D01*
X213551804Y-15757227D01*
X213557765Y-15733428D01*
X213566030Y-15710329D01*
X213576520Y-15688150D01*
X213589132Y-15667107D01*
X213603747Y-15647401D01*
X213620223Y-15629223D01*
X213638401Y-15612747D01*
X213658107Y-15598132D01*
X213679150Y-15585520D01*
X213701329Y-15575030D01*
X213724428Y-15566765D01*
X213748227Y-15560804D01*
X213772495Y-15557204D01*
X213796999Y-15556000D01*
X214447001Y-15556000D01*
X214471505Y-15557204D01*
G37*
D12*
X218186000Y-15494000D03*
X216186000Y-14544000D03*
X216186000Y-16444000D03*
M02*
