G04 #@! TF.GenerationSoftware,KiCad,Pcbnew,(5.1.5-0-10_14)*
G04 #@! TF.CreationDate,2020-09-03T12:45:04-04:00*
G04 #@! TF.ProjectId,ledspy,6c656473-7079-42e6-9b69-6361645f7063,rev?*
G04 #@! TF.SameCoordinates,Original*
G04 #@! TF.FileFunction,Legend,Bot*
G04 #@! TF.FilePolarity,Positive*
%FSLAX46Y46*%
G04 Gerber Fmt 4.6, Leading zero omitted, Abs format (unit mm)*
G04 Created by KiCad (PCBNEW (5.1.5-0-10_14)) date 2020-09-03 12:45:04*
%MOMM*%
%LPD*%
G04 APERTURE LIST*
%ADD10C,0.120000*%
%ADD11C,0.150000*%
G04 APERTURE END LIST*
D10*
X163563000Y-29120000D02*
X163563000Y-30180000D01*
X164623000Y-29120000D02*
X163563000Y-29120000D01*
X165623000Y-29120000D02*
X165623000Y-31240000D01*
X165623000Y-31240000D02*
X171683000Y-31240000D01*
X165623000Y-29120000D02*
X171683000Y-29120000D01*
X171683000Y-29120000D02*
X171683000Y-31240000D01*
X201273000Y-31240000D02*
X201273000Y-30180000D01*
X200213000Y-31240000D02*
X201273000Y-31240000D01*
X199213000Y-31240000D02*
X199213000Y-29120000D01*
X199213000Y-29120000D02*
X197153000Y-29120000D01*
X199213000Y-31240000D02*
X197153000Y-31240000D01*
X197153000Y-31240000D02*
X197153000Y-29120000D01*
X172263000Y4470000D02*
X172263000Y3410000D01*
X173323000Y4470000D02*
X172263000Y4470000D01*
X174323000Y4470000D02*
X174323000Y2350000D01*
X174323000Y2350000D02*
X182383000Y2350000D01*
X174323000Y4470000D02*
X182383000Y4470000D01*
X182383000Y4470000D02*
X182383000Y2350000D01*
X198513000Y-17810000D02*
X199573000Y-17810000D01*
X198513000Y-16750000D02*
X198513000Y-17810000D01*
X198513000Y-15750000D02*
X200633000Y-15750000D01*
X200633000Y-15750000D02*
X200633000Y310000D01*
X198513000Y-15750000D02*
X198513000Y310000D01*
X198513000Y310000D02*
X200633000Y310000D01*
X163323000Y-10780000D02*
X165443000Y-10780000D01*
X163323000Y-24840000D02*
X163323000Y-10780000D01*
X165443000Y-24840000D02*
X165443000Y-10780000D01*
X163323000Y-24840000D02*
X165443000Y-24840000D01*
X163323000Y-25840000D02*
X163323000Y-26900000D01*
X163323000Y-26900000D02*
X164383000Y-26900000D01*
X163323000Y-10360000D02*
X164383000Y-10360000D01*
X163323000Y-9300000D02*
X163323000Y-10360000D01*
X163323000Y-8300000D02*
X165443000Y-8300000D01*
X165443000Y-8300000D02*
X165443000Y5760000D01*
X163323000Y-8300000D02*
X163323000Y5760000D01*
X163323000Y5760000D02*
X165443000Y5760000D01*
X222562000Y-1280000D02*
X209962000Y-1280000D01*
X209962000Y-1280000D02*
X209962000Y3820000D01*
X209962000Y3820000D02*
X222562000Y3820000D01*
X214142000Y-7112000D02*
X214142000Y-3662000D01*
X214142000Y-7112000D02*
X214142000Y-9062000D01*
X224262000Y-7112000D02*
X224262000Y-5162000D01*
X224262000Y-7112000D02*
X224262000Y-9062000D01*
X174616252Y-22520000D02*
X174093748Y-22520000D01*
X174616252Y-21100000D02*
X174093748Y-21100000D01*
X223757748Y-31040000D02*
X224280252Y-31040000D01*
X223757748Y-32460000D02*
X224280252Y-32460000D01*
X178151267Y-22270000D02*
X177808733Y-22270000D01*
X178151267Y-21250000D02*
X177808733Y-21250000D01*
X176146267Y-19270000D02*
X175803733Y-19270000D01*
X176146267Y-18250000D02*
X175803733Y-18250000D01*
X179519733Y-23112000D02*
X179862267Y-23112000D01*
X179519733Y-24132000D02*
X179862267Y-24132000D01*
X217647733Y-11174000D02*
X217990267Y-11174000D01*
X217647733Y-12194000D02*
X217990267Y-12194000D01*
X225356267Y-1018000D02*
X225013733Y-1018000D01*
X225356267Y2000D02*
X225013733Y2000D01*
X212092000Y-3130733D02*
X212092000Y-3473267D01*
X211072000Y-3130733D02*
X211072000Y-3473267D01*
X217365733Y-2030000D02*
X217708267Y-2030000D01*
X217365733Y-3050000D02*
X217708267Y-3050000D01*
X225804000Y-6521267D02*
X225804000Y-6178733D01*
X226824000Y-6521267D02*
X226824000Y-6178733D01*
X181341520Y-15012271D02*
X181583729Y-15254480D01*
X180620271Y-15733520D02*
X180862480Y-15975729D01*
X212866000Y-22296000D02*
X211406000Y-22296000D01*
X212866000Y-25456000D02*
X210706000Y-25456000D01*
X212866000Y-25456000D02*
X212866000Y-24526000D01*
X212866000Y-22296000D02*
X212866000Y-23226000D01*
X208532252Y-25348000D02*
X208009748Y-25348000D01*
X208532252Y-23928000D02*
X208009748Y-23928000D01*
X213358252Y-16966000D02*
X212835748Y-16966000D01*
X213358252Y-15546000D02*
X212835748Y-15546000D01*
X217946000Y-13914000D02*
X216486000Y-13914000D01*
X217946000Y-17074000D02*
X215786000Y-17074000D01*
X217946000Y-17074000D02*
X217946000Y-16144000D01*
X217946000Y-13914000D02*
X217946000Y-14844000D01*
D11*
X172330761Y-27392380D02*
X171664095Y-28392380D01*
X171664095Y-27392380D02*
X172330761Y-28392380D01*
X170759333Y-28392380D02*
X171330761Y-28392380D01*
X171045047Y-28392380D02*
X171045047Y-27392380D01*
X171140285Y-27535238D01*
X171235523Y-27630476D01*
X171330761Y-27678095D01*
X170330761Y-28011428D02*
X169568857Y-28011428D01*
X168759333Y-27868571D02*
X168616476Y-27916190D01*
X168568857Y-27963809D01*
X168521238Y-28059047D01*
X168521238Y-28201904D01*
X168568857Y-28297142D01*
X168616476Y-28344761D01*
X168711714Y-28392380D01*
X169092666Y-28392380D01*
X169092666Y-27392380D01*
X168759333Y-27392380D01*
X168664095Y-27440000D01*
X168616476Y-27487619D01*
X168568857Y-27582857D01*
X168568857Y-27678095D01*
X168616476Y-27773333D01*
X168664095Y-27820952D01*
X168759333Y-27868571D01*
X169092666Y-27868571D01*
X167664095Y-27725714D02*
X167664095Y-28392380D01*
X167902190Y-27344761D02*
X168140285Y-28059047D01*
X167521238Y-28059047D01*
X201794761Y-27392380D02*
X201128095Y-28392380D01*
X201128095Y-27392380D02*
X201794761Y-28392380D01*
X200223333Y-28392380D02*
X200794761Y-28392380D01*
X200509047Y-28392380D02*
X200509047Y-27392380D01*
X200604285Y-27535238D01*
X200699523Y-27630476D01*
X200794761Y-27678095D01*
X199794761Y-28011428D02*
X199032857Y-28011428D01*
X198223333Y-27868571D02*
X198080476Y-27916190D01*
X198032857Y-27963809D01*
X197985238Y-28059047D01*
X197985238Y-28201904D01*
X198032857Y-28297142D01*
X198080476Y-28344761D01*
X198175714Y-28392380D01*
X198556666Y-28392380D01*
X198556666Y-27392380D01*
X198223333Y-27392380D01*
X198128095Y-27440000D01*
X198080476Y-27487619D01*
X198032857Y-27582857D01*
X198032857Y-27678095D01*
X198080476Y-27773333D01*
X198128095Y-27820952D01*
X198223333Y-27868571D01*
X198556666Y-27868571D01*
X197651904Y-27392380D02*
X197032857Y-27392380D01*
X197366190Y-27773333D01*
X197223333Y-27773333D01*
X197128095Y-27820952D01*
X197080476Y-27868571D01*
X197032857Y-27963809D01*
X197032857Y-28201904D01*
X197080476Y-28297142D01*
X197128095Y-28344761D01*
X197223333Y-28392380D01*
X197509047Y-28392380D01*
X197604285Y-28344761D01*
X197651904Y-28297142D01*
X182466761Y5881619D02*
X181800095Y4881619D01*
X181800095Y5881619D02*
X182466761Y4881619D01*
X180895333Y4881619D02*
X181466761Y4881619D01*
X181181047Y4881619D02*
X181181047Y5881619D01*
X181276285Y5738761D01*
X181371523Y5643523D01*
X181466761Y5595904D01*
X180466761Y5262571D02*
X179704857Y5262571D01*
X178895333Y5405428D02*
X178752476Y5357809D01*
X178704857Y5310190D01*
X178657238Y5214952D01*
X178657238Y5072095D01*
X178704857Y4976857D01*
X178752476Y4929238D01*
X178847714Y4881619D01*
X179228666Y4881619D01*
X179228666Y5881619D01*
X178895333Y5881619D01*
X178800095Y5834000D01*
X178752476Y5786380D01*
X178704857Y5691142D01*
X178704857Y5595904D01*
X178752476Y5500666D01*
X178800095Y5453047D01*
X178895333Y5405428D01*
X179228666Y5405428D01*
X178228666Y5881619D02*
X178228666Y5072095D01*
X178181047Y4976857D01*
X178133428Y4929238D01*
X178038190Y4881619D01*
X177847714Y4881619D01*
X177752476Y4929238D01*
X177704857Y4976857D01*
X177657238Y5072095D01*
X177657238Y5881619D01*
X177228666Y4929238D02*
X177085809Y4881619D01*
X176847714Y4881619D01*
X176752476Y4929238D01*
X176704857Y4976857D01*
X176657238Y5072095D01*
X176657238Y5167333D01*
X176704857Y5262571D01*
X176752476Y5310190D01*
X176847714Y5357809D01*
X177038190Y5405428D01*
X177133428Y5453047D01*
X177181047Y5500666D01*
X177228666Y5595904D01*
X177228666Y5691142D01*
X177181047Y5786380D01*
X177133428Y5834000D01*
X177038190Y5881619D01*
X176800095Y5881619D01*
X176657238Y5834000D01*
X175895333Y5405428D02*
X175752476Y5357809D01*
X175704857Y5310190D01*
X175657238Y5214952D01*
X175657238Y5072095D01*
X175704857Y4976857D01*
X175752476Y4929238D01*
X175847714Y4881619D01*
X176228666Y4881619D01*
X176228666Y5881619D01*
X175895333Y5881619D01*
X175800095Y5834000D01*
X175752476Y5786380D01*
X175704857Y5691142D01*
X175704857Y5595904D01*
X175752476Y5500666D01*
X175800095Y5453047D01*
X175895333Y5405428D01*
X176228666Y5405428D01*
X174704857Y4881619D02*
X175276285Y4881619D01*
X174990571Y4881619D02*
X174990571Y5881619D01*
X175085809Y5738761D01*
X175181047Y5643523D01*
X175276285Y5595904D01*
X196810380Y-4961238D02*
X197810380Y-5627904D01*
X196810380Y-5627904D02*
X197810380Y-4961238D01*
X197810380Y-6532666D02*
X197810380Y-5961238D01*
X197810380Y-6246952D02*
X196810380Y-6246952D01*
X196953238Y-6151714D01*
X197048476Y-6056476D01*
X197096095Y-5961238D01*
X197429428Y-6961238D02*
X197429428Y-7723142D01*
X197286571Y-8532666D02*
X197334190Y-8675523D01*
X197381809Y-8723142D01*
X197477047Y-8770761D01*
X197619904Y-8770761D01*
X197715142Y-8723142D01*
X197762761Y-8675523D01*
X197810380Y-8580285D01*
X197810380Y-8199333D01*
X196810380Y-8199333D01*
X196810380Y-8532666D01*
X196858000Y-8627904D01*
X196905619Y-8675523D01*
X197000857Y-8723142D01*
X197096095Y-8723142D01*
X197191333Y-8675523D01*
X197238952Y-8627904D01*
X197286571Y-8532666D01*
X197286571Y-8199333D01*
X196810380Y-9675523D02*
X196810380Y-9199333D01*
X197286571Y-9151714D01*
X197238952Y-9199333D01*
X197191333Y-9294571D01*
X197191333Y-9532666D01*
X197238952Y-9627904D01*
X197286571Y-9675523D01*
X197381809Y-9723142D01*
X197619904Y-9723142D01*
X197715142Y-9675523D01*
X197762761Y-9627904D01*
X197810380Y-9532666D01*
X197810380Y-9294571D01*
X197762761Y-9199333D01*
X197715142Y-9151714D01*
X161504380Y-15629238D02*
X162504380Y-16295904D01*
X161504380Y-16295904D02*
X162504380Y-15629238D01*
X162504380Y-17200666D02*
X162504380Y-16629238D01*
X162504380Y-16914952D02*
X161504380Y-16914952D01*
X161647238Y-16819714D01*
X161742476Y-16724476D01*
X161790095Y-16629238D01*
X162123428Y-17629238D02*
X162123428Y-18391142D01*
X161980571Y-19200666D02*
X162028190Y-19343523D01*
X162075809Y-19391142D01*
X162171047Y-19438761D01*
X162313904Y-19438761D01*
X162409142Y-19391142D01*
X162456761Y-19343523D01*
X162504380Y-19248285D01*
X162504380Y-18867333D01*
X161504380Y-18867333D01*
X161504380Y-19200666D01*
X161552000Y-19295904D01*
X161599619Y-19343523D01*
X161694857Y-19391142D01*
X161790095Y-19391142D01*
X161885333Y-19343523D01*
X161932952Y-19295904D01*
X161980571Y-19200666D01*
X161980571Y-18867333D01*
X161599619Y-19819714D02*
X161552000Y-19867333D01*
X161504380Y-19962571D01*
X161504380Y-20200666D01*
X161552000Y-20295904D01*
X161599619Y-20343523D01*
X161694857Y-20391142D01*
X161790095Y-20391142D01*
X161932952Y-20343523D01*
X162504380Y-19772095D01*
X162504380Y-20391142D01*
X161758380Y2150761D02*
X162758380Y1484095D01*
X161758380Y1484095D02*
X162758380Y2150761D01*
X162758380Y579333D02*
X162758380Y1150761D01*
X162758380Y865047D02*
X161758380Y865047D01*
X161901238Y960285D01*
X161996476Y1055523D01*
X162044095Y1150761D01*
X162377428Y150761D02*
X162377428Y-611142D01*
X162234571Y-1420666D02*
X162282190Y-1563523D01*
X162329809Y-1611142D01*
X162425047Y-1658761D01*
X162567904Y-1658761D01*
X162663142Y-1611142D01*
X162710761Y-1563523D01*
X162758380Y-1468285D01*
X162758380Y-1087333D01*
X161758380Y-1087333D01*
X161758380Y-1420666D01*
X161806000Y-1515904D01*
X161853619Y-1563523D01*
X161948857Y-1611142D01*
X162044095Y-1611142D01*
X162139333Y-1563523D01*
X162186952Y-1515904D01*
X162234571Y-1420666D01*
X162234571Y-1087333D01*
X162758380Y-2611142D02*
X162758380Y-2039714D01*
X162758380Y-2325428D02*
X161758380Y-2325428D01*
X161901238Y-2230190D01*
X161996476Y-2134952D01*
X162044095Y-2039714D01*
X224305809Y2571809D02*
X223829619Y2571809D01*
X224829619Y2238476D02*
X224305809Y2571809D01*
X224829619Y2905142D01*
X224734380Y3190857D02*
X224782000Y3238476D01*
X224829619Y3333714D01*
X224829619Y3571809D01*
X224782000Y3667047D01*
X224734380Y3714666D01*
X224639142Y3762285D01*
X224543904Y3762285D01*
X224401047Y3714666D01*
X223829619Y3143238D01*
X223829619Y3762285D01*
X224281904Y-11136380D02*
X224281904Y-11945904D01*
X224234285Y-12041142D01*
X224186666Y-12088761D01*
X224091428Y-12136380D01*
X223900952Y-12136380D01*
X223805714Y-12088761D01*
X223758095Y-12041142D01*
X223710476Y-11945904D01*
X223710476Y-11136380D01*
X223281904Y-11231619D02*
X223234285Y-11184000D01*
X223139047Y-11136380D01*
X222900952Y-11136380D01*
X222805714Y-11184000D01*
X222758095Y-11231619D01*
X222710476Y-11326857D01*
X222710476Y-11422095D01*
X222758095Y-11564952D01*
X223329523Y-12136380D01*
X222710476Y-12136380D01*
X174521666Y-20612380D02*
X174855000Y-20136190D01*
X175093095Y-20612380D02*
X175093095Y-19612380D01*
X174712142Y-19612380D01*
X174616904Y-19660000D01*
X174569285Y-19707619D01*
X174521666Y-19802857D01*
X174521666Y-19945714D01*
X174569285Y-20040952D01*
X174616904Y-20088571D01*
X174712142Y-20136190D01*
X175093095Y-20136190D01*
X173664523Y-19945714D02*
X173664523Y-20612380D01*
X173902619Y-19564761D02*
X174140714Y-20279047D01*
X173521666Y-20279047D01*
X224185666Y-33852380D02*
X224519000Y-33376190D01*
X224757095Y-33852380D02*
X224757095Y-32852380D01*
X224376142Y-32852380D01*
X224280904Y-32900000D01*
X224233285Y-32947619D01*
X224185666Y-33042857D01*
X224185666Y-33185714D01*
X224233285Y-33280952D01*
X224280904Y-33328571D01*
X224376142Y-33376190D01*
X224757095Y-33376190D01*
X223233285Y-33852380D02*
X223804714Y-33852380D01*
X223519000Y-33852380D02*
X223519000Y-32852380D01*
X223614238Y-32995238D01*
X223709476Y-33090476D01*
X223804714Y-33138095D01*
X178622857Y-20687142D02*
X178670476Y-20734761D01*
X178813333Y-20782380D01*
X178908571Y-20782380D01*
X179051428Y-20734761D01*
X179146666Y-20639523D01*
X179194285Y-20544285D01*
X179241904Y-20353809D01*
X179241904Y-20210952D01*
X179194285Y-20020476D01*
X179146666Y-19925238D01*
X179051428Y-19830000D01*
X178908571Y-19782380D01*
X178813333Y-19782380D01*
X178670476Y-19830000D01*
X178622857Y-19877619D01*
X177670476Y-20782380D02*
X178241904Y-20782380D01*
X177956190Y-20782380D02*
X177956190Y-19782380D01*
X178051428Y-19925238D01*
X178146666Y-20020476D01*
X178241904Y-20068095D01*
X177051428Y-19782380D02*
X176956190Y-19782380D01*
X176860952Y-19830000D01*
X176813333Y-19877619D01*
X176765714Y-19972857D01*
X176718095Y-20163333D01*
X176718095Y-20401428D01*
X176765714Y-20591904D01*
X176813333Y-20687142D01*
X176860952Y-20734761D01*
X176956190Y-20782380D01*
X177051428Y-20782380D01*
X177146666Y-20734761D01*
X177194285Y-20687142D01*
X177241904Y-20591904D01*
X177289523Y-20401428D01*
X177289523Y-20163333D01*
X177241904Y-19972857D01*
X177194285Y-19877619D01*
X177146666Y-19830000D01*
X177051428Y-19782380D01*
X176141666Y-17687142D02*
X176189285Y-17734761D01*
X176332142Y-17782380D01*
X176427380Y-17782380D01*
X176570238Y-17734761D01*
X176665476Y-17639523D01*
X176713095Y-17544285D01*
X176760714Y-17353809D01*
X176760714Y-17210952D01*
X176713095Y-17020476D01*
X176665476Y-16925238D01*
X176570238Y-16830000D01*
X176427380Y-16782380D01*
X176332142Y-16782380D01*
X176189285Y-16830000D01*
X176141666Y-16877619D01*
X175665476Y-17782380D02*
X175475000Y-17782380D01*
X175379761Y-17734761D01*
X175332142Y-17687142D01*
X175236904Y-17544285D01*
X175189285Y-17353809D01*
X175189285Y-16972857D01*
X175236904Y-16877619D01*
X175284523Y-16830000D01*
X175379761Y-16782380D01*
X175570238Y-16782380D01*
X175665476Y-16830000D01*
X175713095Y-16877619D01*
X175760714Y-16972857D01*
X175760714Y-17210952D01*
X175713095Y-17306190D01*
X175665476Y-17353809D01*
X175570238Y-17401428D01*
X175379761Y-17401428D01*
X175284523Y-17353809D01*
X175236904Y-17306190D01*
X175189285Y-17210952D01*
X179857666Y-25409142D02*
X179905285Y-25456761D01*
X180048142Y-25504380D01*
X180143380Y-25504380D01*
X180286238Y-25456761D01*
X180381476Y-25361523D01*
X180429095Y-25266285D01*
X180476714Y-25075809D01*
X180476714Y-24932952D01*
X180429095Y-24742476D01*
X180381476Y-24647238D01*
X180286238Y-24552000D01*
X180143380Y-24504380D01*
X180048142Y-24504380D01*
X179905285Y-24552000D01*
X179857666Y-24599619D01*
X179286238Y-24932952D02*
X179381476Y-24885333D01*
X179429095Y-24837714D01*
X179476714Y-24742476D01*
X179476714Y-24694857D01*
X179429095Y-24599619D01*
X179381476Y-24552000D01*
X179286238Y-24504380D01*
X179095761Y-24504380D01*
X179000523Y-24552000D01*
X178952904Y-24599619D01*
X178905285Y-24694857D01*
X178905285Y-24742476D01*
X178952904Y-24837714D01*
X179000523Y-24885333D01*
X179095761Y-24932952D01*
X179286238Y-24932952D01*
X179381476Y-24980571D01*
X179429095Y-25028190D01*
X179476714Y-25123428D01*
X179476714Y-25313904D01*
X179429095Y-25409142D01*
X179381476Y-25456761D01*
X179286238Y-25504380D01*
X179095761Y-25504380D01*
X179000523Y-25456761D01*
X178952904Y-25409142D01*
X178905285Y-25313904D01*
X178905285Y-25123428D01*
X178952904Y-25028190D01*
X179000523Y-24980571D01*
X179095761Y-24932952D01*
X215191666Y-12041142D02*
X215239285Y-12088761D01*
X215382142Y-12136380D01*
X215477380Y-12136380D01*
X215620238Y-12088761D01*
X215715476Y-11993523D01*
X215763095Y-11898285D01*
X215810714Y-11707809D01*
X215810714Y-11564952D01*
X215763095Y-11374476D01*
X215715476Y-11279238D01*
X215620238Y-11184000D01*
X215477380Y-11136380D01*
X215382142Y-11136380D01*
X215239285Y-11184000D01*
X215191666Y-11231619D01*
X214858333Y-11136380D02*
X214191666Y-11136380D01*
X214620238Y-12136380D01*
X225351666Y564857D02*
X225399285Y517238D01*
X225542142Y469619D01*
X225637380Y469619D01*
X225780238Y517238D01*
X225875476Y612476D01*
X225923095Y707714D01*
X225970714Y898190D01*
X225970714Y1041047D01*
X225923095Y1231523D01*
X225875476Y1326761D01*
X225780238Y1422000D01*
X225637380Y1469619D01*
X225542142Y1469619D01*
X225399285Y1422000D01*
X225351666Y1374380D01*
X224494523Y1469619D02*
X224685000Y1469619D01*
X224780238Y1422000D01*
X224827857Y1374380D01*
X224923095Y1231523D01*
X224970714Y1041047D01*
X224970714Y660095D01*
X224923095Y564857D01*
X224875476Y517238D01*
X224780238Y469619D01*
X224589761Y469619D01*
X224494523Y517238D01*
X224446904Y564857D01*
X224399285Y660095D01*
X224399285Y898190D01*
X224446904Y993428D01*
X224494523Y1041047D01*
X224589761Y1088666D01*
X224780238Y1088666D01*
X224875476Y1041047D01*
X224923095Y993428D01*
X224970714Y898190D01*
X210509142Y-3135333D02*
X210556761Y-3087714D01*
X210604380Y-2944857D01*
X210604380Y-2849619D01*
X210556761Y-2706761D01*
X210461523Y-2611523D01*
X210366285Y-2563904D01*
X210175809Y-2516285D01*
X210032952Y-2516285D01*
X209842476Y-2563904D01*
X209747238Y-2611523D01*
X209652000Y-2706761D01*
X209604380Y-2849619D01*
X209604380Y-2944857D01*
X209652000Y-3087714D01*
X209699619Y-3135333D01*
X209604380Y-4040095D02*
X209604380Y-3563904D01*
X210080571Y-3516285D01*
X210032952Y-3563904D01*
X209985333Y-3659142D01*
X209985333Y-3897238D01*
X210032952Y-3992476D01*
X210080571Y-4040095D01*
X210175809Y-4087714D01*
X210413904Y-4087714D01*
X210509142Y-4040095D01*
X210556761Y-3992476D01*
X210604380Y-3897238D01*
X210604380Y-3659142D01*
X210556761Y-3563904D01*
X210509142Y-3516285D01*
X220638666Y-2897142D02*
X220686285Y-2944761D01*
X220829142Y-2992380D01*
X220924380Y-2992380D01*
X221067238Y-2944761D01*
X221162476Y-2849523D01*
X221210095Y-2754285D01*
X221257714Y-2563809D01*
X221257714Y-2420952D01*
X221210095Y-2230476D01*
X221162476Y-2135238D01*
X221067238Y-2040000D01*
X220924380Y-1992380D01*
X220829142Y-1992380D01*
X220686285Y-2040000D01*
X220638666Y-2087619D01*
X219781523Y-2325714D02*
X219781523Y-2992380D01*
X220019619Y-1944761D02*
X220257714Y-2659047D01*
X219638666Y-2659047D01*
X226671142Y-8723333D02*
X226718761Y-8675714D01*
X226766380Y-8532857D01*
X226766380Y-8437619D01*
X226718761Y-8294761D01*
X226623523Y-8199523D01*
X226528285Y-8151904D01*
X226337809Y-8104285D01*
X226194952Y-8104285D01*
X226004476Y-8151904D01*
X225909238Y-8199523D01*
X225814000Y-8294761D01*
X225766380Y-8437619D01*
X225766380Y-8532857D01*
X225814000Y-8675714D01*
X225861619Y-8723333D01*
X225766380Y-9056666D02*
X225766380Y-9675714D01*
X226147333Y-9342380D01*
X226147333Y-9485238D01*
X226194952Y-9580476D01*
X226242571Y-9628095D01*
X226337809Y-9675714D01*
X226575904Y-9675714D01*
X226671142Y-9628095D01*
X226718761Y-9580476D01*
X226766380Y-9485238D01*
X226766380Y-9199523D01*
X226718761Y-9104285D01*
X226671142Y-9056666D01*
X179956149Y-16875552D02*
X179956149Y-16942895D01*
X180023493Y-17077582D01*
X180090837Y-17144926D01*
X180225524Y-17212269D01*
X180360211Y-17212269D01*
X180461226Y-17178598D01*
X180629585Y-17077582D01*
X180730600Y-16976567D01*
X180831615Y-16808208D01*
X180865287Y-16707193D01*
X180865287Y-16572506D01*
X180797943Y-16437819D01*
X180730600Y-16370475D01*
X180595913Y-16303132D01*
X180528569Y-16303132D01*
X180259195Y-16033758D02*
X180259195Y-15966414D01*
X180225524Y-15865399D01*
X180057165Y-15697040D01*
X179956149Y-15663369D01*
X179888806Y-15663369D01*
X179787791Y-15697040D01*
X179720447Y-15764384D01*
X179653104Y-15899071D01*
X179653104Y-16707193D01*
X179215371Y-16269460D01*
X214060518Y-26064459D02*
X214155756Y-26016840D01*
X214250994Y-25921601D01*
X214393851Y-25778744D01*
X214489089Y-25731125D01*
X214584327Y-25731125D01*
X214536708Y-25969220D02*
X214631946Y-25921601D01*
X214727184Y-25826363D01*
X214774803Y-25635887D01*
X214774803Y-25302554D01*
X214727184Y-25112078D01*
X214631946Y-25016840D01*
X214536708Y-24969220D01*
X214346232Y-24969220D01*
X214250994Y-25016840D01*
X214155756Y-25112078D01*
X214108137Y-25302554D01*
X214108137Y-25635887D01*
X214155756Y-25826363D01*
X214250994Y-25921601D01*
X214346232Y-25969220D01*
X214536708Y-25969220D01*
X213727184Y-25064459D02*
X213679565Y-25016840D01*
X213584327Y-24969220D01*
X213346232Y-24969220D01*
X213250994Y-25016840D01*
X213203375Y-25064459D01*
X213155756Y-25159697D01*
X213155756Y-25254935D01*
X213203375Y-25397792D01*
X213774803Y-25969220D01*
X213155756Y-25969220D01*
X205643666Y-25344380D02*
X205977000Y-24868190D01*
X206215095Y-25344380D02*
X206215095Y-24344380D01*
X205834142Y-24344380D01*
X205738904Y-24392000D01*
X205691285Y-24439619D01*
X205643666Y-24534857D01*
X205643666Y-24677714D01*
X205691285Y-24772952D01*
X205738904Y-24820571D01*
X205834142Y-24868190D01*
X206215095Y-24868190D01*
X205310333Y-24344380D02*
X204691285Y-24344380D01*
X205024619Y-24725333D01*
X204881761Y-24725333D01*
X204786523Y-24772952D01*
X204738904Y-24820571D01*
X204691285Y-24915809D01*
X204691285Y-25153904D01*
X204738904Y-25249142D01*
X204786523Y-25296761D01*
X204881761Y-25344380D01*
X205167476Y-25344380D01*
X205262714Y-25296761D01*
X205310333Y-25249142D01*
X210478666Y-16708380D02*
X210812000Y-16232190D01*
X211050095Y-16708380D02*
X211050095Y-15708380D01*
X210669142Y-15708380D01*
X210573904Y-15756000D01*
X210526285Y-15803619D01*
X210478666Y-15898857D01*
X210478666Y-16041714D01*
X210526285Y-16136952D01*
X210573904Y-16184571D01*
X210669142Y-16232190D01*
X211050095Y-16232190D01*
X210097714Y-15803619D02*
X210050095Y-15756000D01*
X209954857Y-15708380D01*
X209716761Y-15708380D01*
X209621523Y-15756000D01*
X209573904Y-15803619D01*
X209526285Y-15898857D01*
X209526285Y-15994095D01*
X209573904Y-16136952D01*
X210145333Y-16708380D01*
X209526285Y-16708380D01*
X219157538Y-17311619D02*
X219252776Y-17264000D01*
X219348014Y-17168761D01*
X219490871Y-17025904D01*
X219586109Y-16978285D01*
X219681347Y-16978285D01*
X219633728Y-17216380D02*
X219728966Y-17168761D01*
X219824204Y-17073523D01*
X219871823Y-16883047D01*
X219871823Y-16549714D01*
X219824204Y-16359238D01*
X219728966Y-16264000D01*
X219633728Y-16216380D01*
X219443252Y-16216380D01*
X219348014Y-16264000D01*
X219252776Y-16359238D01*
X219205157Y-16549714D01*
X219205157Y-16883047D01*
X219252776Y-17073523D01*
X219348014Y-17168761D01*
X219443252Y-17216380D01*
X219633728Y-17216380D01*
X218252776Y-17216380D02*
X218824204Y-17216380D01*
X218538490Y-17216380D02*
X218538490Y-16216380D01*
X218633728Y-16359238D01*
X218728966Y-16454476D01*
X218824204Y-16502095D01*
M02*
