G04 #@! TF.GenerationSoftware,KiCad,Pcbnew,(5.1.5-0-10_14)*
G04 #@! TF.CreationDate,2020-06-17T19:17:12-04:00*
G04 #@! TF.ProjectId,ledspy,6c656473-7079-42e6-9b69-6361645f7063,rev?*
G04 #@! TF.SameCoordinates,Original*
G04 #@! TF.FileFunction,Copper,L2,Bot*
G04 #@! TF.FilePolarity,Positive*
%FSLAX46Y46*%
G04 Gerber Fmt 4.6, Leading zero omitted, Abs format (unit mm)*
G04 Created by KiCad (PCBNEW (5.1.5-0-10_14)) date 2020-06-17 19:17:12*
%MOMM*%
%LPD*%
G04 APERTURE LIST*
%ADD10O,1.727200X1.727200*%
%ADD11R,2.000000X5.350000*%
%ADD12C,6.400000*%
%ADD13C,0.100000*%
%ADD14O,1.750000X1.200000*%
%ADD15O,1.700000X1.700000*%
%ADD16R,1.700000X1.700000*%
%ADD17C,1.700000*%
%ADD18C,0.800000*%
%ADD19C,0.250000*%
%ADD20C,1.500000*%
G04 APERTURE END LIST*
D10*
X127000000Y-109220000D03*
X124460000Y-109220000D03*
X127000000Y-106680000D03*
X124460000Y-106680000D03*
X127000000Y-104140000D03*
X124460000Y-104140000D03*
X127000000Y-101600000D03*
X124460000Y-101600000D03*
X127000000Y-99060000D03*
X124460000Y-99060000D03*
X127000000Y-96520000D03*
X124460000Y-96520000D03*
X127000000Y-93980000D03*
X124460000Y-93980000D03*
X127000000Y-91440000D03*
X124460000Y-91440000D03*
X127000000Y-88900000D03*
X124460000Y-88900000D03*
X127000000Y-86360000D03*
X124460000Y-86360000D03*
X127000000Y-83820000D03*
X124460000Y-83820000D03*
X127000000Y-81280000D03*
X124460000Y-81280000D03*
X127000000Y-78740000D03*
X124460000Y-78740000D03*
X127000000Y-76200000D03*
X124460000Y-76200000D03*
X127000000Y-73660000D03*
X124460000Y-73660000D03*
X127000000Y-71120000D03*
X124460000Y-71120000D03*
X127000000Y-68580000D03*
X124460000Y-68580000D03*
X127000000Y-66040000D03*
X124460000Y-66040000D03*
X58420000Y-114300000D03*
X64516000Y-66040000D03*
X61976000Y-66040000D03*
X59436000Y-66040000D03*
X54356000Y-66040000D03*
X67056000Y-66040000D03*
X69596000Y-66040000D03*
X72136000Y-66040000D03*
X56896000Y-66040000D03*
X76200000Y-66040000D03*
X78740000Y-66040000D03*
X81280000Y-66040000D03*
X83820000Y-66040000D03*
X86360000Y-66040000D03*
X88900000Y-66040000D03*
X91440000Y-66040000D03*
X93980000Y-66040000D03*
X60960000Y-114300000D03*
X63500000Y-114300000D03*
X66040000Y-114300000D03*
X68580000Y-114300000D03*
X71120000Y-114300000D03*
X73660000Y-114300000D03*
X76200000Y-114300000D03*
D11*
X147574000Y-81803000D03*
X147574000Y-74153000D03*
D12*
X62276000Y-60540000D03*
X62276000Y-119800000D03*
X105456000Y-119800000D03*
X105456000Y-60540000D03*
G04 #@! TA.AperFunction,SMDPad,CuDef*
D13*
G36*
X137302703Y-73741722D02*
G01*
X137317264Y-73743882D01*
X137331543Y-73747459D01*
X137345403Y-73752418D01*
X137358710Y-73758712D01*
X137371336Y-73766280D01*
X137383159Y-73775048D01*
X137394066Y-73784934D01*
X137403952Y-73795841D01*
X137412720Y-73807664D01*
X137420288Y-73820290D01*
X137426582Y-73833597D01*
X137431541Y-73847457D01*
X137435118Y-73861736D01*
X137437278Y-73876297D01*
X137438000Y-73891000D01*
X137438000Y-74191000D01*
X137437278Y-74205703D01*
X137435118Y-74220264D01*
X137431541Y-74234543D01*
X137426582Y-74248403D01*
X137420288Y-74261710D01*
X137412720Y-74274336D01*
X137403952Y-74286159D01*
X137394066Y-74297066D01*
X137383159Y-74306952D01*
X137371336Y-74315720D01*
X137358710Y-74323288D01*
X137345403Y-74329582D01*
X137331543Y-74334541D01*
X137317264Y-74338118D01*
X137302703Y-74340278D01*
X137288000Y-74341000D01*
X135638000Y-74341000D01*
X135623297Y-74340278D01*
X135608736Y-74338118D01*
X135594457Y-74334541D01*
X135580597Y-74329582D01*
X135567290Y-74323288D01*
X135554664Y-74315720D01*
X135542841Y-74306952D01*
X135531934Y-74297066D01*
X135522048Y-74286159D01*
X135513280Y-74274336D01*
X135505712Y-74261710D01*
X135499418Y-74248403D01*
X135494459Y-74234543D01*
X135490882Y-74220264D01*
X135488722Y-74205703D01*
X135488000Y-74191000D01*
X135488000Y-73891000D01*
X135488722Y-73876297D01*
X135490882Y-73861736D01*
X135494459Y-73847457D01*
X135499418Y-73833597D01*
X135505712Y-73820290D01*
X135513280Y-73807664D01*
X135522048Y-73795841D01*
X135531934Y-73784934D01*
X135542841Y-73775048D01*
X135554664Y-73766280D01*
X135567290Y-73758712D01*
X135580597Y-73752418D01*
X135594457Y-73747459D01*
X135608736Y-73743882D01*
X135623297Y-73741722D01*
X135638000Y-73741000D01*
X137288000Y-73741000D01*
X137302703Y-73741722D01*
G37*
G04 #@! TD.AperFunction*
G04 #@! TA.AperFunction,SMDPad,CuDef*
G36*
X137302703Y-75011722D02*
G01*
X137317264Y-75013882D01*
X137331543Y-75017459D01*
X137345403Y-75022418D01*
X137358710Y-75028712D01*
X137371336Y-75036280D01*
X137383159Y-75045048D01*
X137394066Y-75054934D01*
X137403952Y-75065841D01*
X137412720Y-75077664D01*
X137420288Y-75090290D01*
X137426582Y-75103597D01*
X137431541Y-75117457D01*
X137435118Y-75131736D01*
X137437278Y-75146297D01*
X137438000Y-75161000D01*
X137438000Y-75461000D01*
X137437278Y-75475703D01*
X137435118Y-75490264D01*
X137431541Y-75504543D01*
X137426582Y-75518403D01*
X137420288Y-75531710D01*
X137412720Y-75544336D01*
X137403952Y-75556159D01*
X137394066Y-75567066D01*
X137383159Y-75576952D01*
X137371336Y-75585720D01*
X137358710Y-75593288D01*
X137345403Y-75599582D01*
X137331543Y-75604541D01*
X137317264Y-75608118D01*
X137302703Y-75610278D01*
X137288000Y-75611000D01*
X135638000Y-75611000D01*
X135623297Y-75610278D01*
X135608736Y-75608118D01*
X135594457Y-75604541D01*
X135580597Y-75599582D01*
X135567290Y-75593288D01*
X135554664Y-75585720D01*
X135542841Y-75576952D01*
X135531934Y-75567066D01*
X135522048Y-75556159D01*
X135513280Y-75544336D01*
X135505712Y-75531710D01*
X135499418Y-75518403D01*
X135494459Y-75504543D01*
X135490882Y-75490264D01*
X135488722Y-75475703D01*
X135488000Y-75461000D01*
X135488000Y-75161000D01*
X135488722Y-75146297D01*
X135490882Y-75131736D01*
X135494459Y-75117457D01*
X135499418Y-75103597D01*
X135505712Y-75090290D01*
X135513280Y-75077664D01*
X135522048Y-75065841D01*
X135531934Y-75054934D01*
X135542841Y-75045048D01*
X135554664Y-75036280D01*
X135567290Y-75028712D01*
X135580597Y-75022418D01*
X135594457Y-75017459D01*
X135608736Y-75013882D01*
X135623297Y-75011722D01*
X135638000Y-75011000D01*
X137288000Y-75011000D01*
X137302703Y-75011722D01*
G37*
G04 #@! TD.AperFunction*
G04 #@! TA.AperFunction,SMDPad,CuDef*
G36*
X137302703Y-76281722D02*
G01*
X137317264Y-76283882D01*
X137331543Y-76287459D01*
X137345403Y-76292418D01*
X137358710Y-76298712D01*
X137371336Y-76306280D01*
X137383159Y-76315048D01*
X137394066Y-76324934D01*
X137403952Y-76335841D01*
X137412720Y-76347664D01*
X137420288Y-76360290D01*
X137426582Y-76373597D01*
X137431541Y-76387457D01*
X137435118Y-76401736D01*
X137437278Y-76416297D01*
X137438000Y-76431000D01*
X137438000Y-76731000D01*
X137437278Y-76745703D01*
X137435118Y-76760264D01*
X137431541Y-76774543D01*
X137426582Y-76788403D01*
X137420288Y-76801710D01*
X137412720Y-76814336D01*
X137403952Y-76826159D01*
X137394066Y-76837066D01*
X137383159Y-76846952D01*
X137371336Y-76855720D01*
X137358710Y-76863288D01*
X137345403Y-76869582D01*
X137331543Y-76874541D01*
X137317264Y-76878118D01*
X137302703Y-76880278D01*
X137288000Y-76881000D01*
X135638000Y-76881000D01*
X135623297Y-76880278D01*
X135608736Y-76878118D01*
X135594457Y-76874541D01*
X135580597Y-76869582D01*
X135567290Y-76863288D01*
X135554664Y-76855720D01*
X135542841Y-76846952D01*
X135531934Y-76837066D01*
X135522048Y-76826159D01*
X135513280Y-76814336D01*
X135505712Y-76801710D01*
X135499418Y-76788403D01*
X135494459Y-76774543D01*
X135490882Y-76760264D01*
X135488722Y-76745703D01*
X135488000Y-76731000D01*
X135488000Y-76431000D01*
X135488722Y-76416297D01*
X135490882Y-76401736D01*
X135494459Y-76387457D01*
X135499418Y-76373597D01*
X135505712Y-76360290D01*
X135513280Y-76347664D01*
X135522048Y-76335841D01*
X135531934Y-76324934D01*
X135542841Y-76315048D01*
X135554664Y-76306280D01*
X135567290Y-76298712D01*
X135580597Y-76292418D01*
X135594457Y-76287459D01*
X135608736Y-76283882D01*
X135623297Y-76281722D01*
X135638000Y-76281000D01*
X137288000Y-76281000D01*
X137302703Y-76281722D01*
G37*
G04 #@! TD.AperFunction*
G04 #@! TA.AperFunction,SMDPad,CuDef*
G36*
X137302703Y-77551722D02*
G01*
X137317264Y-77553882D01*
X137331543Y-77557459D01*
X137345403Y-77562418D01*
X137358710Y-77568712D01*
X137371336Y-77576280D01*
X137383159Y-77585048D01*
X137394066Y-77594934D01*
X137403952Y-77605841D01*
X137412720Y-77617664D01*
X137420288Y-77630290D01*
X137426582Y-77643597D01*
X137431541Y-77657457D01*
X137435118Y-77671736D01*
X137437278Y-77686297D01*
X137438000Y-77701000D01*
X137438000Y-78001000D01*
X137437278Y-78015703D01*
X137435118Y-78030264D01*
X137431541Y-78044543D01*
X137426582Y-78058403D01*
X137420288Y-78071710D01*
X137412720Y-78084336D01*
X137403952Y-78096159D01*
X137394066Y-78107066D01*
X137383159Y-78116952D01*
X137371336Y-78125720D01*
X137358710Y-78133288D01*
X137345403Y-78139582D01*
X137331543Y-78144541D01*
X137317264Y-78148118D01*
X137302703Y-78150278D01*
X137288000Y-78151000D01*
X135638000Y-78151000D01*
X135623297Y-78150278D01*
X135608736Y-78148118D01*
X135594457Y-78144541D01*
X135580597Y-78139582D01*
X135567290Y-78133288D01*
X135554664Y-78125720D01*
X135542841Y-78116952D01*
X135531934Y-78107066D01*
X135522048Y-78096159D01*
X135513280Y-78084336D01*
X135505712Y-78071710D01*
X135499418Y-78058403D01*
X135494459Y-78044543D01*
X135490882Y-78030264D01*
X135488722Y-78015703D01*
X135488000Y-78001000D01*
X135488000Y-77701000D01*
X135488722Y-77686297D01*
X135490882Y-77671736D01*
X135494459Y-77657457D01*
X135499418Y-77643597D01*
X135505712Y-77630290D01*
X135513280Y-77617664D01*
X135522048Y-77605841D01*
X135531934Y-77594934D01*
X135542841Y-77585048D01*
X135554664Y-77576280D01*
X135567290Y-77568712D01*
X135580597Y-77562418D01*
X135594457Y-77557459D01*
X135608736Y-77553882D01*
X135623297Y-77551722D01*
X135638000Y-77551000D01*
X137288000Y-77551000D01*
X137302703Y-77551722D01*
G37*
G04 #@! TD.AperFunction*
G04 #@! TA.AperFunction,SMDPad,CuDef*
G36*
X137302703Y-78821722D02*
G01*
X137317264Y-78823882D01*
X137331543Y-78827459D01*
X137345403Y-78832418D01*
X137358710Y-78838712D01*
X137371336Y-78846280D01*
X137383159Y-78855048D01*
X137394066Y-78864934D01*
X137403952Y-78875841D01*
X137412720Y-78887664D01*
X137420288Y-78900290D01*
X137426582Y-78913597D01*
X137431541Y-78927457D01*
X137435118Y-78941736D01*
X137437278Y-78956297D01*
X137438000Y-78971000D01*
X137438000Y-79271000D01*
X137437278Y-79285703D01*
X137435118Y-79300264D01*
X137431541Y-79314543D01*
X137426582Y-79328403D01*
X137420288Y-79341710D01*
X137412720Y-79354336D01*
X137403952Y-79366159D01*
X137394066Y-79377066D01*
X137383159Y-79386952D01*
X137371336Y-79395720D01*
X137358710Y-79403288D01*
X137345403Y-79409582D01*
X137331543Y-79414541D01*
X137317264Y-79418118D01*
X137302703Y-79420278D01*
X137288000Y-79421000D01*
X135638000Y-79421000D01*
X135623297Y-79420278D01*
X135608736Y-79418118D01*
X135594457Y-79414541D01*
X135580597Y-79409582D01*
X135567290Y-79403288D01*
X135554664Y-79395720D01*
X135542841Y-79386952D01*
X135531934Y-79377066D01*
X135522048Y-79366159D01*
X135513280Y-79354336D01*
X135505712Y-79341710D01*
X135499418Y-79328403D01*
X135494459Y-79314543D01*
X135490882Y-79300264D01*
X135488722Y-79285703D01*
X135488000Y-79271000D01*
X135488000Y-78971000D01*
X135488722Y-78956297D01*
X135490882Y-78941736D01*
X135494459Y-78927457D01*
X135499418Y-78913597D01*
X135505712Y-78900290D01*
X135513280Y-78887664D01*
X135522048Y-78875841D01*
X135531934Y-78864934D01*
X135542841Y-78855048D01*
X135554664Y-78846280D01*
X135567290Y-78838712D01*
X135580597Y-78832418D01*
X135594457Y-78827459D01*
X135608736Y-78823882D01*
X135623297Y-78821722D01*
X135638000Y-78821000D01*
X137288000Y-78821000D01*
X137302703Y-78821722D01*
G37*
G04 #@! TD.AperFunction*
G04 #@! TA.AperFunction,SMDPad,CuDef*
G36*
X137302703Y-80091722D02*
G01*
X137317264Y-80093882D01*
X137331543Y-80097459D01*
X137345403Y-80102418D01*
X137358710Y-80108712D01*
X137371336Y-80116280D01*
X137383159Y-80125048D01*
X137394066Y-80134934D01*
X137403952Y-80145841D01*
X137412720Y-80157664D01*
X137420288Y-80170290D01*
X137426582Y-80183597D01*
X137431541Y-80197457D01*
X137435118Y-80211736D01*
X137437278Y-80226297D01*
X137438000Y-80241000D01*
X137438000Y-80541000D01*
X137437278Y-80555703D01*
X137435118Y-80570264D01*
X137431541Y-80584543D01*
X137426582Y-80598403D01*
X137420288Y-80611710D01*
X137412720Y-80624336D01*
X137403952Y-80636159D01*
X137394066Y-80647066D01*
X137383159Y-80656952D01*
X137371336Y-80665720D01*
X137358710Y-80673288D01*
X137345403Y-80679582D01*
X137331543Y-80684541D01*
X137317264Y-80688118D01*
X137302703Y-80690278D01*
X137288000Y-80691000D01*
X135638000Y-80691000D01*
X135623297Y-80690278D01*
X135608736Y-80688118D01*
X135594457Y-80684541D01*
X135580597Y-80679582D01*
X135567290Y-80673288D01*
X135554664Y-80665720D01*
X135542841Y-80656952D01*
X135531934Y-80647066D01*
X135522048Y-80636159D01*
X135513280Y-80624336D01*
X135505712Y-80611710D01*
X135499418Y-80598403D01*
X135494459Y-80584543D01*
X135490882Y-80570264D01*
X135488722Y-80555703D01*
X135488000Y-80541000D01*
X135488000Y-80241000D01*
X135488722Y-80226297D01*
X135490882Y-80211736D01*
X135494459Y-80197457D01*
X135499418Y-80183597D01*
X135505712Y-80170290D01*
X135513280Y-80157664D01*
X135522048Y-80145841D01*
X135531934Y-80134934D01*
X135542841Y-80125048D01*
X135554664Y-80116280D01*
X135567290Y-80108712D01*
X135580597Y-80102418D01*
X135594457Y-80097459D01*
X135608736Y-80093882D01*
X135623297Y-80091722D01*
X135638000Y-80091000D01*
X137288000Y-80091000D01*
X137302703Y-80091722D01*
G37*
G04 #@! TD.AperFunction*
G04 #@! TA.AperFunction,SMDPad,CuDef*
G36*
X137302703Y-81361722D02*
G01*
X137317264Y-81363882D01*
X137331543Y-81367459D01*
X137345403Y-81372418D01*
X137358710Y-81378712D01*
X137371336Y-81386280D01*
X137383159Y-81395048D01*
X137394066Y-81404934D01*
X137403952Y-81415841D01*
X137412720Y-81427664D01*
X137420288Y-81440290D01*
X137426582Y-81453597D01*
X137431541Y-81467457D01*
X137435118Y-81481736D01*
X137437278Y-81496297D01*
X137438000Y-81511000D01*
X137438000Y-81811000D01*
X137437278Y-81825703D01*
X137435118Y-81840264D01*
X137431541Y-81854543D01*
X137426582Y-81868403D01*
X137420288Y-81881710D01*
X137412720Y-81894336D01*
X137403952Y-81906159D01*
X137394066Y-81917066D01*
X137383159Y-81926952D01*
X137371336Y-81935720D01*
X137358710Y-81943288D01*
X137345403Y-81949582D01*
X137331543Y-81954541D01*
X137317264Y-81958118D01*
X137302703Y-81960278D01*
X137288000Y-81961000D01*
X135638000Y-81961000D01*
X135623297Y-81960278D01*
X135608736Y-81958118D01*
X135594457Y-81954541D01*
X135580597Y-81949582D01*
X135567290Y-81943288D01*
X135554664Y-81935720D01*
X135542841Y-81926952D01*
X135531934Y-81917066D01*
X135522048Y-81906159D01*
X135513280Y-81894336D01*
X135505712Y-81881710D01*
X135499418Y-81868403D01*
X135494459Y-81854543D01*
X135490882Y-81840264D01*
X135488722Y-81825703D01*
X135488000Y-81811000D01*
X135488000Y-81511000D01*
X135488722Y-81496297D01*
X135490882Y-81481736D01*
X135494459Y-81467457D01*
X135499418Y-81453597D01*
X135505712Y-81440290D01*
X135513280Y-81427664D01*
X135522048Y-81415841D01*
X135531934Y-81404934D01*
X135542841Y-81395048D01*
X135554664Y-81386280D01*
X135567290Y-81378712D01*
X135580597Y-81372418D01*
X135594457Y-81367459D01*
X135608736Y-81363882D01*
X135623297Y-81361722D01*
X135638000Y-81361000D01*
X137288000Y-81361000D01*
X137302703Y-81361722D01*
G37*
G04 #@! TD.AperFunction*
G04 #@! TA.AperFunction,SMDPad,CuDef*
G36*
X137302703Y-82631722D02*
G01*
X137317264Y-82633882D01*
X137331543Y-82637459D01*
X137345403Y-82642418D01*
X137358710Y-82648712D01*
X137371336Y-82656280D01*
X137383159Y-82665048D01*
X137394066Y-82674934D01*
X137403952Y-82685841D01*
X137412720Y-82697664D01*
X137420288Y-82710290D01*
X137426582Y-82723597D01*
X137431541Y-82737457D01*
X137435118Y-82751736D01*
X137437278Y-82766297D01*
X137438000Y-82781000D01*
X137438000Y-83081000D01*
X137437278Y-83095703D01*
X137435118Y-83110264D01*
X137431541Y-83124543D01*
X137426582Y-83138403D01*
X137420288Y-83151710D01*
X137412720Y-83164336D01*
X137403952Y-83176159D01*
X137394066Y-83187066D01*
X137383159Y-83196952D01*
X137371336Y-83205720D01*
X137358710Y-83213288D01*
X137345403Y-83219582D01*
X137331543Y-83224541D01*
X137317264Y-83228118D01*
X137302703Y-83230278D01*
X137288000Y-83231000D01*
X135638000Y-83231000D01*
X135623297Y-83230278D01*
X135608736Y-83228118D01*
X135594457Y-83224541D01*
X135580597Y-83219582D01*
X135567290Y-83213288D01*
X135554664Y-83205720D01*
X135542841Y-83196952D01*
X135531934Y-83187066D01*
X135522048Y-83176159D01*
X135513280Y-83164336D01*
X135505712Y-83151710D01*
X135499418Y-83138403D01*
X135494459Y-83124543D01*
X135490882Y-83110264D01*
X135488722Y-83095703D01*
X135488000Y-83081000D01*
X135488000Y-82781000D01*
X135488722Y-82766297D01*
X135490882Y-82751736D01*
X135494459Y-82737457D01*
X135499418Y-82723597D01*
X135505712Y-82710290D01*
X135513280Y-82697664D01*
X135522048Y-82685841D01*
X135531934Y-82674934D01*
X135542841Y-82665048D01*
X135554664Y-82656280D01*
X135567290Y-82648712D01*
X135580597Y-82642418D01*
X135594457Y-82637459D01*
X135608736Y-82633882D01*
X135623297Y-82631722D01*
X135638000Y-82631000D01*
X137288000Y-82631000D01*
X137302703Y-82631722D01*
G37*
G04 #@! TD.AperFunction*
G04 #@! TA.AperFunction,SMDPad,CuDef*
G36*
X142252703Y-82631722D02*
G01*
X142267264Y-82633882D01*
X142281543Y-82637459D01*
X142295403Y-82642418D01*
X142308710Y-82648712D01*
X142321336Y-82656280D01*
X142333159Y-82665048D01*
X142344066Y-82674934D01*
X142353952Y-82685841D01*
X142362720Y-82697664D01*
X142370288Y-82710290D01*
X142376582Y-82723597D01*
X142381541Y-82737457D01*
X142385118Y-82751736D01*
X142387278Y-82766297D01*
X142388000Y-82781000D01*
X142388000Y-83081000D01*
X142387278Y-83095703D01*
X142385118Y-83110264D01*
X142381541Y-83124543D01*
X142376582Y-83138403D01*
X142370288Y-83151710D01*
X142362720Y-83164336D01*
X142353952Y-83176159D01*
X142344066Y-83187066D01*
X142333159Y-83196952D01*
X142321336Y-83205720D01*
X142308710Y-83213288D01*
X142295403Y-83219582D01*
X142281543Y-83224541D01*
X142267264Y-83228118D01*
X142252703Y-83230278D01*
X142238000Y-83231000D01*
X140588000Y-83231000D01*
X140573297Y-83230278D01*
X140558736Y-83228118D01*
X140544457Y-83224541D01*
X140530597Y-83219582D01*
X140517290Y-83213288D01*
X140504664Y-83205720D01*
X140492841Y-83196952D01*
X140481934Y-83187066D01*
X140472048Y-83176159D01*
X140463280Y-83164336D01*
X140455712Y-83151710D01*
X140449418Y-83138403D01*
X140444459Y-83124543D01*
X140440882Y-83110264D01*
X140438722Y-83095703D01*
X140438000Y-83081000D01*
X140438000Y-82781000D01*
X140438722Y-82766297D01*
X140440882Y-82751736D01*
X140444459Y-82737457D01*
X140449418Y-82723597D01*
X140455712Y-82710290D01*
X140463280Y-82697664D01*
X140472048Y-82685841D01*
X140481934Y-82674934D01*
X140492841Y-82665048D01*
X140504664Y-82656280D01*
X140517290Y-82648712D01*
X140530597Y-82642418D01*
X140544457Y-82637459D01*
X140558736Y-82633882D01*
X140573297Y-82631722D01*
X140588000Y-82631000D01*
X142238000Y-82631000D01*
X142252703Y-82631722D01*
G37*
G04 #@! TD.AperFunction*
G04 #@! TA.AperFunction,SMDPad,CuDef*
G36*
X142252703Y-81361722D02*
G01*
X142267264Y-81363882D01*
X142281543Y-81367459D01*
X142295403Y-81372418D01*
X142308710Y-81378712D01*
X142321336Y-81386280D01*
X142333159Y-81395048D01*
X142344066Y-81404934D01*
X142353952Y-81415841D01*
X142362720Y-81427664D01*
X142370288Y-81440290D01*
X142376582Y-81453597D01*
X142381541Y-81467457D01*
X142385118Y-81481736D01*
X142387278Y-81496297D01*
X142388000Y-81511000D01*
X142388000Y-81811000D01*
X142387278Y-81825703D01*
X142385118Y-81840264D01*
X142381541Y-81854543D01*
X142376582Y-81868403D01*
X142370288Y-81881710D01*
X142362720Y-81894336D01*
X142353952Y-81906159D01*
X142344066Y-81917066D01*
X142333159Y-81926952D01*
X142321336Y-81935720D01*
X142308710Y-81943288D01*
X142295403Y-81949582D01*
X142281543Y-81954541D01*
X142267264Y-81958118D01*
X142252703Y-81960278D01*
X142238000Y-81961000D01*
X140588000Y-81961000D01*
X140573297Y-81960278D01*
X140558736Y-81958118D01*
X140544457Y-81954541D01*
X140530597Y-81949582D01*
X140517290Y-81943288D01*
X140504664Y-81935720D01*
X140492841Y-81926952D01*
X140481934Y-81917066D01*
X140472048Y-81906159D01*
X140463280Y-81894336D01*
X140455712Y-81881710D01*
X140449418Y-81868403D01*
X140444459Y-81854543D01*
X140440882Y-81840264D01*
X140438722Y-81825703D01*
X140438000Y-81811000D01*
X140438000Y-81511000D01*
X140438722Y-81496297D01*
X140440882Y-81481736D01*
X140444459Y-81467457D01*
X140449418Y-81453597D01*
X140455712Y-81440290D01*
X140463280Y-81427664D01*
X140472048Y-81415841D01*
X140481934Y-81404934D01*
X140492841Y-81395048D01*
X140504664Y-81386280D01*
X140517290Y-81378712D01*
X140530597Y-81372418D01*
X140544457Y-81367459D01*
X140558736Y-81363882D01*
X140573297Y-81361722D01*
X140588000Y-81361000D01*
X142238000Y-81361000D01*
X142252703Y-81361722D01*
G37*
G04 #@! TD.AperFunction*
G04 #@! TA.AperFunction,SMDPad,CuDef*
G36*
X142252703Y-80091722D02*
G01*
X142267264Y-80093882D01*
X142281543Y-80097459D01*
X142295403Y-80102418D01*
X142308710Y-80108712D01*
X142321336Y-80116280D01*
X142333159Y-80125048D01*
X142344066Y-80134934D01*
X142353952Y-80145841D01*
X142362720Y-80157664D01*
X142370288Y-80170290D01*
X142376582Y-80183597D01*
X142381541Y-80197457D01*
X142385118Y-80211736D01*
X142387278Y-80226297D01*
X142388000Y-80241000D01*
X142388000Y-80541000D01*
X142387278Y-80555703D01*
X142385118Y-80570264D01*
X142381541Y-80584543D01*
X142376582Y-80598403D01*
X142370288Y-80611710D01*
X142362720Y-80624336D01*
X142353952Y-80636159D01*
X142344066Y-80647066D01*
X142333159Y-80656952D01*
X142321336Y-80665720D01*
X142308710Y-80673288D01*
X142295403Y-80679582D01*
X142281543Y-80684541D01*
X142267264Y-80688118D01*
X142252703Y-80690278D01*
X142238000Y-80691000D01*
X140588000Y-80691000D01*
X140573297Y-80690278D01*
X140558736Y-80688118D01*
X140544457Y-80684541D01*
X140530597Y-80679582D01*
X140517290Y-80673288D01*
X140504664Y-80665720D01*
X140492841Y-80656952D01*
X140481934Y-80647066D01*
X140472048Y-80636159D01*
X140463280Y-80624336D01*
X140455712Y-80611710D01*
X140449418Y-80598403D01*
X140444459Y-80584543D01*
X140440882Y-80570264D01*
X140438722Y-80555703D01*
X140438000Y-80541000D01*
X140438000Y-80241000D01*
X140438722Y-80226297D01*
X140440882Y-80211736D01*
X140444459Y-80197457D01*
X140449418Y-80183597D01*
X140455712Y-80170290D01*
X140463280Y-80157664D01*
X140472048Y-80145841D01*
X140481934Y-80134934D01*
X140492841Y-80125048D01*
X140504664Y-80116280D01*
X140517290Y-80108712D01*
X140530597Y-80102418D01*
X140544457Y-80097459D01*
X140558736Y-80093882D01*
X140573297Y-80091722D01*
X140588000Y-80091000D01*
X142238000Y-80091000D01*
X142252703Y-80091722D01*
G37*
G04 #@! TD.AperFunction*
G04 #@! TA.AperFunction,SMDPad,CuDef*
G36*
X142252703Y-78821722D02*
G01*
X142267264Y-78823882D01*
X142281543Y-78827459D01*
X142295403Y-78832418D01*
X142308710Y-78838712D01*
X142321336Y-78846280D01*
X142333159Y-78855048D01*
X142344066Y-78864934D01*
X142353952Y-78875841D01*
X142362720Y-78887664D01*
X142370288Y-78900290D01*
X142376582Y-78913597D01*
X142381541Y-78927457D01*
X142385118Y-78941736D01*
X142387278Y-78956297D01*
X142388000Y-78971000D01*
X142388000Y-79271000D01*
X142387278Y-79285703D01*
X142385118Y-79300264D01*
X142381541Y-79314543D01*
X142376582Y-79328403D01*
X142370288Y-79341710D01*
X142362720Y-79354336D01*
X142353952Y-79366159D01*
X142344066Y-79377066D01*
X142333159Y-79386952D01*
X142321336Y-79395720D01*
X142308710Y-79403288D01*
X142295403Y-79409582D01*
X142281543Y-79414541D01*
X142267264Y-79418118D01*
X142252703Y-79420278D01*
X142238000Y-79421000D01*
X140588000Y-79421000D01*
X140573297Y-79420278D01*
X140558736Y-79418118D01*
X140544457Y-79414541D01*
X140530597Y-79409582D01*
X140517290Y-79403288D01*
X140504664Y-79395720D01*
X140492841Y-79386952D01*
X140481934Y-79377066D01*
X140472048Y-79366159D01*
X140463280Y-79354336D01*
X140455712Y-79341710D01*
X140449418Y-79328403D01*
X140444459Y-79314543D01*
X140440882Y-79300264D01*
X140438722Y-79285703D01*
X140438000Y-79271000D01*
X140438000Y-78971000D01*
X140438722Y-78956297D01*
X140440882Y-78941736D01*
X140444459Y-78927457D01*
X140449418Y-78913597D01*
X140455712Y-78900290D01*
X140463280Y-78887664D01*
X140472048Y-78875841D01*
X140481934Y-78864934D01*
X140492841Y-78855048D01*
X140504664Y-78846280D01*
X140517290Y-78838712D01*
X140530597Y-78832418D01*
X140544457Y-78827459D01*
X140558736Y-78823882D01*
X140573297Y-78821722D01*
X140588000Y-78821000D01*
X142238000Y-78821000D01*
X142252703Y-78821722D01*
G37*
G04 #@! TD.AperFunction*
G04 #@! TA.AperFunction,SMDPad,CuDef*
G36*
X142252703Y-77551722D02*
G01*
X142267264Y-77553882D01*
X142281543Y-77557459D01*
X142295403Y-77562418D01*
X142308710Y-77568712D01*
X142321336Y-77576280D01*
X142333159Y-77585048D01*
X142344066Y-77594934D01*
X142353952Y-77605841D01*
X142362720Y-77617664D01*
X142370288Y-77630290D01*
X142376582Y-77643597D01*
X142381541Y-77657457D01*
X142385118Y-77671736D01*
X142387278Y-77686297D01*
X142388000Y-77701000D01*
X142388000Y-78001000D01*
X142387278Y-78015703D01*
X142385118Y-78030264D01*
X142381541Y-78044543D01*
X142376582Y-78058403D01*
X142370288Y-78071710D01*
X142362720Y-78084336D01*
X142353952Y-78096159D01*
X142344066Y-78107066D01*
X142333159Y-78116952D01*
X142321336Y-78125720D01*
X142308710Y-78133288D01*
X142295403Y-78139582D01*
X142281543Y-78144541D01*
X142267264Y-78148118D01*
X142252703Y-78150278D01*
X142238000Y-78151000D01*
X140588000Y-78151000D01*
X140573297Y-78150278D01*
X140558736Y-78148118D01*
X140544457Y-78144541D01*
X140530597Y-78139582D01*
X140517290Y-78133288D01*
X140504664Y-78125720D01*
X140492841Y-78116952D01*
X140481934Y-78107066D01*
X140472048Y-78096159D01*
X140463280Y-78084336D01*
X140455712Y-78071710D01*
X140449418Y-78058403D01*
X140444459Y-78044543D01*
X140440882Y-78030264D01*
X140438722Y-78015703D01*
X140438000Y-78001000D01*
X140438000Y-77701000D01*
X140438722Y-77686297D01*
X140440882Y-77671736D01*
X140444459Y-77657457D01*
X140449418Y-77643597D01*
X140455712Y-77630290D01*
X140463280Y-77617664D01*
X140472048Y-77605841D01*
X140481934Y-77594934D01*
X140492841Y-77585048D01*
X140504664Y-77576280D01*
X140517290Y-77568712D01*
X140530597Y-77562418D01*
X140544457Y-77557459D01*
X140558736Y-77553882D01*
X140573297Y-77551722D01*
X140588000Y-77551000D01*
X142238000Y-77551000D01*
X142252703Y-77551722D01*
G37*
G04 #@! TD.AperFunction*
G04 #@! TA.AperFunction,SMDPad,CuDef*
G36*
X142252703Y-76281722D02*
G01*
X142267264Y-76283882D01*
X142281543Y-76287459D01*
X142295403Y-76292418D01*
X142308710Y-76298712D01*
X142321336Y-76306280D01*
X142333159Y-76315048D01*
X142344066Y-76324934D01*
X142353952Y-76335841D01*
X142362720Y-76347664D01*
X142370288Y-76360290D01*
X142376582Y-76373597D01*
X142381541Y-76387457D01*
X142385118Y-76401736D01*
X142387278Y-76416297D01*
X142388000Y-76431000D01*
X142388000Y-76731000D01*
X142387278Y-76745703D01*
X142385118Y-76760264D01*
X142381541Y-76774543D01*
X142376582Y-76788403D01*
X142370288Y-76801710D01*
X142362720Y-76814336D01*
X142353952Y-76826159D01*
X142344066Y-76837066D01*
X142333159Y-76846952D01*
X142321336Y-76855720D01*
X142308710Y-76863288D01*
X142295403Y-76869582D01*
X142281543Y-76874541D01*
X142267264Y-76878118D01*
X142252703Y-76880278D01*
X142238000Y-76881000D01*
X140588000Y-76881000D01*
X140573297Y-76880278D01*
X140558736Y-76878118D01*
X140544457Y-76874541D01*
X140530597Y-76869582D01*
X140517290Y-76863288D01*
X140504664Y-76855720D01*
X140492841Y-76846952D01*
X140481934Y-76837066D01*
X140472048Y-76826159D01*
X140463280Y-76814336D01*
X140455712Y-76801710D01*
X140449418Y-76788403D01*
X140444459Y-76774543D01*
X140440882Y-76760264D01*
X140438722Y-76745703D01*
X140438000Y-76731000D01*
X140438000Y-76431000D01*
X140438722Y-76416297D01*
X140440882Y-76401736D01*
X140444459Y-76387457D01*
X140449418Y-76373597D01*
X140455712Y-76360290D01*
X140463280Y-76347664D01*
X140472048Y-76335841D01*
X140481934Y-76324934D01*
X140492841Y-76315048D01*
X140504664Y-76306280D01*
X140517290Y-76298712D01*
X140530597Y-76292418D01*
X140544457Y-76287459D01*
X140558736Y-76283882D01*
X140573297Y-76281722D01*
X140588000Y-76281000D01*
X142238000Y-76281000D01*
X142252703Y-76281722D01*
G37*
G04 #@! TD.AperFunction*
G04 #@! TA.AperFunction,SMDPad,CuDef*
G36*
X142252703Y-75011722D02*
G01*
X142267264Y-75013882D01*
X142281543Y-75017459D01*
X142295403Y-75022418D01*
X142308710Y-75028712D01*
X142321336Y-75036280D01*
X142333159Y-75045048D01*
X142344066Y-75054934D01*
X142353952Y-75065841D01*
X142362720Y-75077664D01*
X142370288Y-75090290D01*
X142376582Y-75103597D01*
X142381541Y-75117457D01*
X142385118Y-75131736D01*
X142387278Y-75146297D01*
X142388000Y-75161000D01*
X142388000Y-75461000D01*
X142387278Y-75475703D01*
X142385118Y-75490264D01*
X142381541Y-75504543D01*
X142376582Y-75518403D01*
X142370288Y-75531710D01*
X142362720Y-75544336D01*
X142353952Y-75556159D01*
X142344066Y-75567066D01*
X142333159Y-75576952D01*
X142321336Y-75585720D01*
X142308710Y-75593288D01*
X142295403Y-75599582D01*
X142281543Y-75604541D01*
X142267264Y-75608118D01*
X142252703Y-75610278D01*
X142238000Y-75611000D01*
X140588000Y-75611000D01*
X140573297Y-75610278D01*
X140558736Y-75608118D01*
X140544457Y-75604541D01*
X140530597Y-75599582D01*
X140517290Y-75593288D01*
X140504664Y-75585720D01*
X140492841Y-75576952D01*
X140481934Y-75567066D01*
X140472048Y-75556159D01*
X140463280Y-75544336D01*
X140455712Y-75531710D01*
X140449418Y-75518403D01*
X140444459Y-75504543D01*
X140440882Y-75490264D01*
X140438722Y-75475703D01*
X140438000Y-75461000D01*
X140438000Y-75161000D01*
X140438722Y-75146297D01*
X140440882Y-75131736D01*
X140444459Y-75117457D01*
X140449418Y-75103597D01*
X140455712Y-75090290D01*
X140463280Y-75077664D01*
X140472048Y-75065841D01*
X140481934Y-75054934D01*
X140492841Y-75045048D01*
X140504664Y-75036280D01*
X140517290Y-75028712D01*
X140530597Y-75022418D01*
X140544457Y-75017459D01*
X140558736Y-75013882D01*
X140573297Y-75011722D01*
X140588000Y-75011000D01*
X142238000Y-75011000D01*
X142252703Y-75011722D01*
G37*
G04 #@! TD.AperFunction*
G04 #@! TA.AperFunction,SMDPad,CuDef*
G36*
X142252703Y-73741722D02*
G01*
X142267264Y-73743882D01*
X142281543Y-73747459D01*
X142295403Y-73752418D01*
X142308710Y-73758712D01*
X142321336Y-73766280D01*
X142333159Y-73775048D01*
X142344066Y-73784934D01*
X142353952Y-73795841D01*
X142362720Y-73807664D01*
X142370288Y-73820290D01*
X142376582Y-73833597D01*
X142381541Y-73847457D01*
X142385118Y-73861736D01*
X142387278Y-73876297D01*
X142388000Y-73891000D01*
X142388000Y-74191000D01*
X142387278Y-74205703D01*
X142385118Y-74220264D01*
X142381541Y-74234543D01*
X142376582Y-74248403D01*
X142370288Y-74261710D01*
X142362720Y-74274336D01*
X142353952Y-74286159D01*
X142344066Y-74297066D01*
X142333159Y-74306952D01*
X142321336Y-74315720D01*
X142308710Y-74323288D01*
X142295403Y-74329582D01*
X142281543Y-74334541D01*
X142267264Y-74338118D01*
X142252703Y-74340278D01*
X142238000Y-74341000D01*
X140588000Y-74341000D01*
X140573297Y-74340278D01*
X140558736Y-74338118D01*
X140544457Y-74334541D01*
X140530597Y-74329582D01*
X140517290Y-74323288D01*
X140504664Y-74315720D01*
X140492841Y-74306952D01*
X140481934Y-74297066D01*
X140472048Y-74286159D01*
X140463280Y-74274336D01*
X140455712Y-74261710D01*
X140449418Y-74248403D01*
X140444459Y-74234543D01*
X140440882Y-74220264D01*
X140438722Y-74205703D01*
X140438000Y-74191000D01*
X140438000Y-73891000D01*
X140438722Y-73876297D01*
X140440882Y-73861736D01*
X140444459Y-73847457D01*
X140449418Y-73833597D01*
X140455712Y-73820290D01*
X140463280Y-73807664D01*
X140472048Y-73795841D01*
X140481934Y-73784934D01*
X140492841Y-73775048D01*
X140504664Y-73766280D01*
X140517290Y-73758712D01*
X140530597Y-73752418D01*
X140544457Y-73747459D01*
X140558736Y-73743882D01*
X140573297Y-73741722D01*
X140588000Y-73741000D01*
X142238000Y-73741000D01*
X142252703Y-73741722D01*
G37*
G04 #@! TD.AperFunction*
G04 #@! TA.AperFunction,SMDPad,CuDef*
G36*
X136804900Y-65534412D02*
G01*
X136829168Y-65538012D01*
X136852967Y-65543973D01*
X136876066Y-65552238D01*
X136898245Y-65562728D01*
X136919288Y-65575340D01*
X136938994Y-65589955D01*
X136957172Y-65606431D01*
X137593569Y-66242828D01*
X137610045Y-66261006D01*
X137624660Y-66280712D01*
X137637272Y-66301755D01*
X137647762Y-66323934D01*
X137656027Y-66347033D01*
X137661988Y-66370832D01*
X137665588Y-66395100D01*
X137666792Y-66419604D01*
X137665588Y-66444108D01*
X137661988Y-66468376D01*
X137656027Y-66492175D01*
X137647762Y-66515274D01*
X137637272Y-66537453D01*
X137624660Y-66558496D01*
X137610045Y-66578202D01*
X137593569Y-66596380D01*
X137133948Y-67056001D01*
X137115770Y-67072477D01*
X137096064Y-67087092D01*
X137075021Y-67099704D01*
X137052842Y-67110194D01*
X137029743Y-67118459D01*
X137005944Y-67124420D01*
X136981676Y-67128020D01*
X136957172Y-67129224D01*
X136932668Y-67128020D01*
X136908400Y-67124420D01*
X136884601Y-67118459D01*
X136861502Y-67110194D01*
X136839323Y-67099704D01*
X136818280Y-67087092D01*
X136798574Y-67072477D01*
X136780396Y-67056001D01*
X136143999Y-66419604D01*
X136127523Y-66401426D01*
X136112908Y-66381720D01*
X136100296Y-66360677D01*
X136089806Y-66338498D01*
X136081541Y-66315399D01*
X136075580Y-66291600D01*
X136071980Y-66267332D01*
X136070776Y-66242828D01*
X136071980Y-66218324D01*
X136075580Y-66194056D01*
X136081541Y-66170257D01*
X136089806Y-66147158D01*
X136100296Y-66124979D01*
X136112908Y-66103936D01*
X136127523Y-66084230D01*
X136143999Y-66066052D01*
X136603620Y-65606431D01*
X136621798Y-65589955D01*
X136641504Y-65575340D01*
X136662547Y-65562728D01*
X136684726Y-65552238D01*
X136707825Y-65543973D01*
X136731624Y-65538012D01*
X136755892Y-65534412D01*
X136780396Y-65533208D01*
X136804900Y-65534412D01*
G37*
G04 #@! TD.AperFunction*
G04 #@! TA.AperFunction,SMDPad,CuDef*
G36*
X135355332Y-66983980D02*
G01*
X135379600Y-66987580D01*
X135403399Y-66993541D01*
X135426498Y-67001806D01*
X135448677Y-67012296D01*
X135469720Y-67024908D01*
X135489426Y-67039523D01*
X135507604Y-67055999D01*
X136144001Y-67692396D01*
X136160477Y-67710574D01*
X136175092Y-67730280D01*
X136187704Y-67751323D01*
X136198194Y-67773502D01*
X136206459Y-67796601D01*
X136212420Y-67820400D01*
X136216020Y-67844668D01*
X136217224Y-67869172D01*
X136216020Y-67893676D01*
X136212420Y-67917944D01*
X136206459Y-67941743D01*
X136198194Y-67964842D01*
X136187704Y-67987021D01*
X136175092Y-68008064D01*
X136160477Y-68027770D01*
X136144001Y-68045948D01*
X135684380Y-68505569D01*
X135666202Y-68522045D01*
X135646496Y-68536660D01*
X135625453Y-68549272D01*
X135603274Y-68559762D01*
X135580175Y-68568027D01*
X135556376Y-68573988D01*
X135532108Y-68577588D01*
X135507604Y-68578792D01*
X135483100Y-68577588D01*
X135458832Y-68573988D01*
X135435033Y-68568027D01*
X135411934Y-68559762D01*
X135389755Y-68549272D01*
X135368712Y-68536660D01*
X135349006Y-68522045D01*
X135330828Y-68505569D01*
X134694431Y-67869172D01*
X134677955Y-67850994D01*
X134663340Y-67831288D01*
X134650728Y-67810245D01*
X134640238Y-67788066D01*
X134631973Y-67764967D01*
X134626012Y-67741168D01*
X134622412Y-67716900D01*
X134621208Y-67692396D01*
X134622412Y-67667892D01*
X134626012Y-67643624D01*
X134631973Y-67619825D01*
X134640238Y-67596726D01*
X134650728Y-67574547D01*
X134663340Y-67553504D01*
X134677955Y-67533798D01*
X134694431Y-67515620D01*
X135154052Y-67055999D01*
X135172230Y-67039523D01*
X135191936Y-67024908D01*
X135212979Y-67012296D01*
X135235158Y-67001806D01*
X135258257Y-66993541D01*
X135282056Y-66987580D01*
X135306324Y-66983980D01*
X135330828Y-66982776D01*
X135355332Y-66983980D01*
G37*
G04 #@! TD.AperFunction*
D14*
X120650000Y-107854000D03*
X120650000Y-105854000D03*
X120650000Y-103854000D03*
X120650000Y-101854000D03*
G04 #@! TA.AperFunction,ComponentPad*
D13*
G36*
X121299505Y-99255204D02*
G01*
X121323773Y-99258804D01*
X121347572Y-99264765D01*
X121370671Y-99273030D01*
X121392850Y-99283520D01*
X121413893Y-99296132D01*
X121433599Y-99310747D01*
X121451777Y-99327223D01*
X121468253Y-99345401D01*
X121482868Y-99365107D01*
X121495480Y-99386150D01*
X121505970Y-99408329D01*
X121514235Y-99431428D01*
X121520196Y-99455227D01*
X121523796Y-99479495D01*
X121525000Y-99503999D01*
X121525000Y-100204001D01*
X121523796Y-100228505D01*
X121520196Y-100252773D01*
X121514235Y-100276572D01*
X121505970Y-100299671D01*
X121495480Y-100321850D01*
X121482868Y-100342893D01*
X121468253Y-100362599D01*
X121451777Y-100380777D01*
X121433599Y-100397253D01*
X121413893Y-100411868D01*
X121392850Y-100424480D01*
X121370671Y-100434970D01*
X121347572Y-100443235D01*
X121323773Y-100449196D01*
X121299505Y-100452796D01*
X121275001Y-100454000D01*
X120024999Y-100454000D01*
X120000495Y-100452796D01*
X119976227Y-100449196D01*
X119952428Y-100443235D01*
X119929329Y-100434970D01*
X119907150Y-100424480D01*
X119886107Y-100411868D01*
X119866401Y-100397253D01*
X119848223Y-100380777D01*
X119831747Y-100362599D01*
X119817132Y-100342893D01*
X119804520Y-100321850D01*
X119794030Y-100299671D01*
X119785765Y-100276572D01*
X119779804Y-100252773D01*
X119776204Y-100228505D01*
X119775000Y-100204001D01*
X119775000Y-99503999D01*
X119776204Y-99479495D01*
X119779804Y-99455227D01*
X119785765Y-99431428D01*
X119794030Y-99408329D01*
X119804520Y-99386150D01*
X119817132Y-99365107D01*
X119831747Y-99345401D01*
X119848223Y-99327223D01*
X119866401Y-99310747D01*
X119886107Y-99296132D01*
X119907150Y-99283520D01*
X119929329Y-99273030D01*
X119952428Y-99264765D01*
X119976227Y-99258804D01*
X120000495Y-99255204D01*
X120024999Y-99254000D01*
X121275001Y-99254000D01*
X121299505Y-99255204D01*
G37*
G04 #@! TD.AperFunction*
D15*
X153670000Y-59436000D03*
X153670000Y-61976000D03*
X151130000Y-59436000D03*
X151130000Y-61976000D03*
X148590000Y-59436000D03*
D16*
X148590000Y-61976000D03*
D17*
X141931846Y-65259949D02*
X141931846Y-65259949D01*
X143727898Y-63463898D02*
X143727898Y-63463898D01*
X143727898Y-67056000D02*
X143727898Y-67056000D01*
X145523949Y-65259949D02*
X145523949Y-65259949D01*
X145523949Y-68852051D02*
X145523949Y-68852051D01*
G04 #@! TA.AperFunction,ComponentPad*
D13*
G36*
X147320000Y-65853918D02*
G01*
X148522082Y-67056000D01*
X147320000Y-68258082D01*
X146117918Y-67056000D01*
X147320000Y-65853918D01*
G37*
G04 #@! TD.AperFunction*
G04 #@! TA.AperFunction,SMDPad,CuDef*
G36*
X136567352Y-68623695D02*
G01*
X136590407Y-68627114D01*
X136613016Y-68632778D01*
X136634960Y-68640630D01*
X136656030Y-68650595D01*
X136676021Y-68662577D01*
X136694741Y-68676461D01*
X136712011Y-68692113D01*
X137047887Y-69027989D01*
X137063539Y-69045259D01*
X137077423Y-69063979D01*
X137089405Y-69083970D01*
X137099370Y-69105040D01*
X137107222Y-69126984D01*
X137112886Y-69149593D01*
X137116305Y-69172648D01*
X137117449Y-69195927D01*
X137116305Y-69219206D01*
X137112886Y-69242261D01*
X137107222Y-69264870D01*
X137099370Y-69286814D01*
X137089405Y-69307884D01*
X137077423Y-69327875D01*
X137063539Y-69346595D01*
X137047887Y-69363865D01*
X136641301Y-69770451D01*
X136624031Y-69786103D01*
X136605311Y-69799987D01*
X136585320Y-69811969D01*
X136564250Y-69821934D01*
X136542306Y-69829786D01*
X136519697Y-69835450D01*
X136496642Y-69838869D01*
X136473363Y-69840013D01*
X136450084Y-69838869D01*
X136427029Y-69835450D01*
X136404420Y-69829786D01*
X136382476Y-69821934D01*
X136361406Y-69811969D01*
X136341415Y-69799987D01*
X136322695Y-69786103D01*
X136305425Y-69770451D01*
X135969549Y-69434575D01*
X135953897Y-69417305D01*
X135940013Y-69398585D01*
X135928031Y-69378594D01*
X135918066Y-69357524D01*
X135910214Y-69335580D01*
X135904550Y-69312971D01*
X135901131Y-69289916D01*
X135899987Y-69266637D01*
X135901131Y-69243358D01*
X135904550Y-69220303D01*
X135910214Y-69197694D01*
X135918066Y-69175750D01*
X135928031Y-69154680D01*
X135940013Y-69134689D01*
X135953897Y-69115969D01*
X135969549Y-69098699D01*
X136376135Y-68692113D01*
X136393405Y-68676461D01*
X136412125Y-68662577D01*
X136432116Y-68650595D01*
X136453186Y-68640630D01*
X136475130Y-68632778D01*
X136497739Y-68627114D01*
X136520794Y-68623695D01*
X136544073Y-68622551D01*
X136567352Y-68623695D01*
G37*
G04 #@! TD.AperFunction*
G04 #@! TA.AperFunction,SMDPad,CuDef*
G36*
X135329916Y-69861131D02*
G01*
X135352971Y-69864550D01*
X135375580Y-69870214D01*
X135397524Y-69878066D01*
X135418594Y-69888031D01*
X135438585Y-69900013D01*
X135457305Y-69913897D01*
X135474575Y-69929549D01*
X135810451Y-70265425D01*
X135826103Y-70282695D01*
X135839987Y-70301415D01*
X135851969Y-70321406D01*
X135861934Y-70342476D01*
X135869786Y-70364420D01*
X135875450Y-70387029D01*
X135878869Y-70410084D01*
X135880013Y-70433363D01*
X135878869Y-70456642D01*
X135875450Y-70479697D01*
X135869786Y-70502306D01*
X135861934Y-70524250D01*
X135851969Y-70545320D01*
X135839987Y-70565311D01*
X135826103Y-70584031D01*
X135810451Y-70601301D01*
X135403865Y-71007887D01*
X135386595Y-71023539D01*
X135367875Y-71037423D01*
X135347884Y-71049405D01*
X135326814Y-71059370D01*
X135304870Y-71067222D01*
X135282261Y-71072886D01*
X135259206Y-71076305D01*
X135235927Y-71077449D01*
X135212648Y-71076305D01*
X135189593Y-71072886D01*
X135166984Y-71067222D01*
X135145040Y-71059370D01*
X135123970Y-71049405D01*
X135103979Y-71037423D01*
X135085259Y-71023539D01*
X135067989Y-71007887D01*
X134732113Y-70672011D01*
X134716461Y-70654741D01*
X134702577Y-70636021D01*
X134690595Y-70616030D01*
X134680630Y-70594960D01*
X134672778Y-70573016D01*
X134667114Y-70550407D01*
X134663695Y-70527352D01*
X134662551Y-70504073D01*
X134663695Y-70480794D01*
X134667114Y-70457739D01*
X134672778Y-70435130D01*
X134680630Y-70413186D01*
X134690595Y-70392116D01*
X134702577Y-70372125D01*
X134716461Y-70353405D01*
X134732113Y-70336135D01*
X135138699Y-69929549D01*
X135155969Y-69913897D01*
X135174689Y-69900013D01*
X135194680Y-69888031D01*
X135215750Y-69878066D01*
X135237694Y-69870214D01*
X135260303Y-69864550D01*
X135283358Y-69861131D01*
X135306637Y-69859987D01*
X135329916Y-69861131D01*
G37*
G04 #@! TD.AperFunction*
G04 #@! TA.AperFunction,SMDPad,CuDef*
G36*
X140722779Y-71866144D02*
G01*
X140745834Y-71869563D01*
X140768443Y-71875227D01*
X140790387Y-71883079D01*
X140811457Y-71893044D01*
X140831448Y-71905026D01*
X140850168Y-71918910D01*
X140867438Y-71934562D01*
X140883090Y-71951832D01*
X140896974Y-71970552D01*
X140908956Y-71990543D01*
X140918921Y-72011613D01*
X140926773Y-72033557D01*
X140932437Y-72056166D01*
X140935856Y-72079221D01*
X140937000Y-72102500D01*
X140937000Y-72677500D01*
X140935856Y-72700779D01*
X140932437Y-72723834D01*
X140926773Y-72746443D01*
X140918921Y-72768387D01*
X140908956Y-72789457D01*
X140896974Y-72809448D01*
X140883090Y-72828168D01*
X140867438Y-72845438D01*
X140850168Y-72861090D01*
X140831448Y-72874974D01*
X140811457Y-72886956D01*
X140790387Y-72896921D01*
X140768443Y-72904773D01*
X140745834Y-72910437D01*
X140722779Y-72913856D01*
X140699500Y-72915000D01*
X140224500Y-72915000D01*
X140201221Y-72913856D01*
X140178166Y-72910437D01*
X140155557Y-72904773D01*
X140133613Y-72896921D01*
X140112543Y-72886956D01*
X140092552Y-72874974D01*
X140073832Y-72861090D01*
X140056562Y-72845438D01*
X140040910Y-72828168D01*
X140027026Y-72809448D01*
X140015044Y-72789457D01*
X140005079Y-72768387D01*
X139997227Y-72746443D01*
X139991563Y-72723834D01*
X139988144Y-72700779D01*
X139987000Y-72677500D01*
X139987000Y-72102500D01*
X139988144Y-72079221D01*
X139991563Y-72056166D01*
X139997227Y-72033557D01*
X140005079Y-72011613D01*
X140015044Y-71990543D01*
X140027026Y-71970552D01*
X140040910Y-71951832D01*
X140056562Y-71934562D01*
X140073832Y-71918910D01*
X140092552Y-71905026D01*
X140112543Y-71893044D01*
X140133613Y-71883079D01*
X140155557Y-71875227D01*
X140178166Y-71869563D01*
X140201221Y-71866144D01*
X140224500Y-71865000D01*
X140699500Y-71865000D01*
X140722779Y-71866144D01*
G37*
G04 #@! TD.AperFunction*
G04 #@! TA.AperFunction,SMDPad,CuDef*
G36*
X140722779Y-70116144D02*
G01*
X140745834Y-70119563D01*
X140768443Y-70125227D01*
X140790387Y-70133079D01*
X140811457Y-70143044D01*
X140831448Y-70155026D01*
X140850168Y-70168910D01*
X140867438Y-70184562D01*
X140883090Y-70201832D01*
X140896974Y-70220552D01*
X140908956Y-70240543D01*
X140918921Y-70261613D01*
X140926773Y-70283557D01*
X140932437Y-70306166D01*
X140935856Y-70329221D01*
X140937000Y-70352500D01*
X140937000Y-70927500D01*
X140935856Y-70950779D01*
X140932437Y-70973834D01*
X140926773Y-70996443D01*
X140918921Y-71018387D01*
X140908956Y-71039457D01*
X140896974Y-71059448D01*
X140883090Y-71078168D01*
X140867438Y-71095438D01*
X140850168Y-71111090D01*
X140831448Y-71124974D01*
X140811457Y-71136956D01*
X140790387Y-71146921D01*
X140768443Y-71154773D01*
X140745834Y-71160437D01*
X140722779Y-71163856D01*
X140699500Y-71165000D01*
X140224500Y-71165000D01*
X140201221Y-71163856D01*
X140178166Y-71160437D01*
X140155557Y-71154773D01*
X140133613Y-71146921D01*
X140112543Y-71136956D01*
X140092552Y-71124974D01*
X140073832Y-71111090D01*
X140056562Y-71095438D01*
X140040910Y-71078168D01*
X140027026Y-71059448D01*
X140015044Y-71039457D01*
X140005079Y-71018387D01*
X139997227Y-70996443D01*
X139991563Y-70973834D01*
X139988144Y-70950779D01*
X139987000Y-70927500D01*
X139987000Y-70352500D01*
X139988144Y-70329221D01*
X139991563Y-70306166D01*
X139997227Y-70283557D01*
X140005079Y-70261613D01*
X140015044Y-70240543D01*
X140027026Y-70220552D01*
X140040910Y-70201832D01*
X140056562Y-70184562D01*
X140073832Y-70168910D01*
X140092552Y-70155026D01*
X140112543Y-70143044D01*
X140133613Y-70133079D01*
X140155557Y-70125227D01*
X140178166Y-70119563D01*
X140201221Y-70116144D01*
X140224500Y-70115000D01*
X140699500Y-70115000D01*
X140722779Y-70116144D01*
G37*
G04 #@! TD.AperFunction*
G04 #@! TA.AperFunction,SMDPad,CuDef*
G36*
X144441779Y-84108144D02*
G01*
X144464834Y-84111563D01*
X144487443Y-84117227D01*
X144509387Y-84125079D01*
X144530457Y-84135044D01*
X144550448Y-84147026D01*
X144569168Y-84160910D01*
X144586438Y-84176562D01*
X144602090Y-84193832D01*
X144615974Y-84212552D01*
X144627956Y-84232543D01*
X144637921Y-84253613D01*
X144645773Y-84275557D01*
X144651437Y-84298166D01*
X144654856Y-84321221D01*
X144656000Y-84344500D01*
X144656000Y-84819500D01*
X144654856Y-84842779D01*
X144651437Y-84865834D01*
X144645773Y-84888443D01*
X144637921Y-84910387D01*
X144627956Y-84931457D01*
X144615974Y-84951448D01*
X144602090Y-84970168D01*
X144586438Y-84987438D01*
X144569168Y-85003090D01*
X144550448Y-85016974D01*
X144530457Y-85028956D01*
X144509387Y-85038921D01*
X144487443Y-85046773D01*
X144464834Y-85052437D01*
X144441779Y-85055856D01*
X144418500Y-85057000D01*
X143843500Y-85057000D01*
X143820221Y-85055856D01*
X143797166Y-85052437D01*
X143774557Y-85046773D01*
X143752613Y-85038921D01*
X143731543Y-85028956D01*
X143711552Y-85016974D01*
X143692832Y-85003090D01*
X143675562Y-84987438D01*
X143659910Y-84970168D01*
X143646026Y-84951448D01*
X143634044Y-84931457D01*
X143624079Y-84910387D01*
X143616227Y-84888443D01*
X143610563Y-84865834D01*
X143607144Y-84842779D01*
X143606000Y-84819500D01*
X143606000Y-84344500D01*
X143607144Y-84321221D01*
X143610563Y-84298166D01*
X143616227Y-84275557D01*
X143624079Y-84253613D01*
X143634044Y-84232543D01*
X143646026Y-84212552D01*
X143659910Y-84193832D01*
X143675562Y-84176562D01*
X143692832Y-84160910D01*
X143711552Y-84147026D01*
X143731543Y-84135044D01*
X143752613Y-84125079D01*
X143774557Y-84117227D01*
X143797166Y-84111563D01*
X143820221Y-84108144D01*
X143843500Y-84107000D01*
X144418500Y-84107000D01*
X144441779Y-84108144D01*
G37*
G04 #@! TD.AperFunction*
G04 #@! TA.AperFunction,SMDPad,CuDef*
G36*
X142691779Y-84108144D02*
G01*
X142714834Y-84111563D01*
X142737443Y-84117227D01*
X142759387Y-84125079D01*
X142780457Y-84135044D01*
X142800448Y-84147026D01*
X142819168Y-84160910D01*
X142836438Y-84176562D01*
X142852090Y-84193832D01*
X142865974Y-84212552D01*
X142877956Y-84232543D01*
X142887921Y-84253613D01*
X142895773Y-84275557D01*
X142901437Y-84298166D01*
X142904856Y-84321221D01*
X142906000Y-84344500D01*
X142906000Y-84819500D01*
X142904856Y-84842779D01*
X142901437Y-84865834D01*
X142895773Y-84888443D01*
X142887921Y-84910387D01*
X142877956Y-84931457D01*
X142865974Y-84951448D01*
X142852090Y-84970168D01*
X142836438Y-84987438D01*
X142819168Y-85003090D01*
X142800448Y-85016974D01*
X142780457Y-85028956D01*
X142759387Y-85038921D01*
X142737443Y-85046773D01*
X142714834Y-85052437D01*
X142691779Y-85055856D01*
X142668500Y-85057000D01*
X142093500Y-85057000D01*
X142070221Y-85055856D01*
X142047166Y-85052437D01*
X142024557Y-85046773D01*
X142002613Y-85038921D01*
X141981543Y-85028956D01*
X141961552Y-85016974D01*
X141942832Y-85003090D01*
X141925562Y-84987438D01*
X141909910Y-84970168D01*
X141896026Y-84951448D01*
X141884044Y-84931457D01*
X141874079Y-84910387D01*
X141866227Y-84888443D01*
X141860563Y-84865834D01*
X141857144Y-84842779D01*
X141856000Y-84819500D01*
X141856000Y-84344500D01*
X141857144Y-84321221D01*
X141860563Y-84298166D01*
X141866227Y-84275557D01*
X141874079Y-84253613D01*
X141884044Y-84232543D01*
X141896026Y-84212552D01*
X141909910Y-84193832D01*
X141925562Y-84176562D01*
X141942832Y-84160910D01*
X141961552Y-84147026D01*
X141981543Y-84135044D01*
X142002613Y-84125079D01*
X142024557Y-84117227D01*
X142047166Y-84111563D01*
X142070221Y-84108144D01*
X142093500Y-84107000D01*
X142668500Y-84107000D01*
X142691779Y-84108144D01*
G37*
G04 #@! TD.AperFunction*
G04 #@! TA.AperFunction,SMDPad,CuDef*
G36*
X142578779Y-71916144D02*
G01*
X142601834Y-71919563D01*
X142624443Y-71925227D01*
X142646387Y-71933079D01*
X142667457Y-71943044D01*
X142687448Y-71955026D01*
X142706168Y-71968910D01*
X142723438Y-71984562D01*
X142739090Y-72001832D01*
X142752974Y-72020552D01*
X142764956Y-72040543D01*
X142774921Y-72061613D01*
X142782773Y-72083557D01*
X142788437Y-72106166D01*
X142791856Y-72129221D01*
X142793000Y-72152500D01*
X142793000Y-72627500D01*
X142791856Y-72650779D01*
X142788437Y-72673834D01*
X142782773Y-72696443D01*
X142774921Y-72718387D01*
X142764956Y-72739457D01*
X142752974Y-72759448D01*
X142739090Y-72778168D01*
X142723438Y-72795438D01*
X142706168Y-72811090D01*
X142687448Y-72824974D01*
X142667457Y-72836956D01*
X142646387Y-72846921D01*
X142624443Y-72854773D01*
X142601834Y-72860437D01*
X142578779Y-72863856D01*
X142555500Y-72865000D01*
X141980500Y-72865000D01*
X141957221Y-72863856D01*
X141934166Y-72860437D01*
X141911557Y-72854773D01*
X141889613Y-72846921D01*
X141868543Y-72836956D01*
X141848552Y-72824974D01*
X141829832Y-72811090D01*
X141812562Y-72795438D01*
X141796910Y-72778168D01*
X141783026Y-72759448D01*
X141771044Y-72739457D01*
X141761079Y-72718387D01*
X141753227Y-72696443D01*
X141747563Y-72673834D01*
X141744144Y-72650779D01*
X141743000Y-72627500D01*
X141743000Y-72152500D01*
X141744144Y-72129221D01*
X141747563Y-72106166D01*
X141753227Y-72083557D01*
X141761079Y-72061613D01*
X141771044Y-72040543D01*
X141783026Y-72020552D01*
X141796910Y-72001832D01*
X141812562Y-71984562D01*
X141829832Y-71968910D01*
X141848552Y-71955026D01*
X141868543Y-71943044D01*
X141889613Y-71933079D01*
X141911557Y-71925227D01*
X141934166Y-71919563D01*
X141957221Y-71916144D01*
X141980500Y-71915000D01*
X142555500Y-71915000D01*
X142578779Y-71916144D01*
G37*
G04 #@! TD.AperFunction*
G04 #@! TA.AperFunction,SMDPad,CuDef*
G36*
X144328779Y-71916144D02*
G01*
X144351834Y-71919563D01*
X144374443Y-71925227D01*
X144396387Y-71933079D01*
X144417457Y-71943044D01*
X144437448Y-71955026D01*
X144456168Y-71968910D01*
X144473438Y-71984562D01*
X144489090Y-72001832D01*
X144502974Y-72020552D01*
X144514956Y-72040543D01*
X144524921Y-72061613D01*
X144532773Y-72083557D01*
X144538437Y-72106166D01*
X144541856Y-72129221D01*
X144543000Y-72152500D01*
X144543000Y-72627500D01*
X144541856Y-72650779D01*
X144538437Y-72673834D01*
X144532773Y-72696443D01*
X144524921Y-72718387D01*
X144514956Y-72739457D01*
X144502974Y-72759448D01*
X144489090Y-72778168D01*
X144473438Y-72795438D01*
X144456168Y-72811090D01*
X144437448Y-72824974D01*
X144417457Y-72836956D01*
X144396387Y-72846921D01*
X144374443Y-72854773D01*
X144351834Y-72860437D01*
X144328779Y-72863856D01*
X144305500Y-72865000D01*
X143730500Y-72865000D01*
X143707221Y-72863856D01*
X143684166Y-72860437D01*
X143661557Y-72854773D01*
X143639613Y-72846921D01*
X143618543Y-72836956D01*
X143598552Y-72824974D01*
X143579832Y-72811090D01*
X143562562Y-72795438D01*
X143546910Y-72778168D01*
X143533026Y-72759448D01*
X143521044Y-72739457D01*
X143511079Y-72718387D01*
X143503227Y-72696443D01*
X143497563Y-72673834D01*
X143494144Y-72650779D01*
X143493000Y-72627500D01*
X143493000Y-72152500D01*
X143494144Y-72129221D01*
X143497563Y-72106166D01*
X143503227Y-72083557D01*
X143511079Y-72061613D01*
X143521044Y-72040543D01*
X143533026Y-72020552D01*
X143546910Y-72001832D01*
X143562562Y-71984562D01*
X143579832Y-71968910D01*
X143598552Y-71955026D01*
X143618543Y-71943044D01*
X143639613Y-71933079D01*
X143661557Y-71925227D01*
X143684166Y-71919563D01*
X143707221Y-71916144D01*
X143730500Y-71915000D01*
X144305500Y-71915000D01*
X144328779Y-71916144D01*
G37*
G04 #@! TD.AperFunction*
G04 #@! TA.AperFunction,SMDPad,CuDef*
G36*
X144278779Y-77341144D02*
G01*
X144301834Y-77344563D01*
X144324443Y-77350227D01*
X144346387Y-77358079D01*
X144367457Y-77368044D01*
X144387448Y-77380026D01*
X144406168Y-77393910D01*
X144423438Y-77409562D01*
X144439090Y-77426832D01*
X144452974Y-77445552D01*
X144464956Y-77465543D01*
X144474921Y-77486613D01*
X144482773Y-77508557D01*
X144488437Y-77531166D01*
X144491856Y-77554221D01*
X144493000Y-77577500D01*
X144493000Y-78152500D01*
X144491856Y-78175779D01*
X144488437Y-78198834D01*
X144482773Y-78221443D01*
X144474921Y-78243387D01*
X144464956Y-78264457D01*
X144452974Y-78284448D01*
X144439090Y-78303168D01*
X144423438Y-78320438D01*
X144406168Y-78336090D01*
X144387448Y-78349974D01*
X144367457Y-78361956D01*
X144346387Y-78371921D01*
X144324443Y-78379773D01*
X144301834Y-78385437D01*
X144278779Y-78388856D01*
X144255500Y-78390000D01*
X143780500Y-78390000D01*
X143757221Y-78388856D01*
X143734166Y-78385437D01*
X143711557Y-78379773D01*
X143689613Y-78371921D01*
X143668543Y-78361956D01*
X143648552Y-78349974D01*
X143629832Y-78336090D01*
X143612562Y-78320438D01*
X143596910Y-78303168D01*
X143583026Y-78284448D01*
X143571044Y-78264457D01*
X143561079Y-78243387D01*
X143553227Y-78221443D01*
X143547563Y-78198834D01*
X143544144Y-78175779D01*
X143543000Y-78152500D01*
X143543000Y-77577500D01*
X143544144Y-77554221D01*
X143547563Y-77531166D01*
X143553227Y-77508557D01*
X143561079Y-77486613D01*
X143571044Y-77465543D01*
X143583026Y-77445552D01*
X143596910Y-77426832D01*
X143612562Y-77409562D01*
X143629832Y-77393910D01*
X143648552Y-77380026D01*
X143668543Y-77368044D01*
X143689613Y-77358079D01*
X143711557Y-77350227D01*
X143734166Y-77344563D01*
X143757221Y-77341144D01*
X143780500Y-77340000D01*
X144255500Y-77340000D01*
X144278779Y-77341144D01*
G37*
G04 #@! TD.AperFunction*
G04 #@! TA.AperFunction,SMDPad,CuDef*
G36*
X144278779Y-79091144D02*
G01*
X144301834Y-79094563D01*
X144324443Y-79100227D01*
X144346387Y-79108079D01*
X144367457Y-79118044D01*
X144387448Y-79130026D01*
X144406168Y-79143910D01*
X144423438Y-79159562D01*
X144439090Y-79176832D01*
X144452974Y-79195552D01*
X144464956Y-79215543D01*
X144474921Y-79236613D01*
X144482773Y-79258557D01*
X144488437Y-79281166D01*
X144491856Y-79304221D01*
X144493000Y-79327500D01*
X144493000Y-79902500D01*
X144491856Y-79925779D01*
X144488437Y-79948834D01*
X144482773Y-79971443D01*
X144474921Y-79993387D01*
X144464956Y-80014457D01*
X144452974Y-80034448D01*
X144439090Y-80053168D01*
X144423438Y-80070438D01*
X144406168Y-80086090D01*
X144387448Y-80099974D01*
X144367457Y-80111956D01*
X144346387Y-80121921D01*
X144324443Y-80129773D01*
X144301834Y-80135437D01*
X144278779Y-80138856D01*
X144255500Y-80140000D01*
X143780500Y-80140000D01*
X143757221Y-80138856D01*
X143734166Y-80135437D01*
X143711557Y-80129773D01*
X143689613Y-80121921D01*
X143668543Y-80111956D01*
X143648552Y-80099974D01*
X143629832Y-80086090D01*
X143612562Y-80070438D01*
X143596910Y-80053168D01*
X143583026Y-80034448D01*
X143571044Y-80014457D01*
X143561079Y-79993387D01*
X143553227Y-79971443D01*
X143547563Y-79948834D01*
X143544144Y-79925779D01*
X143543000Y-79902500D01*
X143543000Y-79327500D01*
X143544144Y-79304221D01*
X143547563Y-79281166D01*
X143553227Y-79258557D01*
X143561079Y-79236613D01*
X143571044Y-79215543D01*
X143583026Y-79195552D01*
X143596910Y-79176832D01*
X143612562Y-79159562D01*
X143629832Y-79143910D01*
X143648552Y-79130026D01*
X143668543Y-79118044D01*
X143689613Y-79108079D01*
X143711557Y-79100227D01*
X143734166Y-79094563D01*
X143757221Y-79091144D01*
X143780500Y-79090000D01*
X144255500Y-79090000D01*
X144278779Y-79091144D01*
G37*
G04 #@! TD.AperFunction*
G04 #@! TA.AperFunction,SMDPad,CuDef*
G36*
X119323779Y-109000144D02*
G01*
X119346834Y-109003563D01*
X119369443Y-109009227D01*
X119391387Y-109017079D01*
X119412457Y-109027044D01*
X119432448Y-109039026D01*
X119451168Y-109052910D01*
X119468438Y-109068562D01*
X119484090Y-109085832D01*
X119497974Y-109104552D01*
X119509956Y-109124543D01*
X119519921Y-109145613D01*
X119527773Y-109167557D01*
X119533437Y-109190166D01*
X119536856Y-109213221D01*
X119538000Y-109236500D01*
X119538000Y-109711500D01*
X119536856Y-109734779D01*
X119533437Y-109757834D01*
X119527773Y-109780443D01*
X119519921Y-109802387D01*
X119509956Y-109823457D01*
X119497974Y-109843448D01*
X119484090Y-109862168D01*
X119468438Y-109879438D01*
X119451168Y-109895090D01*
X119432448Y-109908974D01*
X119412457Y-109920956D01*
X119391387Y-109930921D01*
X119369443Y-109938773D01*
X119346834Y-109944437D01*
X119323779Y-109947856D01*
X119300500Y-109949000D01*
X118725500Y-109949000D01*
X118702221Y-109947856D01*
X118679166Y-109944437D01*
X118656557Y-109938773D01*
X118634613Y-109930921D01*
X118613543Y-109920956D01*
X118593552Y-109908974D01*
X118574832Y-109895090D01*
X118557562Y-109879438D01*
X118541910Y-109862168D01*
X118528026Y-109843448D01*
X118516044Y-109823457D01*
X118506079Y-109802387D01*
X118498227Y-109780443D01*
X118492563Y-109757834D01*
X118489144Y-109734779D01*
X118488000Y-109711500D01*
X118488000Y-109236500D01*
X118489144Y-109213221D01*
X118492563Y-109190166D01*
X118498227Y-109167557D01*
X118506079Y-109145613D01*
X118516044Y-109124543D01*
X118528026Y-109104552D01*
X118541910Y-109085832D01*
X118557562Y-109068562D01*
X118574832Y-109052910D01*
X118593552Y-109039026D01*
X118613543Y-109027044D01*
X118634613Y-109017079D01*
X118656557Y-109009227D01*
X118679166Y-109003563D01*
X118702221Y-109000144D01*
X118725500Y-108999000D01*
X119300500Y-108999000D01*
X119323779Y-109000144D01*
G37*
G04 #@! TD.AperFunction*
G04 #@! TA.AperFunction,SMDPad,CuDef*
G36*
X121073779Y-109000144D02*
G01*
X121096834Y-109003563D01*
X121119443Y-109009227D01*
X121141387Y-109017079D01*
X121162457Y-109027044D01*
X121182448Y-109039026D01*
X121201168Y-109052910D01*
X121218438Y-109068562D01*
X121234090Y-109085832D01*
X121247974Y-109104552D01*
X121259956Y-109124543D01*
X121269921Y-109145613D01*
X121277773Y-109167557D01*
X121283437Y-109190166D01*
X121286856Y-109213221D01*
X121288000Y-109236500D01*
X121288000Y-109711500D01*
X121286856Y-109734779D01*
X121283437Y-109757834D01*
X121277773Y-109780443D01*
X121269921Y-109802387D01*
X121259956Y-109823457D01*
X121247974Y-109843448D01*
X121234090Y-109862168D01*
X121218438Y-109879438D01*
X121201168Y-109895090D01*
X121182448Y-109908974D01*
X121162457Y-109920956D01*
X121141387Y-109930921D01*
X121119443Y-109938773D01*
X121096834Y-109944437D01*
X121073779Y-109947856D01*
X121050500Y-109949000D01*
X120475500Y-109949000D01*
X120452221Y-109947856D01*
X120429166Y-109944437D01*
X120406557Y-109938773D01*
X120384613Y-109930921D01*
X120363543Y-109920956D01*
X120343552Y-109908974D01*
X120324832Y-109895090D01*
X120307562Y-109879438D01*
X120291910Y-109862168D01*
X120278026Y-109843448D01*
X120266044Y-109823457D01*
X120256079Y-109802387D01*
X120248227Y-109780443D01*
X120242563Y-109757834D01*
X120239144Y-109734779D01*
X120238000Y-109711500D01*
X120238000Y-109236500D01*
X120239144Y-109213221D01*
X120242563Y-109190166D01*
X120248227Y-109167557D01*
X120256079Y-109145613D01*
X120266044Y-109124543D01*
X120278026Y-109104552D01*
X120291910Y-109085832D01*
X120307562Y-109068562D01*
X120324832Y-109052910D01*
X120343552Y-109039026D01*
X120363543Y-109027044D01*
X120384613Y-109017079D01*
X120406557Y-109009227D01*
X120429166Y-109003563D01*
X120452221Y-109000144D01*
X120475500Y-108999000D01*
X121050500Y-108999000D01*
X121073779Y-109000144D01*
G37*
G04 #@! TD.AperFunction*
G04 #@! TA.AperFunction,SMDPad,CuDef*
G36*
X134626779Y-76974144D02*
G01*
X134649834Y-76977563D01*
X134672443Y-76983227D01*
X134694387Y-76991079D01*
X134715457Y-77001044D01*
X134735448Y-77013026D01*
X134754168Y-77026910D01*
X134771438Y-77042562D01*
X134787090Y-77059832D01*
X134800974Y-77078552D01*
X134812956Y-77098543D01*
X134822921Y-77119613D01*
X134830773Y-77141557D01*
X134836437Y-77164166D01*
X134839856Y-77187221D01*
X134841000Y-77210500D01*
X134841000Y-77785500D01*
X134839856Y-77808779D01*
X134836437Y-77831834D01*
X134830773Y-77854443D01*
X134822921Y-77876387D01*
X134812956Y-77897457D01*
X134800974Y-77917448D01*
X134787090Y-77936168D01*
X134771438Y-77953438D01*
X134754168Y-77969090D01*
X134735448Y-77982974D01*
X134715457Y-77994956D01*
X134694387Y-78004921D01*
X134672443Y-78012773D01*
X134649834Y-78018437D01*
X134626779Y-78021856D01*
X134603500Y-78023000D01*
X134128500Y-78023000D01*
X134105221Y-78021856D01*
X134082166Y-78018437D01*
X134059557Y-78012773D01*
X134037613Y-78004921D01*
X134016543Y-77994956D01*
X133996552Y-77982974D01*
X133977832Y-77969090D01*
X133960562Y-77953438D01*
X133944910Y-77936168D01*
X133931026Y-77917448D01*
X133919044Y-77897457D01*
X133909079Y-77876387D01*
X133901227Y-77854443D01*
X133895563Y-77831834D01*
X133892144Y-77808779D01*
X133891000Y-77785500D01*
X133891000Y-77210500D01*
X133892144Y-77187221D01*
X133895563Y-77164166D01*
X133901227Y-77141557D01*
X133909079Y-77119613D01*
X133919044Y-77098543D01*
X133931026Y-77078552D01*
X133944910Y-77059832D01*
X133960562Y-77042562D01*
X133977832Y-77026910D01*
X133996552Y-77013026D01*
X134016543Y-77001044D01*
X134037613Y-76991079D01*
X134059557Y-76983227D01*
X134082166Y-76977563D01*
X134105221Y-76974144D01*
X134128500Y-76973000D01*
X134603500Y-76973000D01*
X134626779Y-76974144D01*
G37*
G04 #@! TD.AperFunction*
G04 #@! TA.AperFunction,SMDPad,CuDef*
G36*
X134626779Y-78724144D02*
G01*
X134649834Y-78727563D01*
X134672443Y-78733227D01*
X134694387Y-78741079D01*
X134715457Y-78751044D01*
X134735448Y-78763026D01*
X134754168Y-78776910D01*
X134771438Y-78792562D01*
X134787090Y-78809832D01*
X134800974Y-78828552D01*
X134812956Y-78848543D01*
X134822921Y-78869613D01*
X134830773Y-78891557D01*
X134836437Y-78914166D01*
X134839856Y-78937221D01*
X134841000Y-78960500D01*
X134841000Y-79535500D01*
X134839856Y-79558779D01*
X134836437Y-79581834D01*
X134830773Y-79604443D01*
X134822921Y-79626387D01*
X134812956Y-79647457D01*
X134800974Y-79667448D01*
X134787090Y-79686168D01*
X134771438Y-79703438D01*
X134754168Y-79719090D01*
X134735448Y-79732974D01*
X134715457Y-79744956D01*
X134694387Y-79754921D01*
X134672443Y-79762773D01*
X134649834Y-79768437D01*
X134626779Y-79771856D01*
X134603500Y-79773000D01*
X134128500Y-79773000D01*
X134105221Y-79771856D01*
X134082166Y-79768437D01*
X134059557Y-79762773D01*
X134037613Y-79754921D01*
X134016543Y-79744956D01*
X133996552Y-79732974D01*
X133977832Y-79719090D01*
X133960562Y-79703438D01*
X133944910Y-79686168D01*
X133931026Y-79667448D01*
X133919044Y-79647457D01*
X133909079Y-79626387D01*
X133901227Y-79604443D01*
X133895563Y-79581834D01*
X133892144Y-79558779D01*
X133891000Y-79535500D01*
X133891000Y-78960500D01*
X133892144Y-78937221D01*
X133895563Y-78914166D01*
X133901227Y-78891557D01*
X133909079Y-78869613D01*
X133919044Y-78848543D01*
X133931026Y-78828552D01*
X133944910Y-78809832D01*
X133960562Y-78792562D01*
X133977832Y-78776910D01*
X133996552Y-78763026D01*
X134016543Y-78751044D01*
X134037613Y-78741079D01*
X134059557Y-78733227D01*
X134082166Y-78727563D01*
X134105221Y-78724144D01*
X134128500Y-78723000D01*
X134603500Y-78723000D01*
X134626779Y-78724144D01*
G37*
G04 #@! TD.AperFunction*
G04 #@! TA.AperFunction,SMDPad,CuDef*
G36*
X150842505Y-67489204D02*
G01*
X150866773Y-67492804D01*
X150890572Y-67498765D01*
X150913671Y-67507030D01*
X150935850Y-67517520D01*
X150956893Y-67530132D01*
X150976599Y-67544747D01*
X150994777Y-67561223D01*
X151011253Y-67579401D01*
X151025868Y-67599107D01*
X151038480Y-67620150D01*
X151048970Y-67642329D01*
X151057235Y-67665428D01*
X151063196Y-67689227D01*
X151066796Y-67713495D01*
X151068000Y-67737999D01*
X151068000Y-68388001D01*
X151066796Y-68412505D01*
X151063196Y-68436773D01*
X151057235Y-68460572D01*
X151048970Y-68483671D01*
X151038480Y-68505850D01*
X151025868Y-68526893D01*
X151011253Y-68546599D01*
X150994777Y-68564777D01*
X150976599Y-68581253D01*
X150956893Y-68595868D01*
X150935850Y-68608480D01*
X150913671Y-68618970D01*
X150890572Y-68627235D01*
X150866773Y-68633196D01*
X150842505Y-68636796D01*
X150818001Y-68638000D01*
X149917999Y-68638000D01*
X149893495Y-68636796D01*
X149869227Y-68633196D01*
X149845428Y-68627235D01*
X149822329Y-68618970D01*
X149800150Y-68608480D01*
X149779107Y-68595868D01*
X149759401Y-68581253D01*
X149741223Y-68564777D01*
X149724747Y-68546599D01*
X149710132Y-68526893D01*
X149697520Y-68505850D01*
X149687030Y-68483671D01*
X149678765Y-68460572D01*
X149672804Y-68436773D01*
X149669204Y-68412505D01*
X149668000Y-68388001D01*
X149668000Y-67737999D01*
X149669204Y-67713495D01*
X149672804Y-67689227D01*
X149678765Y-67665428D01*
X149687030Y-67642329D01*
X149697520Y-67620150D01*
X149710132Y-67599107D01*
X149724747Y-67579401D01*
X149741223Y-67561223D01*
X149759401Y-67544747D01*
X149779107Y-67530132D01*
X149800150Y-67517520D01*
X149822329Y-67507030D01*
X149845428Y-67498765D01*
X149869227Y-67492804D01*
X149893495Y-67489204D01*
X149917999Y-67488000D01*
X150818001Y-67488000D01*
X150842505Y-67489204D01*
G37*
G04 #@! TD.AperFunction*
G04 #@! TA.AperFunction,SMDPad,CuDef*
G36*
X150842505Y-69539204D02*
G01*
X150866773Y-69542804D01*
X150890572Y-69548765D01*
X150913671Y-69557030D01*
X150935850Y-69567520D01*
X150956893Y-69580132D01*
X150976599Y-69594747D01*
X150994777Y-69611223D01*
X151011253Y-69629401D01*
X151025868Y-69649107D01*
X151038480Y-69670150D01*
X151048970Y-69692329D01*
X151057235Y-69715428D01*
X151063196Y-69739227D01*
X151066796Y-69763495D01*
X151068000Y-69787999D01*
X151068000Y-70438001D01*
X151066796Y-70462505D01*
X151063196Y-70486773D01*
X151057235Y-70510572D01*
X151048970Y-70533671D01*
X151038480Y-70555850D01*
X151025868Y-70576893D01*
X151011253Y-70596599D01*
X150994777Y-70614777D01*
X150976599Y-70631253D01*
X150956893Y-70645868D01*
X150935850Y-70658480D01*
X150913671Y-70668970D01*
X150890572Y-70677235D01*
X150866773Y-70683196D01*
X150842505Y-70686796D01*
X150818001Y-70688000D01*
X149917999Y-70688000D01*
X149893495Y-70686796D01*
X149869227Y-70683196D01*
X149845428Y-70677235D01*
X149822329Y-70668970D01*
X149800150Y-70658480D01*
X149779107Y-70645868D01*
X149759401Y-70631253D01*
X149741223Y-70614777D01*
X149724747Y-70596599D01*
X149710132Y-70576893D01*
X149697520Y-70555850D01*
X149687030Y-70533671D01*
X149678765Y-70510572D01*
X149672804Y-70486773D01*
X149669204Y-70462505D01*
X149668000Y-70438001D01*
X149668000Y-69787999D01*
X149669204Y-69763495D01*
X149672804Y-69739227D01*
X149678765Y-69715428D01*
X149687030Y-69692329D01*
X149697520Y-69670150D01*
X149710132Y-69649107D01*
X149724747Y-69629401D01*
X149741223Y-69611223D01*
X149759401Y-69594747D01*
X149779107Y-69580132D01*
X149800150Y-69567520D01*
X149822329Y-69557030D01*
X149845428Y-69548765D01*
X149869227Y-69542804D01*
X149893495Y-69539204D01*
X149917999Y-69538000D01*
X150818001Y-69538000D01*
X150842505Y-69539204D01*
G37*
G04 #@! TD.AperFunction*
D14*
X153162000Y-77312000D03*
X153162000Y-79312000D03*
X153162000Y-81312000D03*
G04 #@! TA.AperFunction,ComponentPad*
D13*
G36*
X153811505Y-82713204D02*
G01*
X153835773Y-82716804D01*
X153859572Y-82722765D01*
X153882671Y-82731030D01*
X153904850Y-82741520D01*
X153925893Y-82754132D01*
X153945599Y-82768747D01*
X153963777Y-82785223D01*
X153980253Y-82803401D01*
X153994868Y-82823107D01*
X154007480Y-82844150D01*
X154017970Y-82866329D01*
X154026235Y-82889428D01*
X154032196Y-82913227D01*
X154035796Y-82937495D01*
X154037000Y-82961999D01*
X154037000Y-83662001D01*
X154035796Y-83686505D01*
X154032196Y-83710773D01*
X154026235Y-83734572D01*
X154017970Y-83757671D01*
X154007480Y-83779850D01*
X153994868Y-83800893D01*
X153980253Y-83820599D01*
X153963777Y-83838777D01*
X153945599Y-83855253D01*
X153925893Y-83869868D01*
X153904850Y-83882480D01*
X153882671Y-83892970D01*
X153859572Y-83901235D01*
X153835773Y-83907196D01*
X153811505Y-83910796D01*
X153787001Y-83912000D01*
X152536999Y-83912000D01*
X152512495Y-83910796D01*
X152488227Y-83907196D01*
X152464428Y-83901235D01*
X152441329Y-83892970D01*
X152419150Y-83882480D01*
X152398107Y-83869868D01*
X152378401Y-83855253D01*
X152360223Y-83838777D01*
X152343747Y-83820599D01*
X152329132Y-83800893D01*
X152316520Y-83779850D01*
X152306030Y-83757671D01*
X152297765Y-83734572D01*
X152291804Y-83710773D01*
X152288204Y-83686505D01*
X152287000Y-83662001D01*
X152287000Y-82961999D01*
X152288204Y-82937495D01*
X152291804Y-82913227D01*
X152297765Y-82889428D01*
X152306030Y-82866329D01*
X152316520Y-82844150D01*
X152329132Y-82823107D01*
X152343747Y-82803401D01*
X152360223Y-82785223D01*
X152378401Y-82768747D01*
X152398107Y-82754132D01*
X152419150Y-82741520D01*
X152441329Y-82731030D01*
X152464428Y-82722765D01*
X152488227Y-82716804D01*
X152512495Y-82713204D01*
X152536999Y-82712000D01*
X153787001Y-82712000D01*
X153811505Y-82713204D01*
G37*
G04 #@! TD.AperFunction*
D14*
X153162000Y-66390000D03*
X153162000Y-68390000D03*
X153162000Y-70390000D03*
G04 #@! TA.AperFunction,ComponentPad*
D13*
G36*
X153811505Y-71791204D02*
G01*
X153835773Y-71794804D01*
X153859572Y-71800765D01*
X153882671Y-71809030D01*
X153904850Y-71819520D01*
X153925893Y-71832132D01*
X153945599Y-71846747D01*
X153963777Y-71863223D01*
X153980253Y-71881401D01*
X153994868Y-71901107D01*
X154007480Y-71922150D01*
X154017970Y-71944329D01*
X154026235Y-71967428D01*
X154032196Y-71991227D01*
X154035796Y-72015495D01*
X154037000Y-72039999D01*
X154037000Y-72740001D01*
X154035796Y-72764505D01*
X154032196Y-72788773D01*
X154026235Y-72812572D01*
X154017970Y-72835671D01*
X154007480Y-72857850D01*
X153994868Y-72878893D01*
X153980253Y-72898599D01*
X153963777Y-72916777D01*
X153945599Y-72933253D01*
X153925893Y-72947868D01*
X153904850Y-72960480D01*
X153882671Y-72970970D01*
X153859572Y-72979235D01*
X153835773Y-72985196D01*
X153811505Y-72988796D01*
X153787001Y-72990000D01*
X152536999Y-72990000D01*
X152512495Y-72988796D01*
X152488227Y-72985196D01*
X152464428Y-72979235D01*
X152441329Y-72970970D01*
X152419150Y-72960480D01*
X152398107Y-72947868D01*
X152378401Y-72933253D01*
X152360223Y-72916777D01*
X152343747Y-72898599D01*
X152329132Y-72878893D01*
X152316520Y-72857850D01*
X152306030Y-72835671D01*
X152297765Y-72812572D01*
X152291804Y-72788773D01*
X152288204Y-72764505D01*
X152287000Y-72740001D01*
X152287000Y-72039999D01*
X152288204Y-72015495D01*
X152291804Y-71991227D01*
X152297765Y-71967428D01*
X152306030Y-71944329D01*
X152316520Y-71922150D01*
X152329132Y-71901107D01*
X152343747Y-71881401D01*
X152360223Y-71863223D01*
X152378401Y-71846747D01*
X152398107Y-71832132D01*
X152419150Y-71819520D01*
X152441329Y-71809030D01*
X152464428Y-71800765D01*
X152488227Y-71794804D01*
X152512495Y-71791204D01*
X152536999Y-71790000D01*
X153787001Y-71790000D01*
X153811505Y-71791204D01*
G37*
G04 #@! TD.AperFunction*
D18*
X144018000Y-79756000D03*
X142109429Y-85767022D03*
X135128006Y-70358000D03*
X134366000Y-79248000D03*
X145034000Y-74675990D03*
X142350718Y-61070718D03*
X135128000Y-63754000D03*
X142268000Y-72390000D03*
X138430000Y-71786327D03*
X119126000Y-109474000D03*
X145973998Y-75692000D03*
X137151650Y-68046646D03*
X140921982Y-66998663D03*
X134366000Y-77498000D03*
X146680347Y-63631653D03*
X145324990Y-79210936D03*
X140462000Y-70612000D03*
X136291386Y-69124990D03*
X134112000Y-71374000D03*
X130556000Y-71374000D03*
X138598408Y-62315592D03*
X139388929Y-73657070D03*
X149624019Y-71882000D03*
X149483660Y-64298990D03*
X150677103Y-66354446D03*
X148591172Y-68717742D03*
X150383378Y-75933454D03*
X130302000Y-106172000D03*
X147743375Y-69248121D03*
X142530990Y-89408000D03*
X138704995Y-75541506D03*
X133248968Y-86868000D03*
X135675550Y-87415551D03*
X137726134Y-92260137D03*
X129090132Y-100896138D03*
X137160000Y-89662000D03*
X122936000Y-100838000D03*
X136159997Y-89662000D03*
X132842000Y-87884000D03*
X132798957Y-84588783D03*
X132116990Y-83566000D03*
X131152258Y-88066809D03*
X131042698Y-86218946D03*
X130906586Y-85228240D03*
X130702961Y-87173414D03*
X130265000Y-89662000D03*
X129813617Y-80726280D03*
X128364979Y-89428165D03*
X131646577Y-72814737D03*
X132783106Y-72680990D03*
X134116656Y-72394656D03*
X141117199Y-69244518D03*
X139351021Y-67408217D03*
X144463962Y-76436170D03*
X145213264Y-77098416D03*
D19*
X151892000Y-71120000D02*
X153162000Y-72390000D01*
X151489000Y-68063000D02*
X151892000Y-68466000D01*
X151892000Y-68466000D02*
X151892000Y-71120000D01*
X150368000Y-68063000D02*
X151489000Y-68063000D01*
X120763000Y-107967000D02*
X120650000Y-107854000D01*
X120763000Y-109474000D02*
X120763000Y-107967000D01*
X143674978Y-85767022D02*
X142109429Y-85767022D01*
X144385000Y-85057000D02*
X143674978Y-85767022D01*
X144385000Y-84582000D02*
X144385000Y-85057000D01*
X140112990Y-77117778D02*
X140112990Y-74964242D01*
X134605010Y-79746010D02*
X137484758Y-79746010D01*
X140112990Y-74964242D02*
X140736232Y-74341000D01*
X141113000Y-74341000D02*
X141413000Y-74041000D01*
X134333000Y-79474000D02*
X134605010Y-79746010D01*
X137484758Y-79746010D02*
X140112990Y-77117778D01*
X140736232Y-74341000D02*
X141113000Y-74341000D01*
X141413000Y-74041000D02*
X144399010Y-74041000D01*
X144399010Y-74041000D02*
X145034000Y-74675990D01*
X141931846Y-61489590D02*
X142350718Y-61070718D01*
X141931846Y-65259949D02*
X141931846Y-61489590D01*
X133966001Y-64915999D02*
X134728001Y-64153999D01*
X134728001Y-64153999D02*
X135128000Y-63754000D01*
X133966001Y-69163437D02*
X133966001Y-64915999D01*
X135271282Y-70468718D02*
X133966001Y-69163437D01*
X142683000Y-72805000D02*
X142268000Y-72390000D01*
X142683000Y-74041000D02*
X142683000Y-72805000D01*
X142268000Y-72390000D02*
X142268000Y-72390000D01*
X153162000Y-81312000D02*
X153162000Y-79312000D01*
D20*
X118824990Y-100804010D02*
X119775000Y-99854000D01*
X118824990Y-109284237D02*
X118824990Y-100804010D01*
X116619217Y-111490010D02*
X118824990Y-109284237D01*
X80231304Y-111490010D02*
X116619217Y-111490010D01*
X119775000Y-99854000D02*
X120650000Y-99854000D01*
X77421314Y-114300000D02*
X80231304Y-111490010D01*
X76200000Y-114300000D02*
X77421314Y-114300000D01*
D19*
X136398000Y-73818327D02*
X138030001Y-72186326D01*
X136398000Y-74041000D02*
X136398000Y-73818327D01*
X138030001Y-72186326D02*
X138430000Y-71786327D01*
X135488000Y-74041000D02*
X136463000Y-74041000D01*
X134366000Y-75163000D02*
X135488000Y-74041000D01*
X134366000Y-77724000D02*
X134366000Y-75163000D01*
X138430000Y-69324996D02*
X137551649Y-68446645D01*
X137151650Y-66868082D02*
X137151650Y-67480961D01*
X136868784Y-66585216D02*
X137151650Y-66868082D01*
X137151650Y-67480961D02*
X137151650Y-68046646D01*
X138430000Y-71786327D02*
X138430000Y-69324996D01*
X137551649Y-68446645D02*
X137151650Y-68046646D01*
X142775370Y-68852051D02*
X145523949Y-68852051D01*
X140921982Y-66998663D02*
X142775370Y-68852051D01*
X148336000Y-61976000D02*
X148590000Y-61976000D01*
X146680347Y-63631653D02*
X148336000Y-61976000D01*
X145973998Y-75692000D02*
X145973998Y-77363002D01*
X145973998Y-77363002D02*
X145324990Y-78012010D01*
X145324990Y-78645251D02*
X145324990Y-79210936D01*
X145324990Y-78012010D02*
X145324990Y-78645251D01*
D20*
X153629045Y-68390000D02*
X153162000Y-68390000D01*
X155194000Y-82042000D02*
X155194000Y-69954955D01*
X153924000Y-83312000D02*
X155194000Y-82042000D01*
X155194000Y-69954955D02*
X153629045Y-68390000D01*
X152654000Y-83312000D02*
X153924000Y-83312000D01*
D19*
X143891000Y-77851000D02*
X144018000Y-77978000D01*
X141224000Y-77851000D02*
X143891000Y-77851000D01*
X146236000Y-72390000D02*
X144018000Y-72390000D01*
X147574000Y-73728000D02*
X146236000Y-72390000D01*
X147574000Y-76708000D02*
X147574000Y-73728000D01*
X146050000Y-78232000D02*
X147574000Y-76708000D01*
X141478000Y-81661000D02*
X144653000Y-81661000D01*
X144653000Y-81661000D02*
X146050000Y-80264000D01*
X146050000Y-80264000D02*
X146050000Y-78232000D01*
X146871000Y-82931000D02*
X147574000Y-82228000D01*
X141605000Y-82931000D02*
X146871000Y-82931000D01*
X141478000Y-83058000D02*
X141605000Y-82931000D01*
X142494000Y-84074000D02*
X141478000Y-83058000D01*
X142494000Y-84582000D02*
X142494000Y-84074000D01*
X137541000Y-77851000D02*
X139662979Y-75729021D01*
X140112990Y-73694242D02*
X140462000Y-73345232D01*
X140112990Y-74327831D02*
X140112990Y-73694242D01*
X140462000Y-72915000D02*
X140462000Y-72390000D01*
X136398000Y-77851000D02*
X137541000Y-77851000D01*
X139662979Y-75729021D02*
X139662979Y-74777842D01*
X139662979Y-74777842D02*
X140112990Y-74327831D01*
X140462000Y-73345232D02*
X140462000Y-72915000D01*
X135891387Y-68724991D02*
X136291386Y-69124990D01*
X135419216Y-68252820D02*
X135891387Y-68724991D01*
X135419216Y-68034784D02*
X135419216Y-68252820D01*
X134677685Y-71374000D02*
X130556000Y-71374000D01*
X134112000Y-71374000D02*
X134677685Y-71374000D01*
X138598408Y-66841997D02*
X138626011Y-66869600D01*
X138626011Y-66869600D02*
X138626011Y-67998760D01*
X139788928Y-73037438D02*
X139788928Y-73257071D01*
X139661990Y-72910500D02*
X139788928Y-73037438D01*
X138626011Y-67998760D02*
X139661990Y-69034739D01*
X138598408Y-62315592D02*
X138598408Y-66841997D01*
X139661990Y-69034739D02*
X139661990Y-72910500D01*
X139788928Y-73257071D02*
X139388929Y-73657070D01*
X149624019Y-71882000D02*
X149624019Y-71306606D01*
X148125238Y-70702988D02*
X146812000Y-69389750D01*
X146812000Y-69389750D02*
X146812000Y-68209718D01*
X146812000Y-68209718D02*
X145792908Y-67190626D01*
X148241325Y-64298990D02*
X148917975Y-64298990D01*
X145792908Y-66747407D02*
X148241325Y-64298990D01*
X148917975Y-64298990D02*
X149483660Y-64298990D01*
X149020401Y-70702988D02*
X148125238Y-70702988D01*
X149624019Y-71306606D02*
X149020401Y-70702988D01*
X145792908Y-67190626D02*
X145792908Y-66747407D01*
X151130000Y-65901549D02*
X150677103Y-66354446D01*
X151130000Y-61976000D02*
X151130000Y-65901549D01*
X148991171Y-68317743D02*
X148591172Y-68717742D01*
X149954999Y-63697327D02*
X150208661Y-63950989D01*
X149954999Y-60611001D02*
X149954999Y-63697327D01*
X151130000Y-59436000D02*
X149954999Y-60611001D01*
X150208661Y-63950989D02*
X150208662Y-64732342D01*
X150208662Y-64732342D02*
X148991171Y-65949833D01*
X148991171Y-65949833D02*
X148991171Y-68317743D01*
X156269010Y-82487283D02*
X156269010Y-66314012D01*
X152208717Y-84387010D02*
X154369283Y-84387010D01*
X154369283Y-84387010D02*
X156269010Y-82487283D01*
X156269010Y-66314012D02*
X153670000Y-63715002D01*
X149352000Y-81530293D02*
X152208717Y-84387010D01*
X153670000Y-63715002D02*
X153670000Y-61976000D01*
X149352000Y-76964832D02*
X149352000Y-81530293D01*
X150383378Y-75933454D02*
X149352000Y-76964832D01*
X130251988Y-105187142D02*
X127570529Y-107868601D01*
X130251988Y-100759601D02*
X130251988Y-105187142D01*
X141478000Y-79121000D02*
X140968589Y-79121000D01*
X140968589Y-79121000D02*
X139662979Y-80426610D01*
X127570529Y-107868601D02*
X123889471Y-107868601D01*
X123889471Y-107868601D02*
X122954870Y-106934000D01*
X139662979Y-80426610D02*
X139662979Y-91348611D01*
X121775000Y-103854000D02*
X120650000Y-103854000D01*
X139662979Y-91348611D02*
X130251988Y-100759601D01*
X122954870Y-105033870D02*
X121775000Y-103854000D01*
X122954870Y-106934000D02*
X122954870Y-105033870D01*
X130701999Y-105772001D02*
X130302000Y-106172000D01*
X140404011Y-91243989D02*
X130701999Y-100946001D01*
X140404011Y-83568779D02*
X140404011Y-91243989D01*
X140391242Y-82305990D02*
X140112990Y-82584242D01*
X140391242Y-82286010D02*
X140391242Y-82305990D01*
X140112990Y-81314242D02*
X140112990Y-82007758D01*
X141036232Y-80391000D02*
X140112990Y-81314242D01*
X140112990Y-82007758D02*
X140391242Y-82286010D01*
X130701999Y-100946001D02*
X130701999Y-105772001D01*
X141478000Y-80391000D02*
X141036232Y-80391000D01*
X140112990Y-83277758D02*
X140404011Y-83568779D01*
X140112990Y-82584242D02*
X140112990Y-83277758D01*
X148608254Y-70113000D02*
X147743375Y-69248121D01*
X150368000Y-70113000D02*
X148608254Y-70113000D01*
X134819994Y-61590591D02*
X138946409Y-61590591D01*
X140076022Y-67060216D02*
X140076022Y-67178022D01*
X132936987Y-65437013D02*
X132936987Y-63473598D01*
X125648601Y-67391399D02*
X130982601Y-67391399D01*
X144229002Y-89408000D02*
X142530990Y-89408000D01*
X130982601Y-67391399D02*
X132936987Y-65437013D01*
X140076022Y-67178022D02*
X142351509Y-69453509D01*
X124460000Y-68580000D02*
X125648601Y-67391399D01*
X139700000Y-62344182D02*
X139700000Y-66684194D01*
X142351509Y-69453509D02*
X142351509Y-71152999D01*
X142351509Y-71152999D02*
X148834001Y-71152999D01*
X138946409Y-61590591D02*
X139700000Y-62344182D01*
X139700000Y-66684194D02*
X140076022Y-67060216D01*
X148899001Y-71217999D02*
X148899001Y-84738001D01*
X148834001Y-71152999D02*
X148899001Y-71217999D01*
X132936987Y-63473598D02*
X134819994Y-61590591D01*
X148899001Y-84738001D02*
X144229002Y-89408000D01*
X138304996Y-75141507D02*
X138304996Y-72984333D01*
X134457413Y-63028998D02*
X133386998Y-64099412D01*
X128221314Y-68580000D02*
X127000000Y-68580000D01*
X138704995Y-75541506D02*
X138304996Y-75141507D01*
X138304996Y-72984333D02*
X139155001Y-72134328D01*
X130430411Y-68580000D02*
X128221314Y-68580000D01*
X138176000Y-68185160D02*
X138176000Y-67056000D01*
X133386998Y-65623413D02*
X130430411Y-68580000D01*
X133386998Y-64099412D02*
X133386998Y-65623413D01*
X137991802Y-66871802D02*
X137991802Y-65544798D01*
X139155001Y-72134328D02*
X139155001Y-69164161D01*
X138176000Y-67056000D02*
X137991802Y-66871802D01*
X137991802Y-65544798D02*
X135476002Y-63028998D01*
X139155001Y-69164161D02*
X138176000Y-68185160D01*
X135476002Y-63028998D02*
X134457413Y-63028998D01*
X132080000Y-74440870D02*
X132080000Y-81280000D01*
X132080000Y-81280000D02*
X133523967Y-82723967D01*
X133523967Y-86027316D02*
X133248968Y-86302315D01*
X125648601Y-69931399D02*
X127570529Y-69931399D01*
X127570529Y-69931399D02*
X132080000Y-74440870D01*
X133523967Y-82723967D02*
X133523967Y-86027316D01*
X133248968Y-86302315D02*
X133248968Y-86868000D01*
X124460000Y-71120000D02*
X125648601Y-69931399D01*
X138126133Y-91860138D02*
X137726134Y-92260137D01*
X136241235Y-87415551D02*
X138126133Y-89300449D01*
X138126133Y-89300449D02*
X138126133Y-91860138D01*
X135675550Y-87415551D02*
X136241235Y-87415551D01*
X127570529Y-105328601D02*
X123889471Y-105328601D01*
X123889471Y-105328601D02*
X121920000Y-103359130D01*
X129490131Y-101296137D02*
X129490131Y-103408999D01*
X129490131Y-103408999D02*
X127570529Y-105328601D01*
X129090132Y-100896138D02*
X129490131Y-101296137D01*
X126136401Y-71983599D02*
X127000000Y-71120000D01*
X124052269Y-72308601D02*
X125811399Y-72308601D01*
X125811399Y-72308601D02*
X126136401Y-71983599D01*
X121781980Y-74578890D02*
X124052269Y-72308601D01*
X121781980Y-98777520D02*
X121781980Y-74578890D01*
X121920000Y-98915540D02*
X121781980Y-98777520D01*
X121920000Y-103359130D02*
X121920000Y-98915540D01*
X137160000Y-91753268D02*
X128365131Y-100548137D01*
X127450998Y-102870000D02*
X123894315Y-102870000D01*
X137160000Y-89662000D02*
X137160000Y-91753268D01*
X128365131Y-101955867D02*
X127450998Y-102870000D01*
X122936000Y-101911685D02*
X122936000Y-101403685D01*
X128365131Y-100548137D02*
X128365131Y-101955867D01*
X123894315Y-102870000D02*
X122936000Y-101911685D01*
X122936000Y-101403685D02*
X122936000Y-100838000D01*
X126136401Y-75336401D02*
X127000000Y-76200000D01*
X125811399Y-75011399D02*
X126136401Y-75336401D01*
X123889471Y-75011399D02*
X125811399Y-75011399D01*
X122231990Y-76668880D02*
X123889471Y-75011399D01*
X124052269Y-100411399D02*
X122231990Y-98591120D01*
X127570529Y-100411399D02*
X124052269Y-100411399D01*
X122231990Y-98591120D02*
X122231990Y-76668880D01*
X135759998Y-90061999D02*
X135759998Y-92221930D01*
X135759998Y-92221930D02*
X127570529Y-100411399D01*
X136159997Y-89662000D02*
X135759998Y-90061999D01*
X130804257Y-88791810D02*
X131622505Y-88791810D01*
X132130316Y-88283999D02*
X132442001Y-88283999D01*
X127000000Y-88900000D02*
X127392340Y-88507660D01*
X131622505Y-88791810D02*
X132130316Y-88283999D01*
X130520107Y-88507660D02*
X130804257Y-88791810D01*
X132442001Y-88283999D02*
X132842000Y-87884000D01*
X127392340Y-88507660D02*
X130520107Y-88507660D01*
X132798957Y-84023098D02*
X132798957Y-84588783D01*
X124460000Y-78740000D02*
X125648601Y-77551399D01*
X125648601Y-77551399D02*
X128348151Y-77551399D01*
X128348151Y-77551399D02*
X130988650Y-80191898D01*
X133052957Y-83769098D02*
X132798957Y-84023098D01*
X130988650Y-81012650D02*
X133052957Y-83076957D01*
X133052957Y-83076957D02*
X133052957Y-83769098D01*
X130988650Y-80191898D02*
X130988650Y-81012650D01*
X130538619Y-80378278D02*
X130538619Y-81987629D01*
X128141590Y-78740000D02*
X129402868Y-80001278D01*
X127000000Y-78740000D02*
X128141590Y-78740000D01*
X130538619Y-81987629D02*
X131716991Y-83166001D01*
X131716991Y-83166001D02*
X132116990Y-83566000D01*
X130161619Y-80001278D02*
X130538619Y-80378278D01*
X129402868Y-80001278D02*
X130161619Y-80001278D01*
X124460000Y-83820000D02*
X123271399Y-85008601D01*
X123271399Y-85008601D02*
X123271399Y-86930529D01*
X123889471Y-87548601D02*
X127407731Y-87548601D01*
X131143099Y-88057650D02*
X131152258Y-88066809D01*
X127916780Y-88057650D02*
X131143099Y-88057650D01*
X123271399Y-86930529D02*
X123889471Y-87548601D01*
X127407731Y-87548601D02*
X127916780Y-88057650D01*
X130821377Y-86218946D02*
X131042698Y-86218946D01*
X127000000Y-83820000D02*
X128422431Y-83820000D01*
X128422431Y-83820000D02*
X130821377Y-86218946D01*
X126566700Y-82494170D02*
X128172516Y-82494170D01*
X125648601Y-85171399D02*
X125648601Y-83412269D01*
X128172516Y-82494170D02*
X130506587Y-84828241D01*
X124460000Y-86360000D02*
X125648601Y-85171399D01*
X130506587Y-84828241D02*
X130906586Y-85228240D01*
X125648601Y-83412269D02*
X126566700Y-82494170D01*
X129889547Y-86360000D02*
X130702961Y-87173414D01*
X127000000Y-86360000D02*
X129889547Y-86360000D01*
X125323599Y-92303599D02*
X124460000Y-91440000D01*
X127570529Y-92628601D02*
X125648601Y-92628601D01*
X129865001Y-90334129D02*
X127570529Y-92628601D01*
X129865001Y-90061999D02*
X129865001Y-90334129D01*
X125648601Y-92628601D02*
X125323599Y-92303599D01*
X130265000Y-89662000D02*
X129865001Y-90061999D01*
X129247932Y-80726280D02*
X129813617Y-80726280D01*
X122682000Y-83566000D02*
X123779399Y-82468601D01*
X125648601Y-81850529D02*
X125648601Y-80872269D01*
X125030529Y-90251399D02*
X124052269Y-90251399D01*
X125030529Y-82468601D02*
X125648601Y-81850529D01*
X123779399Y-82468601D02*
X125030529Y-82468601D01*
X128573889Y-80052237D02*
X129247932Y-80726280D01*
X126219130Y-91440000D02*
X125030529Y-90251399D01*
X126468633Y-80052237D02*
X128573889Y-80052237D01*
X124052269Y-90251399D02*
X122682000Y-88881130D01*
X122682000Y-88881130D02*
X122682000Y-83566000D01*
X125648601Y-80872269D02*
X126468633Y-80052237D01*
X127000000Y-91440000D02*
X126219130Y-91440000D01*
X125730004Y-90170004D02*
X127623140Y-90170004D01*
X127964980Y-89828164D02*
X128364979Y-89428165D01*
X124460000Y-88900000D02*
X125730004Y-90170004D01*
X127623140Y-90170004D02*
X127964980Y-89828164D01*
X132665970Y-80141297D02*
X132665970Y-73834130D01*
X133973978Y-81449307D02*
X132665970Y-80141297D01*
X133444001Y-88863001D02*
X133973978Y-88333024D01*
X133973978Y-88333024D02*
X133973978Y-81449307D01*
X132046576Y-73214736D02*
X131646577Y-72814737D01*
X127863599Y-93116401D02*
X128183921Y-93116401D01*
X128183921Y-93116401D02*
X132437321Y-88863001D01*
X127000000Y-93980000D02*
X127863599Y-93116401D01*
X132437321Y-88863001D02*
X133444001Y-88863001D01*
X132665970Y-73834130D02*
X132046576Y-73214736D01*
X133426118Y-89313012D02*
X133630401Y-89313012D01*
X133630401Y-89313012D02*
X134423989Y-88519424D01*
X133115981Y-79954897D02*
X133115981Y-76791099D01*
X133465979Y-76441101D02*
X133465979Y-73363863D01*
X133465979Y-73363863D02*
X133183105Y-73080989D01*
X134423989Y-81262905D02*
X133115981Y-79954897D01*
X124460000Y-96520000D02*
X125648601Y-95331399D01*
X134423989Y-88519424D02*
X134423989Y-81262905D01*
X125648601Y-95331399D02*
X127407731Y-95331399D01*
X133183105Y-73080989D02*
X132783106Y-72680990D01*
X127407731Y-95331399D02*
X133426118Y-89313012D01*
X133115981Y-76791099D02*
X133465979Y-76441101D01*
X133915990Y-76627501D02*
X133915990Y-73161007D01*
X133565992Y-76977499D02*
X133915990Y-76627501D01*
X133915990Y-73161007D02*
X134116656Y-72960341D01*
X134874000Y-81076505D02*
X133565992Y-79768497D01*
X124460000Y-99060000D02*
X125811399Y-97708601D01*
X134116656Y-72960341D02*
X134116656Y-72394656D01*
X127570529Y-97708601D02*
X134874000Y-90405130D01*
X125811399Y-97708601D02*
X127570529Y-97708601D01*
X134874000Y-90405130D02*
X134874000Y-81076505D01*
X133565992Y-79768497D02*
X133565992Y-76977499D01*
X139351021Y-67478340D02*
X139351021Y-67408217D01*
X141117199Y-69244518D02*
X139351021Y-67478340D01*
X141413000Y-76581000D02*
X144319132Y-76581000D01*
X144319132Y-76581000D02*
X144463962Y-76436170D01*
X144399000Y-75311000D02*
X145213264Y-76125264D01*
X145213264Y-76125264D02*
X145213264Y-76532731D01*
X145213264Y-76532731D02*
X145213264Y-77098416D01*
X141413000Y-75311000D02*
X144399000Y-75311000D01*
M02*
