(module Arduino_Mega2560_Shield (layer F.Cu) (tedit 5EE27B04)
  (descr https://store.arduino.cc/arduino-mega-2560-rev3)
  (attr virtual)
  (fp_text reference XAController1 (at 2.54 -54.356) (layer F.SilkS) hide
    (effects (font (size 1 1) (thickness 0.15)))
  )
  (fp_text value Arduino_Mega2560_Shield (at 1.524 -58.42) (layer F.Fab) hide
    (effects (font (size 1 1) (thickness 0.15)))
  )
  (fp_line (start 11.43 -12.065) (end 11.43 -3.175) (layer B.CrtYd) (width 0.15))
  (fp_line (start -6.35 -43.815) (end -6.35 -32.385) (layer B.CrtYd) (width 0.15))
  (fp_line (start 9.525 -43.815) (end 9.525 -32.385) (layer B.CrtYd) (width 0.15))
  (pad GND6 thru_hole oval (at 96.52 -7.62) (size 1.7272 1.7272) (drill 1.016) (layers *.Cu *.Mask))
  (pad GND5 thru_hole oval (at 93.98 -7.62) (size 1.7272 1.7272) (drill 1.016) (layers *.Cu *.Mask))
  (pad D53 thru_hole oval (at 96.52 -10.16) (size 1.7272 1.7272) (drill 1.016) (layers *.Cu *.Mask))
  (pad D52 thru_hole oval (at 93.98 -10.16) (size 1.7272 1.7272) (drill 1.016) (layers *.Cu *.Mask))
  (pad D51 thru_hole oval (at 96.52 -12.7) (size 1.7272 1.7272) (drill 1.016) (layers *.Cu *.Mask))
  (pad D50 thru_hole oval (at 93.98 -12.7) (size 1.7272 1.7272) (drill 1.016) (layers *.Cu *.Mask))
  (pad D49 thru_hole oval (at 96.52 -15.24) (size 1.7272 1.7272) (drill 1.016) (layers *.Cu *.Mask))
  (pad D48 thru_hole oval (at 93.98 -15.24) (size 1.7272 1.7272) (drill 1.016) (layers *.Cu *.Mask))
  (pad D47 thru_hole oval (at 96.52 -17.78) (size 1.7272 1.7272) (drill 1.016) (layers *.Cu *.Mask))
  (pad D46 thru_hole oval (at 93.98 -17.78) (size 1.7272 1.7272) (drill 1.016) (layers *.Cu *.Mask))
  (pad D45 thru_hole oval (at 96.52 -20.32) (size 1.7272 1.7272) (drill 1.016) (layers *.Cu *.Mask))
  (pad D44 thru_hole oval (at 93.98 -20.32) (size 1.7272 1.7272) (drill 1.016) (layers *.Cu *.Mask))
  (pad D43 thru_hole oval (at 96.52 -22.86) (size 1.7272 1.7272) (drill 1.016) (layers *.Cu *.Mask))
  (pad D42 thru_hole oval (at 93.98 -22.86) (size 1.7272 1.7272) (drill 1.016) (layers *.Cu *.Mask))
  (pad D41 thru_hole oval (at 96.52 -25.4) (size 1.7272 1.7272) (drill 1.016) (layers *.Cu *.Mask))
  (pad D40 thru_hole oval (at 93.98 -25.4) (size 1.7272 1.7272) (drill 1.016) (layers *.Cu *.Mask))
  (pad D39 thru_hole oval (at 96.52 -27.94) (size 1.7272 1.7272) (drill 1.016) (layers *.Cu *.Mask))
  (pad D38 thru_hole oval (at 93.98 -27.94) (size 1.7272 1.7272) (drill 1.016) (layers *.Cu *.Mask))
  (pad D37 thru_hole oval (at 96.52 -30.48) (size 1.7272 1.7272) (drill 1.016) (layers *.Cu *.Mask))
  (pad D36 thru_hole oval (at 93.98 -30.48) (size 1.7272 1.7272) (drill 1.016) (layers *.Cu *.Mask))
  (pad D35 thru_hole oval (at 96.52 -33.02) (size 1.7272 1.7272) (drill 1.016) (layers *.Cu *.Mask))
  (pad D34 thru_hole oval (at 93.98 -33.02) (size 1.7272 1.7272) (drill 1.016) (layers *.Cu *.Mask))
  (pad D33 thru_hole oval (at 96.52 -35.56) (size 1.7272 1.7272) (drill 1.016) (layers *.Cu *.Mask))
  (pad D32 thru_hole oval (at 93.98 -35.56) (size 1.7272 1.7272) (drill 1.016) (layers *.Cu *.Mask))
  (pad D31 thru_hole oval (at 96.52 -38.1) (size 1.7272 1.7272) (drill 1.016) (layers *.Cu *.Mask))
  (pad D30 thru_hole oval (at 93.98 -38.1) (size 1.7272 1.7272) (drill 1.016) (layers *.Cu *.Mask))
  (pad D29 thru_hole oval (at 96.52 -40.64) (size 1.7272 1.7272) (drill 1.016) (layers *.Cu *.Mask))
  (pad D28 thru_hole oval (at 93.98 -40.64) (size 1.7272 1.7272) (drill 1.016) (layers *.Cu *.Mask))
  (pad D27 thru_hole oval (at 96.52 -43.18) (size 1.7272 1.7272) (drill 1.016) (layers *.Cu *.Mask))
  (pad D26 thru_hole oval (at 93.98 -43.18) (size 1.7272 1.7272) (drill 1.016) (layers *.Cu *.Mask))
  (pad D25 thru_hole oval (at 96.52 -45.72) (size 1.7272 1.7272) (drill 1.016) (layers *.Cu *.Mask))
  (pad D24 thru_hole oval (at 93.98 -45.72) (size 1.7272 1.7272) (drill 1.016) (layers *.Cu *.Mask))
  (pad D23 thru_hole oval (at 96.52 -48.26) (size 1.7272 1.7272) (drill 1.016) (layers *.Cu *.Mask))
  (pad D22 thru_hole oval (at 93.98 -48.26) (size 1.7272 1.7272) (drill 1.016) (layers *.Cu *.Mask))
  (pad 5V4 thru_hole oval (at 96.52 -50.8) (size 1.7272 1.7272) (drill 1.016) (layers *.Cu *.Mask))
  (pad 5V3 thru_hole oval (at 93.98 -50.8) (size 1.7272 1.7272) (drill 1.016) (layers *.Cu *.Mask))
  (pad "" thru_hole oval (at 27.94 -2.54) (size 1.7272 1.7272) (drill 1.016) (layers *.Cu *.Mask))
  (pad D11 thru_hole oval (at 34.036 -50.8) (size 1.7272 1.7272) (drill 1.016) (layers *.Cu *.Mask))
  (pad D12 thru_hole oval (at 31.496 -50.8) (size 1.7272 1.7272) (drill 1.016) (layers *.Cu *.Mask))
  (pad D13 thru_hole oval (at 28.956 -50.8) (size 1.7272 1.7272) (drill 1.016) (layers *.Cu *.Mask))
  (pad AREF thru_hole oval (at 23.876 -50.8) (size 1.7272 1.7272) (drill 1.016) (layers *.Cu *.Mask))
  (pad D10 thru_hole oval (at 36.576 -50.8) (size 1.7272 1.7272) (drill 1.016) (layers *.Cu *.Mask))
  (pad D9 thru_hole oval (at 39.116 -50.8) (size 1.7272 1.7272) (drill 1.016) (layers *.Cu *.Mask))
  (pad D8 thru_hole oval (at 41.656 -50.8) (size 1.7272 1.7272) (drill 1.016) (layers *.Cu *.Mask))
  (pad GND1 thru_hole oval (at 26.416 -50.8) (size 1.7272 1.7272) (drill 1.016) (layers *.Cu *.Mask))
  (pad D7 thru_hole oval (at 45.72 -50.8) (size 1.7272 1.7272) (drill 1.016) (layers *.Cu *.Mask))
  (pad D6 thru_hole oval (at 48.26 -50.8) (size 1.7272 1.7272) (drill 1.016) (layers *.Cu *.Mask))
  (pad D5 thru_hole oval (at 50.8 -50.8) (size 1.7272 1.7272) (drill 1.016) (layers *.Cu *.Mask))
  (pad D4 thru_hole oval (at 53.34 -50.8) (size 1.7272 1.7272) (drill 1.016) (layers *.Cu *.Mask))
  (pad D3 thru_hole oval (at 55.88 -50.8) (size 1.7272 1.7272) (drill 1.016) (layers *.Cu *.Mask))
  (pad D2 thru_hole oval (at 58.42 -50.8) (size 1.7272 1.7272) (drill 1.016) (layers *.Cu *.Mask))
  (pad D1 thru_hole oval (at 60.96 -50.8) (size 1.7272 1.7272) (drill 1.016) (layers *.Cu *.Mask))
  (pad D0 thru_hole oval (at 63.5 -50.8) (size 1.7272 1.7272) (drill 1.016) (layers *.Cu *.Mask))
  (pad IORF thru_hole oval (at 30.48 -2.54) (size 1.7272 1.7272) (drill 1.016) (layers *.Cu *.Mask))
  (pad RST1 thru_hole oval (at 33.02 -2.54) (size 1.7272 1.7272) (drill 1.016) (layers *.Cu *.Mask))
  (pad 3V3 thru_hole oval (at 35.56 -2.54) (size 1.7272 1.7272) (drill 1.016) (layers *.Cu *.Mask))
  (pad 5V1 thru_hole oval (at 38.1 -2.54) (size 1.7272 1.7272) (drill 1.016) (layers *.Cu *.Mask))
  (pad GND2 thru_hole oval (at 40.64 -2.54) (size 1.7272 1.7272) (drill 1.016) (layers *.Cu *.Mask))
  (pad GND3 thru_hole oval (at 43.18 -2.54) (size 1.7272 1.7272) (drill 1.016) (layers *.Cu *.Mask))
  (pad VIN thru_hole oval (at 45.72 -2.54) (size 1.7272 1.7272) (drill 1.016) (layers *.Cu *.Mask))
)
