(module brookpcba (layer F.Cu) (tedit 5EE7D81B)
  (fp_text reference REF** (at -27.24 5.64) (layer F.SilkS)
    (effects (font (size 1 1) (thickness 0.15)))
  )
  (fp_text value brookpcba (at -27.24 4.64) (layer F.Fab)
    (effects (font (size 1 1) (thickness 0.15)))
  )
  (pad "" np_thru_hole circle (at -23.94 -25.91) (size 2 2) (drill 2) (layers *.Cu *.Mask))
  (pad "" np_thru_hole circle (at -0.86 -25.944) (size 2 2) (drill 2) (layers *.Cu *.Mask))
  (pad "" np_thru_hole circle (at 0.01 5.73) (size 2 2) (drill 2) (layers *.Cu *.Mask))
  (pad GND thru_hole circle (at -4.16 -26.26) (size 1.6 1.6) (drill 0.8) (layers *.Cu *.Mask))
  (pad Options thru_hole circle (at -6.16 -26.26) (size 1.6 1.6) (drill 0.8) (layers *.Cu *.Mask))
  (pad D_Right thru_hole circle (at -8.16 -26.26) (size 1.6 1.6) (drill 0.8) (layers *.Cu *.Mask))
  (pad D_Left thru_hole circle (at -10.16 -26.26) (size 1.6 1.6) (drill 0.8) (layers *.Cu *.Mask))
  (pad D_Down thru_hole circle (at -12.16 -26.26) (size 1.6 1.6) (drill 0.8) (layers *.Cu *.Mask))
  (pad D_Up thru_hole circle (at -14.16 -26.26) (size 1.6 1.6) (drill 0.8) (layers *.Cu *.Mask))
  (pad L3 thru_hole circle (at -16.16 -26.26) (size 1.6 1.6) (drill 0.8) (layers *.Cu *.Mask))
  (pad L1 thru_hole circle (at -18.16 -26.26) (size 1.6 1.6) (drill 0.8) (layers *.Cu *.Mask))
  (pad PS_KEY thru_hole rect (at -20.16 -26.26) (size 1.6 1.6) (drill 0.8) (layers *.Cu *.Mask))
  (pad GND thru_hole circle (at 0 -8.01) (size 1.6 1.6) (drill 0.8) (layers *.Cu *.Mask))
  (pad GND thru_hole circle (at 0 -6.01) (size 1.6 1.6) (drill 0.8) (layers *.Cu *.Mask))
  (pad D+ thru_hole circle (at 0 -4.01) (size 1.6 1.6) (drill 0.8) (layers *.Cu *.Mask))
  (pad D- thru_hole circle (at 0 -2.01) (size 1.6 1.6) (drill 0.8) (layers *.Cu *.Mask))
  (pad VDD_5V thru_hole rect (at 0 -0.01) (size 1.6 1.6) (drill 0.8) (layers *.Cu *.Mask))
  (pad GND thru_hole circle (at 1.29 8.93) (size 1.6 1.6) (drill 0.8) (layers *.Cu *.Mask))
  (pad R1 thru_hole circle (at -0.71 8.93) (size 1.6 1.6) (drill 0.8) (layers *.Cu *.Mask))
  (pad R3 thru_hole circle (at -2.71 8.93) (size 1.6 1.6) (drill 0.8) (layers *.Cu *.Mask))
  (pad Triangle thru_hole circle (at -4.71 8.93) (size 1.6 1.6) (drill 0.8) (layers *.Cu *.Mask))
  (pad Square thru_hole circle (at -6.71 8.93) (size 1.6 1.6) (drill 0.8) (layers *.Cu *.Mask))
  (pad Circle thru_hole circle (at -8.71 8.93) (size 1.6 1.6) (drill 0.8) (layers *.Cu *.Mask))
  (pad Cross thru_hole circle (at -10.71 8.93) (size 1.6 1.6) (drill 0.8) (layers *.Cu *.Mask))
  (pad Share thru_hole rect (at -12.71 8.93) (size 1.6 1.6) (drill 0.8) (layers *.Cu *.Mask))
  (pad GND thru_hole circle (at -15.25 8.93) (size 1.6 1.6) (drill 0.8) (layers *.Cu *.Mask))
  (pad R2 thru_hole circle (at -17.25 8.93) (size 1.6 1.6) (drill 0.8) (layers *.Cu *.Mask))
  (pad ADC_Ry thru_hole circle (at -19.25 8.93) (size 1.6 1.6) (drill 0.8) (layers *.Cu *.Mask))
  (pad ADC_Rx thru_hole circle (at -21.25 8.93) (size 1.6 1.6) (drill 0.8) (layers *.Cu *.Mask))
  (pad ADC_Ly thru_hole circle (at -23.25 8.93) (size 1.6 1.6) (drill 0.8) (layers *.Cu *.Mask))
  (pad ADC_Lx thru_hole circle (at -25.25 8.93) (size 1.6 1.6) (drill 0.8) (layers *.Cu *.Mask))
  (pad L2 thru_hole circle (at -27.25 8.93) (size 1.6 1.6) (drill 0.8) (layers *.Cu *.Mask))
  (pad VDD_3.3V thru_hole rect (at -29.25 8.93) (size 1.6 1.6) (drill 0.8) (layers *.Cu *.Mask))
  (pad TPKey thru_hole circle (at -33.59 -26.9) (size 1.6 1.6) (drill 0.8) (layers *.Cu *.Mask))
  (pad GND thru_hole circle (at -33.59 -24.9) (size 1.6 1.6) (drill 0.8) (layers *.Cu *.Mask))
  (pad LED_G thru_hole circle (at -33.59 2.69) (size 1.6 1.6) (drill 0.8) (layers *.Cu *.Mask))
  (pad LED_R thru_hole circle (at -33.59 4.69) (size 1.6 1.6) (drill 0.8) (layers *.Cu *.Mask))
  (pad LED_B thru_hole circle (at -33.59 6.69) (size 1.6 1.6) (drill 0.8) (layers *.Cu *.Mask))
  (pad VDD_5V thru_hole rect (at -33.59 8.69) (size 1.6 1.6) (drill 0.8) (layers *.Cu *.Mask))
  (model ${KIPRJMOD}/brookpins.step
    (offset (xyz -3.4 -173.3 0))
    (scale (xyz 1 1 1))
    (rotate (xyz 90 0 -90))
  )
)
