EESchema Schematic File Version 4
EELAYER 30 0
EELAYER END
$Descr A4 11693 8268
encoding utf-8
Sheet 1 1
Title ""
Date ""
Rev ""
Comp ""
Comment1 ""
Comment2 ""
Comment3 ""
Comment4 ""
$EndDescr
$Comp
L Connector_Generic:Conn_02x10_Odd_Even J2
U 1 1 5D980C92
P 8600 4750
F 0 "J2" H 8650 5367 50  0000 C CNN
F 1 "Conn_02x10_Odd_Even" H 8650 5276 50  0000 C CNN
F 2 "Connector_IDC:IDC-Header_2x10_P2.54mm_Vertical" H 8600 4750 50  0001 C CNN
F 3 "~" H 8600 4750 50  0001 C CNN
	1    8600 4750
	1    0    0    -1  
$EndComp
$Comp
L power:VCC #PWR0101
U 1 1 5D98A1FB
P 8900 5250
F 0 "#PWR0101" H 8900 5100 50  0001 C CNN
F 1 "VCC" V 8917 5378 50  0000 L CNN
F 2 "" H 8900 5250 50  0001 C CNN
F 3 "" H 8900 5250 50  0001 C CNN
	1    8900 5250
	0    1    1    0   
$EndComp
$Comp
L power:GND #PWR0102
U 1 1 5D98AB92
P 8900 5150
F 0 "#PWR0102" H 8900 4900 50  0001 C CNN
F 1 "GND" V 8905 5022 50  0000 R CNN
F 2 "" H 8900 5150 50  0001 C CNN
F 3 "" H 8900 5150 50  0001 C CNN
	1    8900 5150
	0    -1   -1   0   
$EndComp
$Comp
L power:GND #PWR0103
U 1 1 5D98B5CE
P 8400 5150
F 0 "#PWR0103" H 8400 4900 50  0001 C CNN
F 1 "GND" V 8405 5022 50  0000 R CNN
F 2 "" H 8400 5150 50  0001 C CNN
F 3 "" H 8400 5150 50  0001 C CNN
	1    8400 5150
	0    1    1    0   
$EndComp
Text GLabel 8900 5050 2    50   Input ~ 0
L2
Text GLabel 8400 5050 0    50   Input ~ 0
R2
Text GLabel 8400 4950 0    50   Input ~ 0
X
Text GLabel 8400 4850 0    50   Input ~ 0
L1
Text GLabel 8400 4750 0    50   Input ~ 0
Triangle
Text GLabel 8400 4650 0    50   Input ~ 0
Options
Text GLabel 8400 4550 0    50   Input ~ 0
Share
Text GLabel 8400 4450 0    50   Input ~ 0
Right
Text GLabel 8400 4350 0    50   Input ~ 0
Up
Text GLabel 8900 4350 2    50   Input ~ 0
Down
Text GLabel 8900 4450 2    50   Input ~ 0
Left
Text GLabel 8900 4550 2    50   Input ~ 0
PS
Text GLabel 8900 4650 2    50   Input ~ 0
Square
Text GLabel 8900 4750 2    50   Input ~ 0
R1
$Comp
L power:GND #PWR0104
U 1 1 5D98E75D
P 8900 4850
F 0 "#PWR0104" H 8900 4600 50  0001 C CNN
F 1 "GND" V 8905 4722 50  0000 R CNN
F 2 "" H 8900 4850 50  0001 C CNN
F 3 "" H 8900 4850 50  0001 C CNN
	1    8900 4850
	0    -1   -1   0   
$EndComp
Text GLabel 8900 4950 2    50   Input ~ 0
Circle
Text GLabel 9650 4350 0    50   Input ~ 0
LED_P1
Text GLabel 9650 4450 0    50   Input ~ 0
LED_P2
Text GLabel 9650 4550 0    50   Input ~ 0
LED_P3
Text GLabel 9650 4650 0    50   Input ~ 0
LED_P4
Text GLabel 10150 4350 2    50   Input ~ 0
TPKey
Text GLabel 10150 4750 2    50   Input ~ 0
Rx
Text GLabel 10150 4850 2    50   Input ~ 0
Ry
Text GLabel 10150 4950 2    50   Input ~ 0
Lx
Text GLabel 10150 5050 2    50   Input ~ 0
Ly
$Comp
L power:VCC #PWR0105
U 1 1 5D988F57
P 8400 5250
F 0 "#PWR0105" H 8400 5100 50  0001 C CNN
F 1 "VCC" V 8418 5377 50  0000 L CNN
F 2 "" H 8400 5250 50  0001 C CNN
F 3 "" H 8400 5250 50  0001 C CNN
	1    8400 5250
	0    -1   -1   0   
$EndComp
$Comp
L Connector_Generic:Conn_02x10_Odd_Even J1
U 1 1 5D986EE6
P 9850 4750
F 0 "J1" H 9900 5367 50  0000 C CNN
F 1 "Conn_02x10_Odd_Even" H 9900 5276 50  0000 C CNN
F 2 "Connector_IDC:IDC-Header_2x10_P2.54mm_Vertical" H 9850 4750 50  0001 C CNN
F 3 "~" H 9850 4750 50  0001 C CNN
	1    9850 4750
	1    0    0    -1  
$EndComp
$Comp
L power:GND #PWR0110
U 1 1 5D9954DC
P 10150 5250
F 0 "#PWR0110" H 10150 5000 50  0001 C CNN
F 1 "GND" V 10155 5122 50  0000 R CNN
F 2 "" H 10150 5250 50  0001 C CNN
F 3 "" H 10150 5250 50  0001 C CNN
	1    10150 5250
	0    -1   -1   0   
$EndComp
Text GLabel 10150 4550 2    50   Input ~ 0
R3
Text GLabel 10150 4450 2    50   Input ~ 0
L3
Text GLabel 8050 3650 3    50   Input ~ 0
L2
Text GLabel 8050 2750 1    50   Input ~ 0
R2
$Comp
L Connector:Conn_01x04_Male JLED1
U 1 1 5D9CDC59
P 7350 5950
F 0 "JLED1" H 7458 6231 50  0000 C CNN
F 1 "Conn_01x04_Male" H 7458 6140 50  0000 C CNN
F 2 "Connector_JST:JST_PH_S4B-PH-K_1x04_P2.00mm_Horizontal" H 7350 5950 50  0001 C CNN
F 3 "~" H 7350 5950 50  0001 C CNN
	1    7350 5950
	1    0    0    -1  
$EndComp
Text GLabel 7550 5850 2    50   Input ~ 0
LED_DATA
$Comp
L power:GND #PWR0122
U 1 1 5D9D017F
P 7550 5950
F 0 "#PWR0122" H 7550 5700 50  0001 C CNN
F 1 "GND" V 7555 5822 50  0000 R CNN
F 2 "" H 7550 5950 50  0001 C CNN
F 3 "" H 7550 5950 50  0001 C CNN
	1    7550 5950
	0    -1   -1   0   
$EndComp
$Comp
L power:VCC #PWR0123
U 1 1 5D9D05DD
P 6350 4950
F 0 "#PWR0123" H 6350 4800 50  0001 C CNN
F 1 "VCC" V 6367 5078 50  0000 L CNN
F 2 "" H 6350 4950 50  0001 C CNN
F 3 "" H 6350 4950 50  0001 C CNN
	1    6350 4950
	0    -1   -1   0   
$EndComp
NoConn ~ 7550 6150
$Comp
L power:VCC #PWR0124
U 1 1 5D992820
P 8750 2250
F 0 "#PWR0124" H 8750 2100 50  0001 C CNN
F 1 "VCC" V 8767 2378 50  0000 L CNN
F 2 "" H 8750 2250 50  0001 C CNN
F 3 "" H 8750 2250 50  0001 C CNN
	1    8750 2250
	0    1    1    0   
$EndComp
$Comp
L Connector:Conn_01x05_Male JUSB2
U 1 1 5D995AF1
P 8350 2450
F 0 "JUSB2" H 8458 2831 50  0000 C CNN
F 1 "Brook USB" H 8458 2740 50  0000 C CNN
F 2 "Connector_JST:JST_PH_S5B-PH-K_1x05_P2.00mm_Horizontal" H 8350 2450 50  0001 C CNN
F 3 "~" H 8350 2450 50  0001 C CNN
	1    8350 2450
	1    0    0    -1  
$EndComp
$Comp
L power:GND #PWR0125
U 1 1 5D999F71
P 8550 2650
F 0 "#PWR0125" H 8550 2400 50  0001 C CNN
F 1 "GND" V 8555 2522 50  0000 R CNN
F 2 "" H 8550 2650 50  0001 C CNN
F 3 "" H 8550 2650 50  0001 C CNN
	1    8550 2650
	0    -1   -1   0   
$EndComp
$Comp
L power:GND #PWR0126
U 1 1 5D99A40B
P 8550 2550
F 0 "#PWR0126" H 8550 2300 50  0001 C CNN
F 1 "GND" V 8555 2422 50  0000 R CNN
F 2 "" H 8550 2550 50  0001 C CNN
F 3 "" H 8550 2550 50  0001 C CNN
	1    8550 2550
	0    -1   -1   0   
$EndComp
Text GLabel 8550 2350 2    50   Input ~ 0
D-
Text GLabel 8550 2450 2    50   Input ~ 0
D+
$Comp
L power:GND #PWR0128
U 1 1 5DB7BB4D
P 8050 3200
F 0 "#PWR0128" H 8050 2950 50  0001 C CNN
F 1 "GND" V 8055 3072 50  0000 R CNN
F 2 "" H 8050 3200 50  0001 C CNN
F 3 "" H 8050 3200 50  0001 C CNN
	1    8050 3200
	0    -1   1    0   
$EndComp
$Comp
L Device:R_Small_US R2
U 1 1 5DB7C8EC
P 8450 2950
F 0 "R2" V 8500 3050 30  0000 C CNN
F 1 "470" V 8400 2850 30  0000 C CNN
F 2 "Resistor_SMD:R_0805_2012Metric_Pad1.15x1.40mm_HandSolder" H 8450 2950 50  0001 C CNN
F 3 "~" H 8450 2950 50  0001 C CNN
	1    8450 2950
	0    -1   1    0   
$EndComp
$Comp
L Device:R_Small_US R3
U 1 1 5DB81AAD
P 8450 3450
F 0 "R3" V 8400 3550 30  0000 C CNN
F 1 "470" V 8500 3350 30  0000 C CNN
F 2 "Resistor_SMD:R_0805_2012Metric_Pad1.15x1.40mm_HandSolder" H 8450 3450 50  0001 C CNN
F 3 "~" H 8450 3450 50  0001 C CNN
	1    8450 3450
	0    -1   1    0   
$EndComp
$Comp
L Transistor_BJT:MMBT3904 Q1
U 1 1 5DB8510D
P 8150 2950
F 0 "Q1" H 8341 2996 50  0000 L CNN
F 1 "MMBT3904" H 8341 2905 50  0000 L CNN
F 2 "Package_TO_SOT_SMD:SOT-23" H 8350 2875 50  0001 L CIN
F 3 "https://www.fairchildsemi.com/datasheets/2N/2N3904.pdf" H 8150 2950 50  0001 L CNN
	1    8150 2950
	-1   0    0    -1  
$EndComp
$Comp
L Transistor_BJT:MMBT3904 Q2
U 1 1 5DB8709C
P 8150 3450
F 0 "Q2" H 8341 3404 50  0000 L CNN
F 1 "MMBT3904" H 8341 3495 50  0000 L CNN
F 2 "Package_TO_SOT_SMD:SOT-23" H 8350 3375 50  0001 L CIN
F 3 "https://www.fairchildsemi.com/datasheets/2N/2N3904.pdf" H 8150 3450 50  0001 L CNN
	1    8150 3450
	-1   0    0    1   
$EndComp
$Comp
L MCU_Microchip_ATmega:ATmega2560-16AU U1
U 1 1 5EE8322D
P 2900 4100
F 0 "U1" H 3050 1300 50  0000 C CNN
F 1 "ATmega2560-16AU" H 3500 1300 50  0000 C CNN
F 2 "Package_QFP:TQFP-100_14x14mm_P0.5mm" H 2900 4100 50  0001 C CIN
F 3 "http://ww1.microchip.com/downloads/en/DeviceDoc/Atmel-2549-8-bit-AVR-Microcontroller-ATmega640-1280-1281-2560-2561_datasheet.pdf" H 2900 4100 50  0001 C CNN
	1    2900 4100
	1    0    0    -1  
$EndComp
Text GLabel 2000 1500 1    50   Input ~ 0
RST
Wire Wire Line
	2100 1500 1850 1500
$Comp
L Device:C_Small C10
U 1 1 5EE8AF3B
P 1850 1400
F 0 "C10" V 1800 1450 50  0000 L CNN
F 1 "22pF" V 1900 1450 50  0000 L CNN
F 2 "Capacitor_SMD:C_0603_1608Metric_Pad1.05x0.95mm_HandSolder" H 1850 1400 50  0001 C CNN
F 3 "~" H 1850 1400 50  0001 C CNN
	1    1850 1400
	1    0    0    -1  
$EndComp
Wire Wire Line
	1850 1300 1850 1150
$Comp
L power:GND #PWR0118
U 1 1 5EE8C65F
P 1850 1150
F 0 "#PWR0118" H 1850 900 50  0001 C CNN
F 1 "GND" H 1855 977 50  0000 C CNN
F 2 "" H 1850 1150 50  0001 C CNN
F 3 "" H 1850 1150 50  0001 C CNN
	1    1850 1150
	-1   0    0    1   
$EndComp
$Comp
L Device:R_Small R4
U 1 1 5EE8D44F
P 1650 1500
F 0 "R4" V 1650 1500 50  0000 C CNN
F 1 "10K" V 1550 1500 50  0000 C CNN
F 2 "Resistor_SMD:R_0805_2012Metric_Pad1.15x1.40mm_HandSolder" H 1650 1500 50  0001 C CNN
F 3 "~" H 1650 1500 50  0001 C CNN
	1    1650 1500
	0    1    1    0   
$EndComp
Wire Wire Line
	1850 1500 1750 1500
Connection ~ 1850 1500
$Comp
L Device:Crystal_Small Y1
U 1 1 5EE914ED
P 1700 1800
F 0 "Y1" V 1700 1750 50  0000 L CNN
F 1 "16MHz" V 1700 1850 50  0000 L CNN
F 2 "Crystal:Crystal_SMD_HC49-SD" H 1700 1800 50  0001 C CNN
F 3 "~" H 1700 1800 50  0001 C CNN
	1    1700 1800
	0    1    1    0   
$EndComp
$Comp
L Device:C_Small C8
U 1 1 5EE9363C
P 1600 1700
F 0 "C8" V 1650 1750 50  0000 L CNN
F 1 "22pF" V 1650 1500 50  0000 L CNN
F 2 "Capacitor_SMD:C_0603_1608Metric_Pad1.05x0.95mm_HandSolder" H 1600 1700 50  0001 C CNN
F 3 "~" H 1600 1700 50  0001 C CNN
	1    1600 1700
	0    -1   -1   0   
$EndComp
Wire Wire Line
	1500 1700 1500 1800
$Comp
L power:GND #PWR0119
U 1 1 5EE969AB
P 1500 1800
F 0 "#PWR0119" H 1500 1550 50  0001 C CNN
F 1 "GND" V 1505 1672 50  0000 R CNN
F 2 "" H 1500 1800 50  0001 C CNN
F 3 "" H 1500 1800 50  0001 C CNN
	1    1500 1800
	0    1    1    0   
$EndComp
Connection ~ 1500 1800
Wire Wire Line
	1500 1800 1500 1900
Wire Wire Line
	2100 1700 1700 1700
Connection ~ 1700 1700
Wire Wire Line
	2100 1900 1700 1900
NoConn ~ 2100 2100
NoConn ~ 2100 2400
NoConn ~ 2100 2500
NoConn ~ 1000 3800
Connection ~ 1700 1900
$Comp
L Device:C_Small C9
U 1 1 5EE94DE6
P 1600 1900
F 0 "C9" V 1550 1950 50  0000 L CNN
F 1 "22pF" V 1550 1700 50  0000 L CNN
F 2 "Capacitor_SMD:C_0603_1608Metric_Pad1.05x0.95mm_HandSolder" H 1600 1900 50  0001 C CNN
F 3 "~" H 1600 1900 50  0001 C CNN
	1    1600 1900
	0    -1   -1   0   
$EndComp
$Comp
L power:VCC #PWR0120
U 1 1 5EEA5216
P 1550 1500
F 0 "#PWR0120" H 1550 1350 50  0001 C CNN
F 1 "VCC" V 1568 1627 50  0000 L CNN
F 2 "" H 1550 1500 50  0001 C CNN
F 3 "" H 1550 1500 50  0001 C CNN
	1    1550 1500
	0    -1   -1   0   
$EndComp
Text GLabel 3700 5100 2    50   Input ~ 0
RX0
Text GLabel 3700 5200 2    50   Input ~ 0
TX0
Text GLabel 3700 1500 2    50   Input ~ 0
D22
Text GLabel 3700 1600 2    50   Input ~ 0
D23
Text GLabel 3700 1700 2    50   Input ~ 0
D24
Text GLabel 3700 1800 2    50   Input ~ 0
D25
NoConn ~ 3700 1900
NoConn ~ 3700 2000
NoConn ~ 3700 2400
NoConn ~ 3700 2800
NoConn ~ 3700 2900
NoConn ~ 3700 3100
NoConn ~ 3700 3700
NoConn ~ 3700 3800
NoConn ~ 3700 4200
NoConn ~ 3700 4300
NoConn ~ 3700 4400
NoConn ~ 3700 4500
NoConn ~ 3700 4600
NoConn ~ 3700 4700
NoConn ~ 3700 4800
NoConn ~ 3700 5300
NoConn ~ 3700 5500
NoConn ~ 3700 5600
NoConn ~ 3700 5700
NoConn ~ 3700 5800
NoConn ~ 3700 6000
NoConn ~ 3700 6100
NoConn ~ 3700 6200
NoConn ~ 3700 6300
NoConn ~ 3700 6400
NoConn ~ 3700 6500
NoConn ~ 3700 6600
NoConn ~ 3700 6700
Text GLabel 3700 2100 2    50   Input ~ 0
D28
Text GLabel 3700 2200 2    50   Input ~ 0
D29
Text GLabel 3700 2500 2    50   Input ~ 0
SCK
Text GLabel 3950 2600 1    50   Input ~ 0
D51
Text GLabel 4050 2600 1    50   Input ~ 0
MOSI
Text GLabel 3950 2700 3    50   Input ~ 0
D50
Text GLabel 4050 2700 3    50   Input ~ 0
MISO
Wire Wire Line
	4050 2600 3700 2600
Wire Wire Line
	4050 2700 3700 2700
Text GLabel 3700 3000 2    50   Input ~ 0
D12
Text GLabel 3700 3300 2    50   Input ~ 0
D37
Text GLabel 3700 3400 2    50   Input ~ 0
D36
Text GLabel 3700 3500 2    50   Input ~ 0
D35
Text GLabel 3700 3600 2    50   Input ~ 0
D34
Text GLabel 3700 3900 2    50   Input ~ 0
D31
Text GLabel 3700 4000 2    50   Input ~ 0
D30
Text GLabel 3700 4900 2    50   Input ~ 0
D38
Text GLabel 3700 5400 2    50   Input ~ 0
D5
NoConn ~ 2100 3300
NoConn ~ 2100 3400
NoConn ~ 2100 3500
NoConn ~ 2100 3600
NoConn ~ 2100 3700
NoConn ~ 2100 3800
NoConn ~ 2100 3900
NoConn ~ 2100 4000
NoConn ~ 2100 4200
NoConn ~ 2100 4300
NoConn ~ 2100 4400
NoConn ~ 2100 4500
NoConn ~ 2100 4600
NoConn ~ 2100 4700
NoConn ~ 2100 4800
NoConn ~ 2100 4900
NoConn ~ 2100 5100
NoConn ~ 2100 5200
NoConn ~ 2100 5300
NoConn ~ 2100 5800
NoConn ~ 2100 6300
NoConn ~ 2100 6400
Text GLabel 2100 2600 0    50   Input ~ 0
D47
Text GLabel 2100 2700 0    50   Input ~ 0
D46
Text GLabel 2100 2800 0    50   Input ~ 0
D45
Text GLabel 2100 2900 0    50   Input ~ 0
D44
Text GLabel 2100 3000 0    50   Input ~ 0
D43
Text GLabel 2100 3100 0    50   Input ~ 0
D42
Text GLabel 2100 5400 0    50   Input ~ 0
D6
Text GLabel 2100 5500 0    50   Input ~ 0
D7
Text GLabel 2100 5600 0    50   Input ~ 0
D8
$Comp
L Device:R_Small R1
U 1 1 5EED09C6
P 2000 5700
F 0 "R1" V 2000 5700 50  0000 C CNN
F 1 "470" V 2100 5700 50  0000 C CNN
F 2 "Resistor_SMD:R_0805_2012Metric_Pad1.15x1.40mm_HandSolder" H 2000 5700 50  0001 C CNN
F 3 "~" H 2000 5700 50  0001 C CNN
	1    2000 5700
	0    1    1    0   
$EndComp
Text GLabel 1900 5700 0    50   Input ~ 0
LED_DATA
Text GLabel 2100 6000 0    50   Input ~ 0
D41
Text GLabel 2100 6100 0    50   Input ~ 0
D40
Text GLabel 2100 6200 0    50   Input ~ 0
D39
Text GLabel 2100 6500 0    50   Input ~ 0
D4
$Comp
L power:GND #PWR0121
U 1 1 5EED498A
P 2900 7000
F 0 "#PWR0121" H 2900 6750 50  0001 C CNN
F 1 "GND" H 2905 6827 50  0000 C CNN
F 2 "" H 2900 7000 50  0001 C CNN
F 3 "" H 2900 7000 50  0001 C CNN
	1    2900 7000
	1    0    0    -1  
$EndComp
Wire Wire Line
	2900 1200 3000 1200
$Comp
L power:VCC #PWR0127
U 1 1 5EED5DB1
P 3000 1200
F 0 "#PWR0127" H 3000 1050 50  0001 C CNN
F 1 "VCC" H 3017 1373 50  0000 C CNN
F 2 "" H 3000 1200 50  0001 C CNN
F 3 "" H 3000 1200 50  0001 C CNN
	1    3000 1200
	1    0    0    -1  
$EndComp
Connection ~ 3000 1200
Text GLabel 5500 2800 0    50   Input ~ 0
LED_P2
Text GLabel 5500 2900 0    50   Input ~ 0
LED_P3
Text GLabel 5500 3500 0    50   Input ~ 0
Right
Text GLabel 5500 3400 0    50   Input ~ 0
Left
Text GLabel 5500 3300 0    50   Input ~ 0
Down
Text GLabel 5500 3200 0    50   Input ~ 0
Up
Text GLabel 5500 2700 0    50   Input ~ 0
LED_P1
Text GLabel 5500 2200 0    50   Input ~ 0
Circle
Text GLabel 5500 2400 0    50   Input ~ 0
Square
Text GLabel 5500 2500 0    50   Input ~ 0
Triangle
Text GLabel 5500 2300 0    50   Input ~ 0
X
Text GLabel 5500 1850 0    50   Input ~ 0
Options
Text GLabel 5500 2050 0    50   Input ~ 0
Share
Text GLabel 5500 1950 0    50   Input ~ 0
PS
Text GLabel 5500 1600 0    50   Input ~ 0
R3
Text GLabel 5500 1400 0    50   Input ~ 0
R1
Text GLabel 5500 1100 0    50   Input ~ 0
L3
Text GLabel 5500 1300 0    50   Input ~ 0
L1
Text GLabel 5700 1500 2    50   Input ~ 0
D7
Text GLabel 5700 1300 2    50   Input ~ 0
D12
Text GLabel 5700 3200 2    50   Input ~ 0
D22
Text GLabel 5700 3300 2    50   Input ~ 0
D23
Text GLabel 5700 3400 2    50   Input ~ 0
D24
Text GLabel 5700 3500 2    50   Input ~ 0
D25
Text GLabel 5500 1750 0    50   Input ~ 0
TPKey
Text GLabel 5700 1750 2    50   Input ~ 0
D28
Text GLabel 5700 1100 2    50   Input ~ 0
D29
Text GLabel 5700 1950 2    50   Input ~ 0
D30
Text GLabel 5700 1600 2    50   Input ~ 0
D31
Text GLabel 5500 3000 0    50   Input ~ 0
LED_P4
Text GLabel 5700 2700 2    50   Input ~ 0
D34
Text GLabel 5700 2800 2    50   Input ~ 0
D35
Text GLabel 5700 2900 2    50   Input ~ 0
D36
Text GLabel 5700 3000 2    50   Input ~ 0
D37
Text GLabel 5700 1400 2    50   Input ~ 0
D40
Text GLabel 5700 2400 2    50   Input ~ 0
D41
Text GLabel 5700 2200 2    50   Input ~ 0
D42
Text GLabel 5700 2500 2    50   Input ~ 0
D43
Text GLabel 5700 2300 2    50   Input ~ 0
D44
Text GLabel 5700 1200 2    50   Input ~ 0
D45
Text GLabel 5700 2050 2    50   Input ~ 0
D47
Text GLabel 5700 1850 2    50   Input ~ 0
D50
$Comp
L pcb:JUMPER3 JP1
U 1 1 5EF2F4E3
P 6400 4900
F 0 "JP1" H 6450 4800 50  0000 L CNN
F 1 "PowerSelect" H 6450 4700 50  0000 L CNN
F 2 "Connector_PinHeader_2.54mm:PinHeader_1x03_P2.54mm_Vertical" H 5150 4650 60  0001 C CNN
F 3 "" H 6375 4900 60  0000 C CNN
	1    6400 4900
	1    0    0    -1  
$EndComp
$Comp
L Connector:Conn_01x04_Male JPWR1
U 1 1 5EF30FCA
P 7150 5050
F 0 "JPWR1" H 7258 5331 50  0000 C CNN
F 1 "Conn_01x04_Male" H 7100 5400 50  0000 C CNN
F 2 "Connector_JST:JST_PH_S4B-PH-K_1x04_P2.00mm_Horizontal" H 7150 5050 50  0001 C CNN
F 3 "~" H 7150 5050 50  0001 C CNN
	1    7150 5050
	-1   0    0    -1  
$EndComp
Wire Wire Line
	6950 4950 6600 4950
Text Label 6950 4950 2    50   ~ 0
+5v
$Comp
L Device:D_Small D1
U 1 1 5EF363AB
P 6600 4850
F 0 "D1" V 6500 4900 50  0000 L CNN
F 1 "1N4007" V 6600 4900 50  0000 L CNN
F 2 "Diode_SMD:D_SOD-123F" V 6600 4850 50  0001 C CNN
F 3 "~" V 6600 4850 50  0001 C CNN
	1    6600 4850
	0    1    1    0   
$EndComp
Connection ~ 6600 4950
Wire Wire Line
	6600 4950 6450 4950
$Comp
L power:VCC #PWR0129
U 1 1 5EF38CAF
P 6600 4750
F 0 "#PWR0129" H 6600 4600 50  0001 C CNN
F 1 "VCC" H 6617 4923 50  0000 C CNN
F 2 "" H 6600 4750 50  0001 C CNN
F 3 "" H 6600 4750 50  0001 C CNN
	1    6600 4750
	1    0    0    -1  
$EndComp
Text GLabel 6400 4950 3    50   Input ~ 0
LED_PWR
Text GLabel 7550 6050 2    50   Input ~ 0
LED_PWR
$Comp
L power:VCC #PWR0130
U 1 1 5EF3E177
P 8750 1500
F 0 "#PWR0130" H 8750 1350 50  0001 C CNN
F 1 "VCC" V 8767 1628 50  0000 L CNN
F 2 "" H 8750 1500 50  0001 C CNN
F 3 "" H 8750 1500 50  0001 C CNN
	1    8750 1500
	0    1    1    0   
$EndComp
$Comp
L Connector:Conn_01x05_Male JUSB1
U 1 1 5EF3E181
P 8350 1700
F 0 "JUSB1" H 8458 2081 50  0000 C CNN
F 1 "LED Spy USB" H 8458 1990 50  0000 C CNN
F 2 "Connector_JST:JST_PH_S5B-PH-K_1x05_P2.00mm_Horizontal" H 8350 1700 50  0001 C CNN
F 3 "~" H 8350 1700 50  0001 C CNN
	1    8350 1700
	1    0    0    -1  
$EndComp
$Comp
L power:GND #PWR0131
U 1 1 5EF3E18B
P 8550 1900
F 0 "#PWR0131" H 8550 1650 50  0001 C CNN
F 1 "GND" V 8555 1772 50  0000 R CNN
F 2 "" H 8550 1900 50  0001 C CNN
F 3 "" H 8550 1900 50  0001 C CNN
	1    8550 1900
	0    -1   -1   0   
$EndComp
$Comp
L power:GND #PWR0132
U 1 1 5EF3E195
P 8550 1800
F 0 "#PWR0132" H 8550 1550 50  0001 C CNN
F 1 "GND" V 8555 1672 50  0000 R CNN
F 2 "" H 8550 1800 50  0001 C CNN
F 3 "" H 8550 1800 50  0001 C CNN
	1    8550 1800
	0    -1   -1   0   
$EndComp
Text GLabel 8550 1600 2    50   Input ~ 0
D1-
Text GLabel 8550 1700 2    50   Input ~ 0
D1+
$Comp
L Connector_Generic:Conn_02x03_Odd_Even ICSP1
U 1 1 5EF421E3
P 5350 4200
F 0 "ICSP1" H 5400 4517 50  0000 C CNN
F 1 "Conn_02x03_Odd_Even" H 5400 4426 50  0000 C CNN
F 2 "Connector_PinHeader_2.54mm:PinHeader_2x03_P2.54mm_Vertical" H 5350 4200 50  0001 C CNN
F 3 "~" H 5350 4200 50  0001 C CNN
	1    5350 4200
	1    0    0    -1  
$EndComp
$Comp
L Interface_USB:CH340G U2
U 1 1 5EE98788
P 5850 6300
F 0 "U2" H 6000 5750 50  0000 C CNN
F 1 "CH340G" H 6200 5750 50  0000 C CNN
F 2 "Package_SO:SOIC-16_3.9x9.9mm_P1.27mm" H 5900 5750 50  0001 L CNN
F 3 "http://www.datasheet5.com/pdf-local-2195953" H 5500 7100 50  0001 C CNN
	1    5850 6300
	1    0    0    -1  
$EndComp
$Comp
L Device:C_Small C4
U 1 1 5EE9BDC9
P 5750 5600
F 0 "C4" V 5700 5650 50  0000 L CNN
F 1 "10nF" V 5800 5650 50  0000 L CNN
F 2 "Capacitor_SMD:C_0603_1608Metric_Pad1.05x0.95mm_HandSolder" H 5750 5600 50  0001 C CNN
F 3 "~" H 5750 5600 50  0001 C CNN
	1    5750 5600
	1    0    0    -1  
$EndComp
$Comp
L Device:Crystal_Small Y2
U 1 1 5EE9D0E7
P 5050 6600
F 0 "Y2" V 5050 6550 50  0000 L CNN
F 1 "12MHz" V 5050 6650 50  0000 L CNN
F 2 "ledspy:Crystal_SMD_HC49-UNIVERSAL-SD" H 5050 6600 50  0001 C CNN
F 3 "~" H 5050 6600 50  0001 C CNN
	1    5050 6600
	0    1    1    0   
$EndComp
$Comp
L Device:C_Small C5
U 1 1 5EE9D0F1
P 4950 6500
F 0 "C5" V 5000 6550 50  0000 L CNN
F 1 "22pF" V 5000 6300 50  0000 L CNN
F 2 "Capacitor_SMD:C_0603_1608Metric_Pad1.05x0.95mm_HandSolder" H 4950 6500 50  0001 C CNN
F 3 "~" H 4950 6500 50  0001 C CNN
	1    4950 6500
	0    -1   -1   0   
$EndComp
$Comp
L Device:C_Small C6
U 1 1 5EE9D0FB
P 4950 6700
F 0 "C6" V 4900 6750 50  0000 L CNN
F 1 "22pF" V 4900 6500 50  0000 L CNN
F 2 "Capacitor_SMD:C_0603_1608Metric_Pad1.05x0.95mm_HandSolder" H 4950 6700 50  0001 C CNN
F 3 "~" H 4950 6700 50  0001 C CNN
	1    4950 6700
	0    -1   -1   0   
$EndComp
Wire Wire Line
	4850 6500 4850 6600
$Comp
L power:GND #PWR0133
U 1 1 5EE9D106
P 4850 6600
F 0 "#PWR0133" H 4850 6350 50  0001 C CNN
F 1 "GND" V 4855 6472 50  0000 R CNN
F 2 "" H 4850 6600 50  0001 C CNN
F 3 "" H 4850 6600 50  0001 C CNN
	1    4850 6600
	0    1    1    0   
$EndComp
Connection ~ 4850 6600
Wire Wire Line
	4850 6600 4850 6700
Wire Wire Line
	5450 6500 5050 6500
Connection ~ 5050 6500
Wire Wire Line
	5450 6700 5050 6700
Connection ~ 5050 6700
Text GLabel 5450 6200 0    50   Input ~ 0
D1+
Text GLabel 5450 6300 0    50   Input ~ 0
D1-
Text GLabel 6250 5900 2    50   Input ~ 0
RX0
Text GLabel 6250 6000 2    50   Input ~ 0
TX0
NoConn ~ 5450 6000
NoConn ~ 6250 6200
NoConn ~ 6250 6300
NoConn ~ 6250 6400
NoConn ~ 6250 6500
NoConn ~ 6250 6700
$Comp
L power:GND #PWR0134
U 1 1 5EEA84DC
P 5850 6900
F 0 "#PWR0134" H 5850 6650 50  0001 C CNN
F 1 "GND" H 5855 6727 50  0000 C CNN
F 2 "" H 5850 6900 50  0001 C CNN
F 3 "" H 5850 6900 50  0001 C CNN
	1    5850 6900
	1    0    0    -1  
$EndComp
$Comp
L Device:C_Small C1
U 1 1 5EEA9A69
P 4500 5100
F 0 "C1" H 4550 5150 50  0000 L CNN
F 1 ".1uF" H 4500 5050 50  0000 L CNN
F 2 "Capacitor_SMD:C_0603_1608Metric_Pad1.05x0.95mm_HandSolder" H 4500 5100 50  0001 C CNN
F 3 "~" H 4500 5100 50  0001 C CNN
	1    4500 5100
	1    0    0    -1  
$EndComp
$Comp
L Device:C_Small C2
U 1 1 5EEAA574
P 4750 5100
F 0 "C2" H 4800 5150 50  0000 L CNN
F 1 ".1uF" H 4750 5050 50  0000 L CNN
F 2 "Capacitor_SMD:C_0603_1608Metric_Pad1.05x0.95mm_HandSolder" H 4750 5100 50  0001 C CNN
F 3 "~" H 4750 5100 50  0001 C CNN
	1    4750 5100
	1    0    0    -1  
$EndComp
$Comp
L Device:C_Small C3
U 1 1 5EEAAFCF
P 5000 5100
F 0 "C3" H 5050 5150 50  0000 L CNN
F 1 ".1uF" H 5050 5050 50  0000 L CNN
F 2 "Capacitor_SMD:C_0603_1608Metric_Pad1.05x0.95mm_HandSolder" H 5000 5100 50  0001 C CNN
F 3 "~" H 5000 5100 50  0001 C CNN
	1    5000 5100
	1    0    0    -1  
$EndComp
Wire Wire Line
	4500 5200 4750 5200
Connection ~ 4750 5200
Wire Wire Line
	4750 5200 5000 5200
Wire Wire Line
	4500 5000 4750 5000
Connection ~ 4750 5000
Wire Wire Line
	4750 5000 5000 5000
Wire Wire Line
	6250 6600 6450 6600
$Comp
L Device:C_Small C7
U 1 1 5EEAE045
P 6550 6600
F 0 "C7" V 6300 6550 50  0000 L CNN
F 1 ".1uF" V 6400 6500 50  0000 L CNN
F 2 "Capacitor_SMD:C_0603_1608Metric_Pad1.05x0.95mm_HandSolder" H 6550 6600 50  0001 C CNN
F 3 "~" H 6550 6600 50  0001 C CNN
	1    6550 6600
	0    1    1    0   
$EndComp
Text GLabel 6650 6600 2    50   Input ~ 0
RST
$Comp
L power:VCC #PWR0135
U 1 1 5EED0852
P 5850 5700
F 0 "#PWR0135" H 5850 5550 50  0001 C CNN
F 1 "VCC" V 5867 5828 50  0000 L CNN
F 2 "" H 5850 5700 50  0001 C CNN
F 3 "" H 5850 5700 50  0001 C CNN
	1    5850 5700
	0    1    1    0   
$EndComp
Wire Wire Line
	6650 1453 6650 1450
Text GLabel 6650 3650 0    50   Input ~ 0
LED_P1
Text GLabel 7100 1650 2    50   Input ~ 0
D+
Text GLabel 7100 1750 2    50   Input ~ 0
D-
Text GLabel 7100 2850 2    50   Input ~ 0
Up
Text GLabel 7100 2750 2    50   Input ~ 0
Down
Text GLabel 7100 2650 2    50   Input ~ 0
Left
Text GLabel 7100 2550 2    50   Input ~ 0
Right
Text GLabel 6650 2550 0    50   Input ~ 0
Ry
Text GLabel 6650 2650 0    50   Input ~ 0
Rx
Text GLabel 6650 2750 0    50   Input ~ 0
Ly
Text GLabel 6650 2850 0    50   Input ~ 0
Lx
$Comp
L power:GND #PWR0136
U 1 1 5EED6314
P 6650 3350
F 0 "#PWR0136" H 6650 3100 50  0001 C CNN
F 1 "GND" V 6655 3222 50  0000 R CNN
F 2 "" H 6650 3350 50  0001 C CNN
F 3 "" H 6650 3350 50  0001 C CNN
	1    6650 3350
	0    1    1    0   
$EndComp
$Comp
L power:VCC #PWR0138
U 1 1 5EED6300
P 7100 1850
F 0 "#PWR0138" H 7100 1700 50  0001 C CNN
F 1 "VCC" V 7118 1977 50  0000 L CNN
F 2 "" H 7100 1850 50  0001 C CNN
F 3 "" H 7100 1850 50  0001 C CNN
	1    7100 1850
	0    1    1    0   
$EndComp
Text GLabel 6650 3250 0    50   Input ~ 0
TPKey
Text GLabel 6650 3850 0    50   Input ~ 0
LED_P3
Text GLabel 6650 3750 0    50   Input ~ 0
LED_P2
Text GLabel 6650 1750 0    50   Input ~ 0
Triangle
Text GLabel 6650 1850 0    50   Input ~ 0
Square
Text GLabel 6650 2050 0    50   Input ~ 0
X
Text GLabel 6650 1950 0    50   Input ~ 0
Circle
Text GLabel 7100 3150 2    50   Input ~ 0
PS
Text GLabel 6650 2150 0    50   Input ~ 0
Share
Text GLabel 7100 2450 2    50   Input ~ 0
Options
Text GLabel 6650 1650 0    50   Input ~ 0
R3
Text GLabel 6650 1550 0    50   Input ~ 0
R1
Text GLabel 7100 2950 2    50   Input ~ 0
L3
Text GLabel 7100 3050 2    50   Input ~ 0
L1
Wire Wire Line
	5500 1100 5700 1100
Wire Wire Line
	5500 1200 5700 1200
Wire Wire Line
	5500 1300 5700 1300
Wire Wire Line
	5500 1400 5700 1400
Wire Wire Line
	5500 1500 5700 1500
Wire Wire Line
	5500 1600 5700 1600
Wire Wire Line
	5500 1750 5700 1750
Wire Wire Line
	5500 1850 5700 1850
Wire Wire Line
	5500 1950 5700 1950
Wire Wire Line
	5500 2050 5700 2050
Wire Wire Line
	5500 2200 5700 2200
Wire Wire Line
	5500 2300 5700 2300
Wire Wire Line
	5500 2400 5700 2400
Wire Wire Line
	5500 2500 5700 2500
Wire Wire Line
	5500 2700 5700 2700
Wire Wire Line
	5500 2800 5700 2800
Wire Wire Line
	5500 2900 5700 2900
Wire Wire Line
	5500 3000 5700 3000
Wire Wire Line
	5500 3200 5700 3200
Wire Wire Line
	5500 3300 5700 3300
Wire Wire Line
	5500 3400 5700 3400
Wire Wire Line
	5500 3500 5700 3500
Text GLabel 9650 5150 0    50   Input ~ 0
D38
Text GLabel 10150 4650 2    50   Input ~ 0
D51
Text GLabel 9650 4850 0    50   Input ~ 0
D6
Text GLabel 9650 4950 0    50   Input ~ 0
D5
Text GLabel 9650 5050 0    50   Input ~ 0
D4
Text GLabel 10150 5150 2    50   Input ~ 0
D39
Text GLabel 9650 4750 0    50   Input ~ 0
D8
$Comp
L power:VCC #PWR0106
U 1 1 5EFF5BA7
P 4750 5000
F 0 "#PWR0106" H 4750 4850 50  0001 C CNN
F 1 "VCC" H 4767 5173 50  0000 C CNN
F 2 "" H 4750 5000 50  0001 C CNN
F 3 "" H 4750 5000 50  0001 C CNN
	1    4750 5000
	1    0    0    -1  
$EndComp
$Comp
L power:GND #PWR0107
U 1 1 5EFF6CB0
P 4750 5200
F 0 "#PWR0107" H 4750 4950 50  0001 C CNN
F 1 "GND" H 4755 5027 50  0000 C CNN
F 2 "" H 4750 5200 50  0001 C CNN
F 3 "" H 4750 5200 50  0001 C CNN
	1    4750 5200
	1    0    0    -1  
$EndComp
$Comp
L power:GND #PWR0109
U 1 1 5F00740C
P 5750 5500
F 0 "#PWR0109" H 5750 5250 50  0001 C CNN
F 1 "GND" H 5755 5327 50  0000 C CNN
F 2 "" H 5750 5500 50  0001 C CNN
F 3 "" H 5750 5500 50  0001 C CNN
	1    5750 5500
	-1   0    0    1   
$EndComp
$Comp
L Connector:Conn_01x08_Male X1-B1
U 1 1 5F0B3F53
P 6850 1850
F 0 "X1-B1" H 7100 2250 50  0000 R CNN
F 1 "Conn_01x08_Male" H 6958 2240 50  0001 C CNN
F 2 "Connector_PinHeader_2.00mm:PinHeader_1x08_P2.00mm_Vertical" H 6850 1850 50  0001 C CNN
F 3 "~" H 6850 1850 50  0001 C CNN
	1    6850 1850
	-1   0    0    1   
$EndComp
$Comp
L power:GND #PWR0111
U 1 1 5F0B9AAE
P 6650 1450
F 0 "#PWR0111" H 6650 1200 50  0001 C CNN
F 1 "GND" V 6655 1322 50  0000 R CNN
F 2 "" H 6650 1450 50  0001 C CNN
F 3 "" H 6650 1450 50  0001 C CNN
	1    6650 1450
	0    1    1    0   
$EndComp
$Comp
L power:GND #PWR0112
U 1 1 5F0C425F
P 6650 2350
F 0 "#PWR0112" H 6650 2100 50  0001 C CNN
F 1 "GND" V 6655 2222 50  0000 R CNN
F 2 "" H 6650 2350 50  0001 C CNN
F 3 "" H 6650 2350 50  0001 C CNN
	1    6650 2350
	0    1    1    0   
$EndComp
$Comp
L power:+3V3 #PWR0137
U 1 1 5EED630A
P 6650 3050
F 0 "#PWR0137" H 6650 2900 50  0001 C CNN
F 1 "+3V3" V 6665 3178 50  0000 L CNN
F 2 "" H 6650 3050 50  0001 C CNN
F 3 "" H 6650 3050 50  0001 C CNN
	1    6650 3050
	0    -1   -1   0   
$EndComp
$Comp
L Connector:Conn_01x05_Male X1-BUSB1
U 1 1 5F0C8FA2
P 6900 1650
F 0 "X1-BUSB1" H 7100 1950 50  0000 C CNN
F 1 "Brook USB" H 7008 1940 50  0001 C CNN
F 2 "Connector_PinHeader_2.00mm:PinHeader_1x05_P2.00mm_Vertical" H 6900 1650 50  0001 C CNN
F 3 "~" H 6900 1650 50  0001 C CNN
	1    6900 1650
	1    0    0    1   
$EndComp
$Comp
L power:GND #PWR0113
U 1 1 5F0CF483
P 7100 1550
F 0 "#PWR0113" H 7100 1300 50  0001 C CNN
F 1 "GND" V 7105 1422 50  0000 R CNN
F 2 "" H 7100 1550 50  0001 C CNN
F 3 "" H 7100 1550 50  0001 C CNN
	1    7100 1550
	0    -1   -1   0   
$EndComp
$Comp
L power:GND #PWR0114
U 1 1 5F0D0243
P 7100 1450
F 0 "#PWR0114" H 7100 1200 50  0001 C CNN
F 1 "GND" V 7105 1322 50  0000 R CNN
F 2 "" H 7100 1450 50  0001 C CNN
F 3 "" H 7100 1450 50  0001 C CNN
	1    7100 1450
	0    -1   -1   0   
$EndComp
$Comp
L Connector:Conn_01x02_Male X1-B3
U 1 1 5F0E364E
P 6850 3250
F 0 "X1-B3" H 7100 3050 50  0000 R CNN
F 1 "X1-B3" H 6822 3133 50  0001 R CNN
F 2 "Connector_PinHeader_2.00mm:PinHeader_1x02_P2.00mm_Vertical" H 6850 3250 50  0001 C CNN
F 3 "~" H 6850 3250 50  0001 C CNN
	1    6850 3250
	-1   0    0    -1  
$EndComp
$Comp
L Connector:Conn_01x04_Male X1-B4
U 1 1 5F0E8D8A
P 6850 3650
F 0 "X1-B4" H 7100 3350 50  0000 R CNN
F 1 "Conn_01x04_Male" H 6822 3533 50  0001 R CNN
F 2 "Connector_PinHeader_2.00mm:PinHeader_1x04_P2.00mm_Vertical" H 6850 3650 50  0001 C CNN
F 3 "~" H 6850 3650 50  0001 C CNN
	1    6850 3650
	-1   0    0    -1  
$EndComp
$Comp
L power:VCC #PWR0139
U 1 1 5F0EC65E
P 6650 3550
F 0 "#PWR0139" H 6650 3400 50  0001 C CNN
F 1 "VCC" V 6668 3677 50  0000 L CNN
F 2 "" H 6650 3550 50  0001 C CNN
F 3 "" H 6650 3550 50  0001 C CNN
	1    6650 3550
	0    -1   -1   0   
$EndComp
$Comp
L Connector:Conn_01x09_Male X1-B5
U 1 1 5F0F1689
P 6900 2750
F 0 "X1-B5" H 7200 3250 50  0000 R CNN
F 1 "Conn_01x09_Male" H 6872 2773 50  0001 R CNN
F 2 "Connector_PinHeader_2.00mm:PinHeader_1x09_P2.00mm_Vertical" H 6900 2750 50  0001 C CNN
F 3 "~" H 6900 2750 50  0001 C CNN
	1    6900 2750
	1    0    0    1   
$EndComp
$Comp
L power:GND #PWR0140
U 1 1 5F0F9853
P 7100 2350
F 0 "#PWR0140" H 7100 2100 50  0001 C CNN
F 1 "GND" V 7105 2222 50  0000 R CNN
F 2 "" H 7100 2350 50  0001 C CNN
F 3 "" H 7100 2350 50  0001 C CNN
	1    7100 2350
	0    -1   -1   0   
$EndComp
Connection ~ 6650 1450
Wire Wire Line
	6950 5150 6950 5050
$Comp
L power:GND #PWR0115
U 1 1 5F11926B
P 6950 5250
F 0 "#PWR0115" H 6950 5000 50  0001 C CNN
F 1 "GND" H 6955 5077 50  0000 C CNN
F 2 "" H 6950 5250 50  0001 C CNN
F 3 "" H 6950 5250 50  0001 C CNN
	1    6950 5250
	1    0    0    -1  
$EndComp
$Comp
L Connector:Conn_01x08_Male X1-B2
U 1 1 5F0BA120
P 6850 2750
F 0 "X1-B2" H 7100 3100 50  0000 R CNN
F 1 "Conn_01x08_Male" H 6822 2723 50  0001 R CNN
F 2 "Connector_PinHeader_2.00mm:PinHeader_1x08_P2.00mm_Vertical" H 6850 2750 50  0001 C CNN
F 3 "~" H 6850 2750 50  0001 C CNN
	1    6850 2750
	-1   0    0    1   
$EndComp
Wire Wire Line
	9850 1303 9850 1300
Text GLabel 9850 3500 0    50   Input ~ 0
LED_P1
Text GLabel 10300 1500 2    50   Input ~ 0
D+
Text GLabel 10300 1600 2    50   Input ~ 0
D-
Text GLabel 10300 2700 2    50   Input ~ 0
Up
Text GLabel 10300 2600 2    50   Input ~ 0
Down
Text GLabel 10300 2500 2    50   Input ~ 0
Left
Text GLabel 10300 2400 2    50   Input ~ 0
Right
Text GLabel 9850 2400 0    50   Input ~ 0
Ry
Text GLabel 9850 2500 0    50   Input ~ 0
Rx
Text GLabel 9850 2600 0    50   Input ~ 0
Ly
Text GLabel 9850 2700 0    50   Input ~ 0
Lx
$Comp
L power:GND #PWR0116
U 1 1 5F15AD06
P 9850 3200
F 0 "#PWR0116" H 9850 2950 50  0001 C CNN
F 1 "GND" V 9855 3072 50  0000 R CNN
F 2 "" H 9850 3200 50  0001 C CNN
F 3 "" H 9850 3200 50  0001 C CNN
	1    9850 3200
	0    1    1    0   
$EndComp
$Comp
L power:VCC #PWR0117
U 1 1 5F15AD10
P 10300 1700
F 0 "#PWR0117" H 10300 1550 50  0001 C CNN
F 1 "VCC" V 10318 1827 50  0000 L CNN
F 2 "" H 10300 1700 50  0001 C CNN
F 3 "" H 10300 1700 50  0001 C CNN
	1    10300 1700
	0    1    1    0   
$EndComp
Text GLabel 9850 3100 0    50   Input ~ 0
TPKey
Text GLabel 9850 3700 0    50   Input ~ 0
LED_P3
Text GLabel 9850 3600 0    50   Input ~ 0
LED_P2
Text GLabel 9850 1600 0    50   Input ~ 0
Triangle
Text GLabel 9850 1700 0    50   Input ~ 0
Square
Text GLabel 9850 1900 0    50   Input ~ 0
X
Text GLabel 9850 1800 0    50   Input ~ 0
Circle
Text GLabel 10300 3000 2    50   Input ~ 0
PS
Text GLabel 9850 2000 0    50   Input ~ 0
Share
Text GLabel 10300 2300 2    50   Input ~ 0
Options
Text GLabel 9850 1500 0    50   Input ~ 0
R3
Text GLabel 9850 1400 0    50   Input ~ 0
R1
Text GLabel 10300 2800 2    50   Input ~ 0
L3
Text GLabel 10300 2900 2    50   Input ~ 0
L1
$Comp
L Connector:Conn_01x08_Female X2-B1
U 1 1 5F15AD2A
P 10050 1700
F 0 "X2-B1" H 10050 2100 50  0000 R CNN
F 1 "Conn_01x08_Male" H 10158 2090 50  0001 C CNN
F 2 "Connector_PinSocket_2.00mm:PinSocket_1x08_P2.00mm_Vertical" H 10050 1700 50  0001 C CNN
F 3 "~" H 10050 1700 50  0001 C CNN
	1    10050 1700
	1    0    0    1   
$EndComp
$Comp
L power:GND #PWR0141
U 1 1 5F15AD34
P 9850 1300
F 0 "#PWR0141" H 9850 1050 50  0001 C CNN
F 1 "GND" V 9855 1172 50  0000 R CNN
F 2 "" H 9850 1300 50  0001 C CNN
F 3 "" H 9850 1300 50  0001 C CNN
	1    9850 1300
	0    1    1    0   
$EndComp
$Comp
L power:GND #PWR0142
U 1 1 5F15AD3E
P 9850 2200
F 0 "#PWR0142" H 9850 1950 50  0001 C CNN
F 1 "GND" V 9855 2072 50  0000 R CNN
F 2 "" H 9850 2200 50  0001 C CNN
F 3 "" H 9850 2200 50  0001 C CNN
	1    9850 2200
	0    1    1    0   
$EndComp
$Comp
L power:+3V3 #PWR0143
U 1 1 5F15AD48
P 9850 2900
F 0 "#PWR0143" H 9850 2750 50  0001 C CNN
F 1 "+3V3" V 9865 3028 50  0000 L CNN
F 2 "" H 9850 2900 50  0001 C CNN
F 3 "" H 9850 2900 50  0001 C CNN
	1    9850 2900
	0    -1   -1   0   
$EndComp
$Comp
L Connector:Conn_01x05_Female X2-BUSB1
U 1 1 5F15AD52
P 10100 1500
F 0 "X2-BUSB1" H 9900 1800 50  0000 C CNN
F 1 "Brook USB" H 10208 1790 50  0001 C CNN
F 2 "Connector_PinSocket_2.00mm:PinSocket_1x05_P2.00mm_Vertical" H 10100 1500 50  0001 C CNN
F 3 "~" H 10100 1500 50  0001 C CNN
	1    10100 1500
	-1   0    0    1   
$EndComp
$Comp
L power:GND #PWR0144
U 1 1 5F15AD5C
P 10300 1400
F 0 "#PWR0144" H 10300 1150 50  0001 C CNN
F 1 "GND" V 10305 1272 50  0000 R CNN
F 2 "" H 10300 1400 50  0001 C CNN
F 3 "" H 10300 1400 50  0001 C CNN
	1    10300 1400
	0    -1   -1   0   
$EndComp
$Comp
L power:GND #PWR0145
U 1 1 5F15AD66
P 10300 1300
F 0 "#PWR0145" H 10300 1050 50  0001 C CNN
F 1 "GND" V 10305 1172 50  0000 R CNN
F 2 "" H 10300 1300 50  0001 C CNN
F 3 "" H 10300 1300 50  0001 C CNN
	1    10300 1300
	0    -1   -1   0   
$EndComp
$Comp
L Connector:Conn_01x02_Female X2-B3
U 1 1 5F15AD70
P 10050 3100
F 0 "X2-B3" H 10050 2900 50  0000 R CNN
F 1 "X1-B3" H 10022 2983 50  0001 R CNN
F 2 "Connector_PinSocket_2.00mm:PinSocket_1x02_P2.00mm_Vertical" H 10050 3100 50  0001 C CNN
F 3 "~" H 10050 3100 50  0001 C CNN
	1    10050 3100
	1    0    0    -1  
$EndComp
$Comp
L Connector:Conn_01x04_Female X2-B4
U 1 1 5F15AD7A
P 10050 3500
F 0 "X2-B4" H 10050 3200 50  0000 R CNN
F 1 "Conn_01x04_Male" H 10022 3383 50  0001 R CNN
F 2 "Connector_PinSocket_2.00mm:PinSocket_1x04_P2.00mm_Vertical" H 10050 3500 50  0001 C CNN
F 3 "~" H 10050 3500 50  0001 C CNN
	1    10050 3500
	1    0    0    -1  
$EndComp
$Comp
L power:VCC #PWR0146
U 1 1 5F15AD84
P 9850 3400
F 0 "#PWR0146" H 9850 3250 50  0001 C CNN
F 1 "VCC" V 9868 3527 50  0000 L CNN
F 2 "" H 9850 3400 50  0001 C CNN
F 3 "" H 9850 3400 50  0001 C CNN
	1    9850 3400
	0    -1   -1   0   
$EndComp
$Comp
L Connector:Conn_01x09_Female X2-B5
U 1 1 5F15AD8E
P 10100 2600
F 0 "X2-B5" H 10100 3100 50  0000 R CNN
F 1 "Conn_01x09_Male" H 10072 2623 50  0001 R CNN
F 2 "Connector_PinSocket_2.00mm:PinSocket_1x09_P2.00mm_Vertical" H 10100 2600 50  0001 C CNN
F 3 "~" H 10100 2600 50  0001 C CNN
	1    10100 2600
	-1   0    0    1   
$EndComp
$Comp
L power:GND #PWR0147
U 1 1 5F15AD98
P 10300 2200
F 0 "#PWR0147" H 10300 1950 50  0001 C CNN
F 1 "GND" V 10305 2072 50  0000 R CNN
F 2 "" H 10300 2200 50  0001 C CNN
F 3 "" H 10300 2200 50  0001 C CNN
	1    10300 2200
	0    -1   -1   0   
$EndComp
Connection ~ 9850 1300
$Comp
L Connector:Conn_01x08_Female X2-B2
U 1 1 5F15ADA3
P 10050 2600
F 0 "X2-B2" H 10050 3000 50  0000 R CNN
F 1 "Conn_01x08_Male" H 10022 2573 50  0001 R CNN
F 2 "Connector_PinSocket_2.00mm:PinSocket_1x08_P2.00mm_Vertical" H 10050 2600 50  0001 C CNN
F 3 "~" H 10050 2600 50  0001 C CNN
	1    10050 2600
	1    0    0    1   
$EndComp
Wire Wire Line
	8050 3150 8050 3200
Connection ~ 8050 3200
Wire Wire Line
	8050 3200 8050 3250
Text GLabel 8850 3000 0    50   Input ~ 0
R2-T
Text GLabel 6650 2450 0    50   Input ~ 0
R2-T
Text GLabel 6650 2950 0    50   Input ~ 0
L2-T
Text GLabel 5500 1200 0    50   Input ~ 0
L2
Text GLabel 5500 1500 0    50   Input ~ 0
R2
Text GLabel 5150 4100 0    50   Input ~ 0
MISO
Text GLabel 5150 4200 0    50   Input ~ 0
SCK
Text GLabel 5150 4300 0    50   Input ~ 0
RST
Text GLabel 5650 4200 2    50   Input ~ 0
MOSI
$Comp
L power:VCC #PWR0148
U 1 1 5F3A070D
P 5650 4100
F 0 "#PWR0148" H 5650 3950 50  0001 C CNN
F 1 "VCC" V 5667 4228 50  0000 L CNN
F 2 "" H 5650 4100 50  0001 C CNN
F 3 "" H 5650 4100 50  0001 C CNN
	1    5650 4100
	0    1    1    0   
$EndComp
$Comp
L power:GND #PWR0149
U 1 1 5F3A10AA
P 5650 4300
F 0 "#PWR0149" H 5650 4050 50  0001 C CNN
F 1 "GND" V 5655 4172 50  0000 R CNN
F 2 "" H 5650 4300 50  0001 C CNN
F 3 "" H 5650 4300 50  0001 C CNN
	1    5650 4300
	0    -1   -1   0   
$EndComp
Text GLabel 9650 5250 0    50   Input ~ 0
D46
Text GLabel 8650 3650 0    50   Input ~ 0
L2-T
Wire Wire Line
	8650 3600 8650 3450
Wire Wire Line
	8650 3450 8550 3450
$Comp
L pcb:JUMPER3 JP3
U 1 1 5F1BC98E
P 8900 3000
F 0 "JP3" V 8854 3098 50  0000 L CNN
F 1 "R2Mode" V 8945 3098 50  0000 L CNN
F 2 "Connector_PinHeader_2.54mm:PinHeader_1x03_P2.54mm_Vertical" H 8875 3000 60  0001 C CNN
F 3 "" H 8875 3000 60  0000 C CNN
	1    8900 3000
	0    1    1    0   
$EndComp
Wire Wire Line
	8550 2950 8850 2950
Text GLabel 8650 3700 3    50   Input ~ 0
L2
Text GLabel 8850 3050 3    50   Input ~ 0
R2
$Comp
L pcb:JUMPER3 JP2
U 1 1 5F18D604
P 8700 3650
F 0 "JP2" V 8500 3700 50  0000 C CNN
F 1 "L2Mode" V 8600 3800 50  0000 C CNN
F 2 "Connector_PinHeader_2.54mm:PinHeader_1x03_P2.54mm_Vertical" H 8675 3650 60  0001 C CNN
F 3 "" H 8675 3650 60  0000 C CNN
	1    8700 3650
	0    1    1    0   
$EndComp
Text GLabel 9850 2300 0    50   Input ~ 0
R2-T
Text GLabel 9850 2800 0    50   Input ~ 0
L2-T
$Comp
L Device:D_Small D2
U 1 1 5F210B09
P 8650 2250
F 0 "D2" H 8500 2200 50  0000 L CNN
F 1 "1N4007" H 8400 2100 50  0000 L CNN
F 2 "Diode_SMD:D_SOD-123F" V 8650 2250 50  0001 C CNN
F 3 "~" V 8650 2250 50  0001 C CNN
	1    8650 2250
	-1   0    0    1   
$EndComp
$Comp
L Device:D_Small D3
U 1 1 5F214898
P 8650 1500
F 0 "D3" H 8500 1450 50  0000 L CNN
F 1 "1N4007" H 8300 1350 50  0000 L CNN
F 2 "Diode_SMD:D_SOD-123F" V 8650 1500 50  0001 C CNN
F 3 "~" V 8650 1500 50  0001 C CNN
	1    8650 1500
	-1   0    0    1   
$EndComp
$Comp
L Device:Jumper_NO_Small JP4
U 1 1 5F4DEB8E
P 7400 4100
F 0 "JP4" H 7400 4285 50  0000 C CNN
F 1 "5V Power" H 7400 4194 50  0000 C CNN
F 2 "Connector_PinHeader_2.54mm:PinHeader_1x02_P2.54mm_Vertical" H 7400 4100 50  0001 C CNN
F 3 "~" H 7400 4100 50  0001 C CNN
	1    7400 4100
	1    0    0    -1  
$EndComp
$Comp
L power:+3V3 #PWR0108
U 1 1 5F4E1190
P 7300 4100
F 0 "#PWR0108" H 7300 3950 50  0001 C CNN
F 1 "+3V3" V 7315 4228 50  0000 L CNN
F 2 "" H 7300 4100 50  0001 C CNN
F 3 "" H 7300 4100 50  0001 C CNN
	1    7300 4100
	0    -1   -1   0   
$EndComp
$Comp
L power:VCC #PWR0150
U 1 1 5F4E20EB
P 7500 4100
F 0 "#PWR0150" H 7500 3950 50  0001 C CNN
F 1 "VCC" V 7517 4228 50  0000 L CNN
F 2 "" H 7500 4100 50  0001 C CNN
F 3 "" H 7500 4100 50  0001 C CNN
	1    7500 4100
	0    1    1    0   
$EndComp
$EndSCHEMATC
